RESPONSE URI FOR SEQUENCE ID 00434
==================================
https://quickbooks.api.intuit.com/v3/company/193514782950659/query?minorversion=47

RESPONSE HEADERS
================
date: Wed, 21 Jul 2021 20:24:31 GMT
content-type: application/xml;charset=UTF-8
content-length: 4373
server: nginx
intuit_tid: 1-60f8827f-5eeaca2a7cc75b9b3f6960ae
x-spanid: 0411b217-f75e-40df-b860-e212d262c048
x-amzn-trace-id: Root=1-60f8827f-5eeaca2a7cc75b9b3f6960ae
qbo-version: 1961.176
service-time: total=182, db=60
expires: 0
cache-control: max-age=0, no-cache, no-store, must-revalidate, private
strict-transport-security: max-age=31536000

RESPONSE BODY
=============
<?xml version="1.0" encoding="UTF-8" standalone="yes"?>
<IntuitResponse xmlns="http://schema.intuit.com/finance/v3" time="2021-07-21T13:24:31.157-07:00">
  <QueryResponse startPosition="1" maxResults="1" totalCount="1">
    <Invoice domain="QBO" sparse="false">
      <Id>67</Id>
      <SyncToken>0</SyncToken>
      <MetaData>
        <CreateTime>2021-07-21T13:15:47-07:00</CreateTime>
        <LastUpdatedTime>2021-07-21T13:15:47-07:00</LastUpdatedTime>
      </MetaData>
      <CustomField>
        <DefinitionId>1</DefinitionId>
        <Type>StringType</Type>
        <StringValue>PO 6565</StringValue>
      </CustomField>
      <CustomField>
        <DefinitionId>2</DefinitionId>
        <Type>StringType</Type>
        <StringValue>Claim of Lien</StringValue>
      </CustomField>
      <CustomField>
        <DefinitionId>3</DefinitionId>
        <Type>StringType</Type>
        <StringValue>2000 PARK AVENUE MIAMI BEACH F</StringValue>
      </CustomField>
      <DocNumber>88_1626898546</DocNumber>
      <TxnDate>2021-07-21</TxnDate>
      <CurrencyRef name="United States Dollar">USD</CurrencyRef>
      <Line>
        <Id>1</Id>
        <LineNum>1</LineNum>
        <Description>Contracted By - ATLANTIC PACIFIC COMMUNITY BUILDERS, LLC
Parent Work Order Number - 67</Description>
        <Amount>235.00</Amount>
        <DetailType>SalesItemLineDetail</DetailType>
        <SalesItemLineDetail>
          <ItemRef name="CLAIM OF LIEN:Claim of Lien">38</ItemRef>
          <UnitPrice>235</UnitPrice>
          <Qty>1</Qty>
          <ItemAccountRef name="Services">1</ItemAccountRef>
          <TaxCodeRef>NON</TaxCodeRef>
          <TaxClassificationRef>EUC-99990201-V1-00020000</TaxClassificationRef>
        </SalesItemLineDetail>
      </Line>
      <Line>
        <Id>2</Id>
        <LineNum>2</LineNum>
        <Description>Firm Mail</Description>
        <Amount>11.85</Amount>
        <DetailType>SalesItemLineDetail</DetailType>
        <SalesItemLineDetail>
          <ItemRef name="MAILING:Firm Mail">18</ItemRef>
          <UnitPrice>3.95</UnitPrice>
          <Qty>3</Qty>
          <ItemAccountRef name="Services">1</ItemAccountRef>
          <TaxCodeRef>TAX</TaxCodeRef>
          <TaxClassificationRef>EUC-99990202-V1-00020000</TaxClassificationRef>
        </SalesItemLineDetail>
      </Line>
      <Line>
        <Id>3</Id>
        <LineNum>3</LineNum>
        <Description>FED EX 12456987</Description>
        <Amount>45.00</Amount>
        <DetailType>SalesItemLineDetail</DetailType>
        <SalesItemLineDetail>
          <ItemRef name="MAILING:Manual">19</ItemRef>
          <UnitPrice>45</UnitPrice>
          <Qty>1</Qty>
          <ItemAccountRef name="Services">1</ItemAccountRef>
          <TaxCodeRef>TAX</TaxCodeRef>
          <TaxClassificationRef>EUC-99990202-V1-00020000</TaxClassificationRef>
        </SalesItemLineDetail>
      </Line>
      <Line>
        <Id>4</Id>
        <LineNum>4</LineNum>
        <Description>crr</Description>
        <Amount>7.25</Amount>
        <DetailType>SalesItemLineDetail</DetailType>
        <SalesItemLineDetail>
          <ItemRef name="MAILING:Manual">19</ItemRef>
          <UnitPrice>7.25</UnitPrice>
          <Qty>1</Qty>
          <ItemAccountRef name="Services">1</ItemAccountRef>
          <TaxCodeRef>TAX</TaxCodeRef>
          <TaxClassificationRef>EUC-99990202-V1-00020000</TaxClassificationRef>
        </SalesItemLineDetail>
      </Line>
      <Line>
        <Amount>299.10</Amount>
        <DetailType>SubTotalLineDetail</DetailType>
        <SubTotalLineDetail/>
      </Line>
      <TxnTaxDetail>
        <TxnTaxCodeRef>3</TxnTaxCodeRef>
        <TotalTax>4.49</TotalTax>
        <TaxLine>
          <Amount>3.85</Amount>
          <DetailType>TaxLineDetail</DetailType>
          <TaxLineDetail>
            <TaxRateRef>3</TaxRateRef>
            <PercentBased>true</PercentBased>
            <TaxPercent>6</TaxPercent>
            <NetAmountTaxable>64.10</NetAmountTaxable>
          </TaxLineDetail>
        </TaxLine>
        <TaxLine>
          <Amount>0.64</Amount>
          <DetailType>TaxLineDetail</DetailType>
          <TaxLineDetail>
            <TaxRateRef>4</TaxRateRef>
            <PercentBased>true</PercentBased>
            <TaxPercent>1</TaxPercent>
            <NetAmountTaxable>64.10</NetAmountTaxable>
          </TaxLineDetail>
        </TaxLine>
      </TxnTaxDetail>
      <CustomerRef name="AAA Construction Corp._1615909222">213</CustomerRef>
      <BillAddr>
        <Id>218</Id>
        <Line1>301 Hialeah Drive ste 118</Line1>
        <CountrySubDivisionCode>Florida</CountrySubDivisionCode>
        <PostalCode>33010</PostalCode>
      </BillAddr>
      <ShipAddr>
        <Id>219</Id>
        <Line1>301 Hialeah Drive ste 118</Line1>
        <CountrySubDivisionCode>Florida</CountrySubDivisionCode>
        <PostalCode>33010</PostalCode>
      </ShipAddr>
      <FreeFormAddress>true</FreeFormAddress>
      <ShipFromAddr>
        <Id>297</Id>
        <Line1>PO Box 22821</Line1>
        <Line2>Hialeah, FL  33002 US</Line2>
      </ShipFromAddr>
      <SalesTermRef name="Net 15">2</SalesTermRef>
      <DueDate>2021-08-05</DueDate>
      <TotalAmt>303.59</TotalAmt>
      <ApplyTaxAfterDiscount>false</ApplyTaxAfterDiscount>
      <PrintStatus>NeedToPrint</PrintStatus>
      <EmailStatus>NotSet</EmailStatus>
      <Balance>303.59</Balance>
      <TaxExemptionRef/>
      <AllowIPNPayment>false</AllowIPNPayment>
      <AllowOnlinePayment>false</AllowOnlinePayment>
      <AllowOnlineCreditCardPayment>false</AllowOnlineCreditCardPayment>
      <AllowOnlineACHPayment>false</AllowOnlineACHPayment>
    </Invoice>
  </QueryResponse>
</IntuitResponse>


