RESPONSE URI FOR SEQUENCE ID 00776
==================================
https://quickbooks.api.intuit.com/v3/company/193514782950659/invoice?minorversion=47

RESPONSE HEADERS
================
date: Wed, 10 Nov 2021 14:06:46 GMT
content-type: application/xml;charset=UTF-8
content-length: 5169
intuit_tid: 1-618bd1f5-115975967bcdf4b24ec0c25d
x-spanid: aa4c6d9a-0189-4c84-b938-4423538d35a6
x-amzn-trace-id: Root=1-618bd1f5-115975967bcdf4b24ec0c25d
x-content-type-options: nosniff
qbo-version: 1969.129
service-time: total=743, db=249
expires: 0
cache-control: max-age=0, no-cache, no-store, must-revalidate, private
x-envoy-upstream-service-time: 824
strict-transport-security: max-age=31536000
server: envoy

RESPONSE BODY
=============
<?xml version="1.0" encoding="UTF-8" standalone="yes"?>
<IntuitResponse xmlns="http://schema.intuit.com/finance/v3" time="2021-11-10T06:06:45.470-08:00">
  <Invoice domain="QBO" sparse="false">
    <Id>130</Id>
    <SyncToken>0</SyncToken>
    <MetaData>
      <CreateTime>2021-11-10T06:06:45-08:00</CreateTime>
      <LastUpdatedTime>2021-11-10T06:06:45-08:00</LastUpdatedTime>
    </MetaData>
    <CustomField>
      <DefinitionId>1</DefinitionId>
      <Type>StringType</Type>
      <StringValue>PO 7878</StringValue>
    </CustomField>
    <CustomField>
      <DefinitionId>2</DefinitionId>
      <Type>StringType</Type>
      <StringValue>Notice to Owner/Preliminary No</StringValue>
    </CustomField>
    <CustomField>
      <DefinitionId>3</DefinitionId>
      <Type>StringType</Type>
      <StringValue>16975 NW 97TH AVENUE HIALEAH F</StringValue>
    </CustomField>
    <DocNumber>116_1636553204</DocNumber>
    <TxnDate>2021-11-10</TxnDate>
    <CurrencyRef name="United States Dollar">USD</CurrencyRef>
    <Line>
      <Id>1</Id>
      <LineNum>1</LineNum>
      <Description>Contracted By - ANF GROUP INC.</Description>
      <Amount>25.00</Amount>
      <DetailType>SalesItemLineDetail</DetailType>
      <SalesItemLineDetail>
        <ItemRef name="SERVICES:NTO">32</ItemRef>
        <UnitPrice>25</UnitPrice>
        <Qty>1</Qty>
        <ItemAccountRef name="Services">1</ItemAccountRef>
        <TaxCodeRef>TAX</TaxCodeRef>
        <TaxClassificationRef>EUC-99990202-V1-00020000</TaxClassificationRef>
      </SalesItemLineDetail>
    </Line>
    <Line>
      <Id>2</Id>
      <LineNum>2</LineNum>
      <Description>Additional address charges</Description>
      <Amount>40.00</Amount>
      <DetailType>SalesItemLineDetail</DetailType>
      <SalesItemLineDetail>
        <ItemRef name="SERVICES:NTO- Additional Address">34</ItemRef>
        <UnitPrice>10</UnitPrice>
        <Qty>4</Qty>
        <ItemAccountRef name="Services">1</ItemAccountRef>
        <TaxCodeRef>TAX</TaxCodeRef>
        <TaxClassificationRef>EUC-99990202-V1-00020000</TaxClassificationRef>
      </SalesItemLineDetail>
    </Line>
    <Line>
      <Id>3</Id>
      <LineNum>3</LineNum>
      <Description>Rush Fee</Description>
      <Amount>12.50</Amount>
      <DetailType>SalesItemLineDetail</DetailType>
      <SalesItemLineDetail>
        <ItemRef name="SERVICES:Rush fee">33</ItemRef>
        <UnitPrice>12.5</UnitPrice>
        <Qty>1</Qty>
        <ItemAccountRef name="Services">1</ItemAccountRef>
        <TaxCodeRef>TAX</TaxCodeRef>
        <TaxClassificationRef>EUC-99990202-V1-00020000</TaxClassificationRef>
      </SalesItemLineDetail>
    </Line>
    <Line>
      <Id>4</Id>
      <LineNum>4</LineNum>
      <Description>Firm Mail</Description>
      <Amount>7.90</Amount>
      <DetailType>SalesItemLineDetail</DetailType>
      <SalesItemLineDetail>
        <ItemRef name="MAILING:Firm Mail">18</ItemRef>
        <UnitPrice>3.95</UnitPrice>
        <Qty>2</Qty>
        <ItemAccountRef name="Services">1</ItemAccountRef>
        <TaxCodeRef>TAX</TaxCodeRef>
        <TaxClassificationRef>EUC-99990202-V1-00020000</TaxClassificationRef>
      </SalesItemLineDetail>
    </Line>
    <Line>
      <Id>5</Id>
      <LineNum>5</LineNum>
      <Description>Certified Mail with Electronic Return Receipt</Description>
      <Amount>21.66</Amount>
      <DetailType>SalesItemLineDetail</DetailType>
      <SalesItemLineDetail>
        <ItemRef name="MAILING:Certified Mail ESRR">15</ItemRef>
        <UnitPrice>7.22</UnitPrice>
        <Qty>3</Qty>
        <ItemAccountRef name="Services">1</ItemAccountRef>
        <TaxCodeRef>TAX</TaxCodeRef>
        <TaxClassificationRef>EUC-99990202-V1-00020000</TaxClassificationRef>
      </SalesItemLineDetail>
    </Line>
    <Line>
      <Id>6</Id>
      <LineNum>6</LineNum>
      <Description>FED EX 7788994455</Description>
      <Amount>45.00</Amount>
      <DetailType>SalesItemLineDetail</DetailType>
      <SalesItemLineDetail>
        <ItemRef name="MAILING:Manual">19</ItemRef>
        <UnitPrice>45</UnitPrice>
        <Qty>1</Qty>
        <ItemAccountRef name="Services">1</ItemAccountRef>
        <TaxCodeRef>TAX</TaxCodeRef>
        <TaxClassificationRef>EUC-99990202-V1-00020000</TaxClassificationRef>
      </SalesItemLineDetail>
    </Line>
    <Line>
      <Amount>152.06</Amount>
      <DetailType>SubTotalLineDetail</DetailType>
      <SubTotalLineDetail/>
    </Line>
    <TxnTaxDetail>
      <TxnTaxCodeRef>3</TxnTaxCodeRef>
      <TotalTax>10.64</TotalTax>
      <TaxLine>
        <Amount>9.11</Amount>
        <DetailType>TaxLineDetail</DetailType>
        <TaxLineDetail>
          <TaxRateRef>3</TaxRateRef>
          <PercentBased>true</PercentBased>
          <TaxPercent>6</TaxPercent>
          <NetAmountTaxable>152.06</NetAmountTaxable>
        </TaxLineDetail>
      </TaxLine>
      <TaxLine>
        <Amount>1.53</Amount>
        <DetailType>TaxLineDetail</DetailType>
        <TaxLineDetail>
          <TaxRateRef>4</TaxRateRef>
          <PercentBased>true</PercentBased>
          <TaxPercent>1</TaxPercent>
          <NetAmountTaxable>152.06</NetAmountTaxable>
        </TaxLineDetail>
      </TaxLine>
    </TxnTaxDetail>
    <CustomerRef name="AAA Construction Corp._1615909222">213</CustomerRef>
    <BillAddr>
      <Id>218</Id>
      <Line1>301 Hialeah Drive ste 118</Line1>
      <CountrySubDivisionCode>Florida</CountrySubDivisionCode>
      <PostalCode>33010</PostalCode>
    </BillAddr>
    <ShipAddr>
      <Id>219</Id>
      <Line1>301 Hialeah Drive ste 118</Line1>
      <CountrySubDivisionCode>Florida</CountrySubDivisionCode>
      <PostalCode>33010</PostalCode>
    </ShipAddr>
    <FreeFormAddress>true</FreeFormAddress>
    <ShipFromAddr>
      <Id>369</Id>
      <Line1>PO Box 22821</Line1>
      <Line2>Hialeah, FL  33002 US</Line2>
    </ShipFromAddr>
    <SalesTermRef name="Net 15">2</SalesTermRef>
    <DueDate>2021-11-25</DueDate>
    <TotalAmt>162.70</TotalAmt>
    <ApplyTaxAfterDiscount>false</ApplyTaxAfterDiscount>
    <PrintStatus>NeedToPrint</PrintStatus>
    <EmailStatus>NotSet</EmailStatus>
    <Balance>162.70</Balance>
    <TaxExemptionRef/>
    <AllowIPNPayment>false</AllowIPNPayment>
    <AllowOnlinePayment>false</AllowOnlinePayment>
    <AllowOnlineCreditCardPayment>false</AllowOnlineCreditCardPayment>
    <AllowOnlineACHPayment>false</AllowOnlineACHPayment>
  </Invoice>
</IntuitResponse>


