RESPONSE URI FOR SEQUENCE ID 00794
==================================
https://quickbooks.api.intuit.com/v3/company/193514782950659/invoice?minorversion=47

RESPONSE HEADERS
================
date: Thu, 11 Nov 2021 08:45:10 GMT
content-type: application/xml;charset=UTF-8
content-length: 3864
intuit_tid: 1-618cd815-2c51d0fd76f436d178c1cacd
x-spanid: 7593e104-6564-4f8b-94a0-af0d401d7095
x-amzn-trace-id: Root=1-618cd815-2c51d0fd76f436d178c1cacd
x-content-type-options: nosniff
qbo-version: 1969.129
service-time: total=706, db=204
expires: 0
cache-control: max-age=0, no-cache, no-store, must-revalidate, private
x-envoy-upstream-service-time: 799
strict-transport-security: max-age=31536000
server: envoy

RESPONSE BODY
=============
<?xml version="1.0" encoding="UTF-8" standalone="yes"?>
<IntuitResponse xmlns="http://schema.intuit.com/finance/v3" time="2021-11-11T00:45:10.127-08:00">
  <Invoice domain="QBO" sparse="false">
    <Id>137</Id>
    <SyncToken>0</SyncToken>
    <MetaData>
      <CreateTime>2021-11-11T00:45:10-08:00</CreateTime>
      <LastUpdatedTime>2021-11-11T00:45:10-08:00</LastUpdatedTime>
    </MetaData>
    <CustomField>
      <DefinitionId>1</DefinitionId>
      <Type>StringType</Type>
      <StringValue>PO 16514</StringValue>
    </CustomField>
    <CustomField>
      <DefinitionId>2</DefinitionId>
      <Type>StringType</Type>
      <StringValue>Notice to Owner/Preliminary No</StringValue>
    </CustomField>
    <CustomField>
      <DefinitionId>3</DefinitionId>
      <Type>StringType</Type>
      <StringValue>1411 NORTH FLAGLER STREET STE</StringValue>
    </CustomField>
    <DocNumber>112_1636620309</DocNumber>
    <TxnDate>2021-11-11</TxnDate>
    <CurrencyRef name="United States Dollar">USD</CurrencyRef>
    <Line>
      <Id>1</Id>
      <LineNum>1</LineNum>
      <Description>Contracted By - AG CONTRACTORSLLC</Description>
      <Amount>25.00</Amount>
      <DetailType>SalesItemLineDetail</DetailType>
      <SalesItemLineDetail>
        <ItemRef name="SERVICES:NTO">32</ItemRef>
        <UnitPrice>25</UnitPrice>
        <Qty>1</Qty>
        <ItemAccountRef name="Services">1</ItemAccountRef>
        <TaxCodeRef>TAX</TaxCodeRef>
        <TaxClassificationRef>EUC-99990202-V1-00020000</TaxClassificationRef>
      </SalesItemLineDetail>
    </Line>
    <Line>
      <Id>2</Id>
      <LineNum>2</LineNum>
      <Description>Additional address charges</Description>
      <Amount>90.00</Amount>
      <DetailType>SalesItemLineDetail</DetailType>
      <SalesItemLineDetail>
        <ItemRef name="SERVICES:NTO- Additional Address">34</ItemRef>
        <UnitPrice>10</UnitPrice>
        <Qty>9</Qty>
        <ItemAccountRef name="Services">1</ItemAccountRef>
        <TaxCodeRef>TAX</TaxCodeRef>
        <TaxClassificationRef>EUC-99990202-V1-00020000</TaxClassificationRef>
      </SalesItemLineDetail>
    </Line>
    <Line>
      <Id>3</Id>
      <LineNum>3</LineNum>
      <Description>Firm Mail</Description>
      <Amount>23.70</Amount>
      <DetailType>SalesItemLineDetail</DetailType>
      <SalesItemLineDetail>
        <ItemRef name="MAILING:Firm Mail">18</ItemRef>
        <UnitPrice>3.95</UnitPrice>
        <Qty>6</Qty>
        <ItemAccountRef name="Services">1</ItemAccountRef>
        <TaxCodeRef>TAX</TaxCodeRef>
        <TaxClassificationRef>EUC-99990202-V1-00020000</TaxClassificationRef>
      </SalesItemLineDetail>
    </Line>
    <Line>
      <Amount>138.70</Amount>
      <DetailType>SubTotalLineDetail</DetailType>
      <SubTotalLineDetail/>
    </Line>
    <TxnTaxDetail>
      <TxnTaxCodeRef>3</TxnTaxCodeRef>
      <TotalTax>9.71</TotalTax>
      <TaxLine>
        <Amount>8.32</Amount>
        <DetailType>TaxLineDetail</DetailType>
        <TaxLineDetail>
          <TaxRateRef>3</TaxRateRef>
          <PercentBased>true</PercentBased>
          <TaxPercent>6</TaxPercent>
          <NetAmountTaxable>138.70</NetAmountTaxable>
        </TaxLineDetail>
      </TaxLine>
      <TaxLine>
        <Amount>1.39</Amount>
        <DetailType>TaxLineDetail</DetailType>
        <TaxLineDetail>
          <TaxRateRef>4</TaxRateRef>
          <PercentBased>true</PercentBased>
          <TaxPercent>1</TaxPercent>
          <NetAmountTaxable>138.70</NetAmountTaxable>
        </TaxLineDetail>
      </TaxLine>
    </TxnTaxDetail>
    <CustomerRef name="AAA Construction Corp._1615909222">213</CustomerRef>
    <BillAddr>
      <Id>218</Id>
      <Line1>301 Hialeah Drive ste 118</Line1>
      <CountrySubDivisionCode>Florida</CountrySubDivisionCode>
      <PostalCode>33010</PostalCode>
    </BillAddr>
    <ShipAddr>
      <Id>219</Id>
      <Line1>301 Hialeah Drive ste 118</Line1>
      <CountrySubDivisionCode>Florida</CountrySubDivisionCode>
      <PostalCode>33010</PostalCode>
    </ShipAddr>
    <FreeFormAddress>true</FreeFormAddress>
    <ShipFromAddr>
      <Id>376</Id>
      <Line1>PO Box 22821</Line1>
      <Line2>Hialeah, FL  33002 US</Line2>
    </ShipFromAddr>
    <SalesTermRef name="Net 15">2</SalesTermRef>
    <DueDate>2021-11-26</DueDate>
    <TotalAmt>148.41</TotalAmt>
    <ApplyTaxAfterDiscount>false</ApplyTaxAfterDiscount>
    <PrintStatus>NeedToPrint</PrintStatus>
    <EmailStatus>NotSet</EmailStatus>
    <Balance>148.41</Balance>
    <TaxExemptionRef/>
    <AllowIPNPayment>false</AllowIPNPayment>
    <AllowOnlinePayment>false</AllowOnlinePayment>
    <AllowOnlineCreditCardPayment>false</AllowOnlineCreditCardPayment>
    <AllowOnlineACHPayment>false</AllowOnlineACHPayment>
  </Invoice>
</IntuitResponse>


