RESPONSE URI FOR SEQUENCE ID 01056
==================================
https://quickbooks.api.intuit.com/v3/company/193514782950659/query?minorversion=47

RESPONSE HEADERS
================
date: Sat, 08 Jan 2022 19:15:30 GMT
content-type: application/xml;charset=UTF-8
content-length: 185
intuit_tid: 1-61d9e2d2-48a3661e59ce6a1766e1255a
x-spanid: 6a69e617-5be7-4f78-a392-313039bda63a
x-amzn-trace-id: Root=1-61d9e2d2-48a3661e59ce6a1766e1255a
x-content-type-options: nosniff
qbo-version: 1971.195
service-time: total=97, db=14
expires: 0
cache-control: max-age=0, no-cache, no-store, must-revalidate, private
x-envoy-upstream-service-time: 122
strict-transport-security: max-age=31536000
server: envoy

RESPONSE BODY
=============
<?xml version="1.0" encoding="UTF-8" standalone="yes"?>
<IntuitResponse xmlns="http://schema.intuit.com/finance/v3" time="2022-01-08T11:15:30.424-08:00">
  <QueryResponse/>
</IntuitResponse>


