RESPONSE URI FOR SEQUENCE ID 01068
==================================
https://quickbooks.api.intuit.com/v3/company/193514782950659/query?minorversion=47

RESPONSE HEADERS
================
date: Sat, 08 Jan 2022 19:15:33 GMT
content-type: application/xml;charset=UTF-8
content-length: 185
intuit_tid: 1-61d9e2d5-3141e1653befb4ed752fe52b
x-spanid: 5aa243cc-2343-4d87-a712-707b3431d0df
x-amzn-trace-id: Root=1-61d9e2d5-3141e1653befb4ed752fe52b
x-content-type-options: nosniff
qbo-version: 1971.195
service-time: total=102, db=14
expires: 0
cache-control: max-age=0, no-cache, no-store, must-revalidate, private
x-envoy-upstream-service-time: 131
strict-transport-security: max-age=31536000
server: envoy

RESPONSE BODY
=============
<?xml version="1.0" encoding="UTF-8" standalone="yes"?>
<IntuitResponse xmlns="http://schema.intuit.com/finance/v3" time="2022-01-08T11:15:33.473-08:00">
  <QueryResponse/>
</IntuitResponse>


