RESPONSE URI FOR SEQUENCE ID 01074
==================================
https://quickbooks.api.intuit.com/v3/company/193514782950659/query?minorversion=47

RESPONSE HEADERS
================
date: Sat, 08 Jan 2022 19:15:34 GMT
content-type: application/xml;charset=UTF-8
content-length: 185
intuit_tid: 1-61d9e2d6-64b256654fff9d435da24e01
x-spanid: e89564dd-169a-456e-9bfe-1e4b83844570
x-amzn-trace-id: Root=1-61d9e2d6-64b256654fff9d435da24e01
x-content-type-options: nosniff
qbo-version: 1971.195
service-time: total=130, db=32
expires: 0
cache-control: max-age=0, no-cache, no-store, must-revalidate, private
x-envoy-upstream-service-time: 157
strict-transport-security: max-age=31536000
server: envoy

RESPONSE BODY
=============
<?xml version="1.0" encoding="UTF-8" standalone="yes"?>
<IntuitResponse xmlns="http://schema.intuit.com/finance/v3" time="2022-01-08T11:15:34.681-08:00">
  <QueryResponse/>
</IntuitResponse>


