RESPONSE URI FOR SEQUENCE ID 01088
==================================
https://quickbooks.api.intuit.com/v3/company/193514782950659/query?minorversion=47

RESPONSE HEADERS
================
date: Sat, 08 Jan 2022 19:18:28 GMT
content-type: application/xml;charset=UTF-8
content-length: 185
intuit_tid: 1-61d9e384-12e978014a0303fc65c0a398
x-spanid: d40e5f20-bf82-4c9e-8a81-955273eb1cb9
x-amzn-trace-id: Root=1-61d9e384-12e978014a0303fc65c0a398
x-content-type-options: nosniff
qbo-version: 1971.195
service-time: total=104, db=10
expires: 0
cache-control: max-age=0, no-cache, no-store, must-revalidate, private
x-envoy-upstream-service-time: 165
strict-transport-security: max-age=31536000
server: envoy

RESPONSE BODY
=============
<?xml version="1.0" encoding="UTF-8" standalone="yes"?>
<IntuitResponse xmlns="http://schema.intuit.com/finance/v3" time="2022-01-08T11:18:28.429-08:00">
  <QueryResponse/>
</IntuitResponse>


