RESPONSE URI FOR SEQUENCE ID 01100
==================================
https://quickbooks.api.intuit.com/v3/company/193514782950659/query?minorversion=47

RESPONSE HEADERS
================
date: Sat, 08 Jan 2022 19:18:31 GMT
content-type: application/xml;charset=UTF-8
content-length: 185
intuit_tid: 1-61d9e387-3e4866f24000783d531f43e4
x-spanid: f9f569c3-0353-411d-b55e-6eaa001c93f6
x-amzn-trace-id: Root=1-61d9e387-3e4866f24000783d531f43e4
x-content-type-options: nosniff
qbo-version: 1971.195
service-time: total=108, db=5
expires: 0
cache-control: max-age=0, no-cache, no-store, must-revalidate, private
x-envoy-upstream-service-time: 133
strict-transport-security: max-age=31536000
server: envoy

RESPONSE BODY
=============
<?xml version="1.0" encoding="UTF-8" standalone="yes"?>
<IntuitResponse xmlns="http://schema.intuit.com/finance/v3" time="2022-01-08T11:18:31.127-08:00">
  <QueryResponse/>
</IntuitResponse>


