RESPONSE URI FOR SEQUENCE ID 01148
==================================
https://quickbooks.api.intuit.com/v3/company/193514782950659/query?minorversion=47

RESPONSE HEADERS
================
date: Sat, 08 Jan 2022 19:18:42 GMT
content-type: application/xml;charset=UTF-8
content-length: 185
intuit_tid: 1-61d9e391-49fd156a2a5491a1363d9814
x-spanid: 2fd2a66d-9e75-476e-b86f-4e0806fb6512
x-amzn-trace-id: Root=1-61d9e391-49fd156a2a5491a1363d9814
x-content-type-options: nosniff
qbo-version: 1971.195
service-time: total=99, db=14
expires: 0
cache-control: max-age=0, no-cache, no-store, must-revalidate, private
x-envoy-upstream-service-time: 123
strict-transport-security: max-age=31536000
server: envoy

RESPONSE BODY
=============
<?xml version="1.0" encoding="UTF-8" standalone="yes"?>
<IntuitResponse xmlns="http://schema.intuit.com/finance/v3" time="2022-01-08T11:18:41.962-08:00">
  <QueryResponse/>
</IntuitResponse>


