RESPONSE URI FOR SEQUENCE ID 01158
==================================
https://quickbooks.api.intuit.com/v3/company/193514782950659/query?minorversion=47

RESPONSE HEADERS
================
date: Sat, 08 Jan 2022 19:18:44 GMT
content-type: application/xml;charset=UTF-8
content-length: 185
intuit_tid: 1-61d9e394-4c995da60d3087a00263108f
x-spanid: b2f4614c-3b48-46de-af44-67457af664fb
x-amzn-trace-id: Root=1-61d9e394-4c995da60d3087a00263108f
x-content-type-options: nosniff
qbo-version: 1971.195
service-time: total=122, db=32
expires: 0
cache-control: max-age=0, no-cache, no-store, must-revalidate, private
x-envoy-upstream-service-time: 149
strict-transport-security: max-age=31536000
server: envoy

RESPONSE BODY
=============
<?xml version="1.0" encoding="UTF-8" standalone="yes"?>
<IntuitResponse xmlns="http://schema.intuit.com/finance/v3" time="2022-01-08T11:18:44.228-08:00">
  <QueryResponse/>
</IntuitResponse>


