RESPONSE URI FOR SEQUENCE ID 01196
==================================
https://quickbooks.api.intuit.com/v3/company/193514782950659/query?minorversion=47

RESPONSE HEADERS
================
date: Sat, 08 Jan 2022 19:21:36 GMT
content-type: application/xml;charset=UTF-8
content-length: 185
intuit_tid: 1-61d9e43f-7a16af3c07d7449f4c0d9899
x-spanid: b3b11084-b57a-4f90-a479-0ff606dbe7f4
x-amzn-trace-id: Root=1-61d9e43f-7a16af3c07d7449f4c0d9899
x-content-type-options: nosniff
qbo-version: 1971.195
service-time: total=92, db=14
expires: 0
cache-control: max-age=0, no-cache, no-store, must-revalidate, private
x-envoy-upstream-service-time: 117
strict-transport-security: max-age=31536000
server: envoy

RESPONSE BODY
=============
<?xml version="1.0" encoding="UTF-8" standalone="yes"?>
<IntuitResponse xmlns="http://schema.intuit.com/finance/v3" time="2022-01-08T11:21:35.958-08:00">
  <QueryResponse/>
</IntuitResponse>


