RESPONSE URI FOR SEQUENCE ID 01214
==================================
https://quickbooks.api.intuit.com/v3/company/193514782950659/query?minorversion=47

RESPONSE HEADERS
================
date: Sat, 08 Jan 2022 19:21:39 GMT
content-type: application/xml;charset=UTF-8
content-length: 185
intuit_tid: 1-61d9e443-114fc8a8282db38e7717f911
x-spanid: 07b2a976-e264-46f6-838f-5d81e35f4a7a
x-amzn-trace-id: Root=1-61d9e443-114fc8a8282db38e7717f911
x-content-type-options: nosniff
qbo-version: 1971.195
service-time: total=107, db=15
expires: 0
cache-control: max-age=0, no-cache, no-store, must-revalidate, private
x-envoy-upstream-service-time: 138
strict-transport-security: max-age=31536000
server: envoy

RESPONSE BODY
=============
<?xml version="1.0" encoding="UTF-8" standalone="yes"?>
<IntuitResponse xmlns="http://schema.intuit.com/finance/v3" time="2022-01-08T11:21:39.678-08:00">
  <QueryResponse/>
</IntuitResponse>


