RESPONSE URI FOR SEQUENCE ID 01210
==================================
https://quickbooks.api.intuit.com/v3/company/193514782950659/query?minorversion=47

RESPONSE HEADERS
================
date: Sat, 08 Jan 2022 19:21:38 GMT
content-type: application/xml;charset=UTF-8
content-length: 185
intuit_tid: 1-61d9e442-3a6580616f8472082b5e9fa3
x-spanid: b143f1ad-ee4b-4a5c-96a4-3949c7320c8a
x-amzn-trace-id: Root=1-61d9e442-3a6580616f8472082b5e9fa3
x-content-type-options: nosniff
qbo-version: 1971.195
service-time: total=97, db=13
expires: 0
cache-control: max-age=0, no-cache, no-store, must-revalidate, private
x-envoy-upstream-service-time: 123
strict-transport-security: max-age=31536000
server: envoy

RESPONSE BODY
=============
<?xml version="1.0" encoding="UTF-8" standalone="yes"?>
<IntuitResponse xmlns="http://schema.intuit.com/finance/v3" time="2022-01-08T11:21:38.858-08:00">
  <QueryResponse/>
</IntuitResponse>


