RESPONSE URI FOR SEQUENCE ID 01218
==================================
https://quickbooks.api.intuit.com/v3/company/193514782950659/query?minorversion=47

RESPONSE HEADERS
================
date: Sat, 08 Jan 2022 19:21:40 GMT
content-type: application/xml;charset=UTF-8
content-length: 185
intuit_tid: 1-61d9e444-333f37d4441b60343800541a
x-spanid: 4fd03cdc-e92e-4863-90d9-618fd56fe32f
x-amzn-trace-id: Root=1-61d9e444-333f37d4441b60343800541a
x-content-type-options: nosniff
qbo-version: 1971.195
service-time: total=86, db=16
expires: 0
cache-control: max-age=0, no-cache, no-store, must-revalidate, private
x-envoy-upstream-service-time: 114
strict-transport-security: max-age=31536000
server: envoy

RESPONSE BODY
=============
<?xml version="1.0" encoding="UTF-8" standalone="yes"?>
<IntuitResponse xmlns="http://schema.intuit.com/finance/v3" time="2022-01-08T11:21:40.522-08:00">
  <QueryResponse/>
</IntuitResponse>


