RESPONSE URI FOR SEQUENCE ID 01222
==================================
https://quickbooks.api.intuit.com/v3/company/193514782950659/query?minorversion=47

RESPONSE HEADERS
================
date: Sat, 08 Jan 2022 19:21:41 GMT
content-type: application/xml;charset=UTF-8
content-length: 185
intuit_tid: 1-61d9e445-4183506314cdc1ab5bb05fd9
x-spanid: b53c6d9b-bd6f-4335-a940-340525a2713b
x-amzn-trace-id: Root=1-61d9e445-4183506314cdc1ab5bb05fd9
x-content-type-options: nosniff
qbo-version: 1971.195
service-time: total=126, db=30
expires: 0
cache-control: max-age=0, no-cache, no-store, must-revalidate, private
x-envoy-upstream-service-time: 153
strict-transport-security: max-age=31536000
server: envoy

RESPONSE BODY
=============
<?xml version="1.0" encoding="UTF-8" standalone="yes"?>
<IntuitResponse xmlns="http://schema.intuit.com/finance/v3" time="2022-01-08T11:21:41.385-08:00">
  <QueryResponse/>
</IntuitResponse>


