RESPONSE URI FOR SEQUENCE ID 01258
==================================
https://quickbooks.api.intuit.com/v3/company/193514782950659/query?minorversion=47

RESPONSE HEADERS
================
date: Sat, 08 Jan 2022 19:24:08 GMT
content-type: application/xml;charset=UTF-8
content-length: 185
intuit_tid: 1-61d9e4d8-49931e5461b7bfd71a988df9
x-spanid: 0bfb6c0d-c6f2-40a8-a7d4-8d0604f9a21b
x-amzn-trace-id: Root=1-61d9e4d8-49931e5461b7bfd71a988df9
x-content-type-options: nosniff
qbo-version: 1971.195
service-time: total=128, db=34
expires: 0
cache-control: max-age=0, no-cache, no-store, must-revalidate, private
x-envoy-upstream-service-time: 151
strict-transport-security: max-age=31536000
server: envoy

RESPONSE BODY
=============
<?xml version="1.0" encoding="UTF-8" standalone="yes"?>
<IntuitResponse xmlns="http://schema.intuit.com/finance/v3" time="2022-01-08T11:24:08.280-08:00">
  <QueryResponse/>
</IntuitResponse>


