RESPONSE URI FOR SEQUENCE ID 01268
==================================
https://quickbooks.api.intuit.com/v3/company/193514782950659/query?minorversion=47

RESPONSE HEADERS
================
date: Sat, 08 Jan 2022 19:24:10 GMT
content-type: application/xml;charset=UTF-8
content-length: 185
intuit_tid: 1-61d9e4da-0803beab5d68fcd27de7c7df
x-spanid: f4a082c6-9be4-41af-be39-8db79dd0e443
x-amzn-trace-id: Root=1-61d9e4da-0803beab5d68fcd27de7c7df
x-content-type-options: nosniff
qbo-version: 1971.195
service-time: total=108, db=9
expires: 0
cache-control: max-age=0, no-cache, no-store, must-revalidate, private
x-envoy-upstream-service-time: 146
strict-transport-security: max-age=31536000
server: envoy

RESPONSE BODY
=============
<?xml version="1.0" encoding="UTF-8" standalone="yes"?>
<IntuitResponse xmlns="http://schema.intuit.com/finance/v3" time="2022-01-08T11:24:10.541-08:00">
  <QueryResponse/>
</IntuitResponse>


