RESPONSE URI FOR SEQUENCE ID 01302
==================================
https://quickbooks.api.intuit.com/v3/company/193514782950659/query?minorversion=47

RESPONSE HEADERS
================
date: Sat, 08 Jan 2022 19:24:18 GMT
content-type: application/xml;charset=UTF-8
content-length: 185
intuit_tid: 1-61d9e4e2-078cbb02222badd92fe237c4
x-spanid: 81fb1890-2772-405b-a8e7-1da954f00aa5
x-amzn-trace-id: Root=1-61d9e4e2-078cbb02222badd92fe237c4
x-content-type-options: nosniff
qbo-version: 1971.195
service-time: total=133, db=36
expires: 0
cache-control: max-age=0, no-cache, no-store, must-revalidate, private
x-envoy-upstream-service-time: 160
strict-transport-security: max-age=31536000
server: envoy

RESPONSE BODY
=============
<?xml version="1.0" encoding="UTF-8" standalone="yes"?>
<IntuitResponse xmlns="http://schema.intuit.com/finance/v3" time="2022-01-08T11:24:18.266-08:00">
  <QueryResponse/>
</IntuitResponse>


