RESPONSE URI FOR SEQUENCE ID 01312
==================================
https://quickbooks.api.intuit.com/v3/company/193514782950659/query?minorversion=47

RESPONSE HEADERS
================
date: Sat, 08 Jan 2022 19:24:20 GMT
content-type: application/xml;charset=UTF-8
content-length: 185
intuit_tid: 1-61d9e4e4-6dc2225902a20c1f3470fc1b
x-spanid: 885ac29e-47be-4f0a-a1e3-e983eed223c1
x-amzn-trace-id: Root=1-61d9e4e4-6dc2225902a20c1f3470fc1b
x-content-type-options: nosniff
qbo-version: 1971.195
service-time: total=101, db=15
expires: 0
cache-control: max-age=0, no-cache, no-store, must-revalidate, private
x-envoy-upstream-service-time: 130
strict-transport-security: max-age=31536000
server: envoy

RESPONSE BODY
=============
<?xml version="1.0" encoding="UTF-8" standalone="yes"?>
<IntuitResponse xmlns="http://schema.intuit.com/finance/v3" time="2022-01-08T11:24:20.459-08:00">
  <QueryResponse/>
</IntuitResponse>


