RESPONSE URI FOR SEQUENCE ID 01316
==================================
https://quickbooks.api.intuit.com/v3/company/193514782950659/query?minorversion=47

RESPONSE HEADERS
================
date: Sat, 08 Jan 2022 19:24:21 GMT
content-type: application/xml;charset=UTF-8
content-length: 185
intuit_tid: 1-61d9e4e5-419e8192033406f9576bfd12
x-spanid: b8dee248-11ef-4832-b76a-3fd359b0d4b6
x-amzn-trace-id: Root=1-61d9e4e5-419e8192033406f9576bfd12
x-content-type-options: nosniff
qbo-version: 1971.195
service-time: total=98, db=8
expires: 0
cache-control: max-age=0, no-cache, no-store, must-revalidate, private
x-envoy-upstream-service-time: 125
strict-transport-security: max-age=31536000
server: envoy

RESPONSE BODY
=============
<?xml version="1.0" encoding="UTF-8" standalone="yes"?>
<IntuitResponse xmlns="http://schema.intuit.com/finance/v3" time="2022-01-08T11:24:21.321-08:00">
  <QueryResponse/>
</IntuitResponse>


