RESPONSE URI FOR SEQUENCE ID 01314
==================================
https://quickbooks.api.intuit.com/v3/company/193514782950659/query?minorversion=47

RESPONSE HEADERS
================
date: Sat, 08 Jan 2022 19:24:20 GMT
content-type: application/xml;charset=UTF-8
content-length: 185
intuit_tid: 1-61d9e4e4-1c4d7d46776e51a67a461317
x-spanid: af72dc6b-a10f-43fe-b35f-2a4c697772ff
x-amzn-trace-id: Root=1-61d9e4e4-1c4d7d46776e51a67a461317
x-content-type-options: nosniff
qbo-version: 1971.195
service-time: total=98, db=7
expires: 0
cache-control: max-age=0, no-cache, no-store, must-revalidate, private
x-envoy-upstream-service-time: 125
strict-transport-security: max-age=31536000
server: envoy

RESPONSE BODY
=============
<?xml version="1.0" encoding="UTF-8" standalone="yes"?>
<IntuitResponse xmlns="http://schema.intuit.com/finance/v3" time="2022-01-08T11:24:20.891-08:00">
  <QueryResponse/>
</IntuitResponse>


