RESPONSE URI FOR SEQUENCE ID 01320
==================================
https://quickbooks.api.intuit.com/v3/company/193514782950659/query?minorversion=47

RESPONSE HEADERS
================
date: Sat, 08 Jan 2022 19:24:22 GMT
content-type: application/xml;charset=UTF-8
content-length: 185
intuit_tid: 1-61d9e4e6-0af797c57fa9045621f27053
x-spanid: 8cacd73e-2f13-434e-9d66-67ab68741b93
x-amzn-trace-id: Root=1-61d9e4e6-0af797c57fa9045621f27053
x-content-type-options: nosniff
qbo-version: 1971.195
service-time: total=89, db=16
expires: 0
cache-control: max-age=0, no-cache, no-store, must-revalidate, private
x-envoy-upstream-service-time: 120
strict-transport-security: max-age=31536000
server: envoy

RESPONSE BODY
=============
<?xml version="1.0" encoding="UTF-8" standalone="yes"?>
<IntuitResponse xmlns="http://schema.intuit.com/finance/v3" time="2022-01-08T11:24:22.165-08:00">
  <QueryResponse/>
</IntuitResponse>


