RESPONSE URI FOR SEQUENCE ID 01334
==================================
https://quickbooks.api.intuit.com/v3/company/193514782950659/query?minorversion=47

RESPONSE HEADERS
================
date: Sat, 08 Jan 2022 19:27:05 GMT
content-type: application/xml;charset=UTF-8
content-length: 185
intuit_tid: 1-61d9e589-00b36159572b961a481dd882
x-spanid: ca8d1a35-5785-4af9-8db2-9382b3a913e6
x-amzn-trace-id: Root=1-61d9e589-00b36159572b961a481dd882
x-content-type-options: nosniff
qbo-version: 1971.195
service-time: total=151, db=12
expires: 0
cache-control: max-age=0, no-cache, no-store, must-revalidate, private
x-envoy-upstream-service-time: 192
strict-transport-security: max-age=31536000
server: envoy

RESPONSE BODY
=============
<?xml version="1.0" encoding="UTF-8" standalone="yes"?>
<IntuitResponse xmlns="http://schema.intuit.com/finance/v3" time="2022-01-08T11:27:05.445-08:00">
  <QueryResponse/>
</IntuitResponse>


