RESPONSE URI FOR SEQUENCE ID 01378
==================================
https://quickbooks.api.intuit.com/v3/company/193514782950659/query?minorversion=47

RESPONSE HEADERS
================
date: Sat, 08 Jan 2022 19:27:14 GMT
content-type: application/xml;charset=UTF-8
content-length: 185
intuit_tid: 1-61d9e592-63eb487726ce80c913b58783
x-spanid: 24e6fd39-d5cc-4c99-9041-b049a84ca965
x-amzn-trace-id: Root=1-61d9e592-63eb487726ce80c913b58783
x-content-type-options: nosniff
qbo-version: 1971.195
service-time: total=96, db=13
expires: 0
cache-control: max-age=0, no-cache, no-store, must-revalidate, private
x-envoy-upstream-service-time: 118
strict-transport-security: max-age=31536000
server: envoy

RESPONSE BODY
=============
<?xml version="1.0" encoding="UTF-8" standalone="yes"?>
<IntuitResponse xmlns="http://schema.intuit.com/finance/v3" time="2022-01-08T11:27:14.763-08:00">
  <QueryResponse/>
</IntuitResponse>


