RESPONSE URI FOR SEQUENCE ID 01396
==================================
https://quickbooks.api.intuit.com/v3/company/193514782950659/query?minorversion=47

RESPONSE HEADERS
================
date: Sat, 08 Jan 2022 19:27:18 GMT
content-type: application/xml;charset=UTF-8
content-length: 185
intuit_tid: 1-61d9e596-7ae2b3880b08a6a5066d9b3b
x-spanid: c99bfaf0-0092-45d8-a6d0-ce5141002961
x-amzn-trace-id: Root=1-61d9e596-7ae2b3880b08a6a5066d9b3b
x-content-type-options: nosniff
qbo-version: 1971.195
service-time: total=90, db=15
expires: 0
cache-control: max-age=0, no-cache, no-store, must-revalidate, private
x-envoy-upstream-service-time: 116
strict-transport-security: max-age=31536000
server: envoy

RESPONSE BODY
=============
<?xml version="1.0" encoding="UTF-8" standalone="yes"?>
<IntuitResponse xmlns="http://schema.intuit.com/finance/v3" time="2022-01-08T11:27:18.388-08:00">
  <QueryResponse/>
</IntuitResponse>


