RESPONSE URI FOR SEQUENCE ID 01464
==================================
https://quickbooks.api.intuit.com/v3/company/193514782950659/query?minorversion=47

RESPONSE HEADERS
================
date: Sat, 08 Jan 2022 19:38:35 GMT
content-type: application/xml;charset=UTF-8
content-length: 185
intuit_tid: 1-61d9e83b-05e75a251d23f2747273db04
x-spanid: f326f4cb-9e56-4a45-9d3d-0be82f417d05
x-amzn-trace-id: Root=1-61d9e83b-05e75a251d23f2747273db04
x-content-type-options: nosniff
qbo-version: 1971.195
service-time: total=93, db=11
expires: 0
cache-control: max-age=0, no-cache, no-store, must-revalidate, private
x-envoy-upstream-service-time: 124
strict-transport-security: max-age=31536000
server: envoy

RESPONSE BODY
=============
<?xml version="1.0" encoding="UTF-8" standalone="yes"?>
<IntuitResponse xmlns="http://schema.intuit.com/finance/v3" time="2022-01-08T11:38:35.085-08:00">
  <QueryResponse/>
</IntuitResponse>


