RESPONSE URI FOR SEQUENCE ID 01470
==================================
https://quickbooks.api.intuit.com/v3/company/193514782950659/query?minorversion=47

RESPONSE HEADERS
================
date: Sat, 08 Jan 2022 19:38:36 GMT
content-type: application/xml;charset=UTF-8
content-length: 185
intuit_tid: 1-61d9e83c-76bf0a6b72e1e52a27795714
x-spanid: 4a6ea9e3-dabd-4292-b87a-8855303983d7
x-amzn-trace-id: Root=1-61d9e83c-76bf0a6b72e1e52a27795714
x-content-type-options: nosniff
qbo-version: 1971.195
service-time: total=104, db=12
expires: 0
cache-control: max-age=0, no-cache, no-store, must-revalidate, private
x-envoy-upstream-service-time: 129
strict-transport-security: max-age=31536000
server: envoy

RESPONSE BODY
=============
<?xml version="1.0" encoding="UTF-8" standalone="yes"?>
<IntuitResponse xmlns="http://schema.intuit.com/finance/v3" time="2022-01-08T11:38:36.419-08:00">
  <QueryResponse/>
</IntuitResponse>


