RESPONSE URI FOR SEQUENCE ID 01484
==================================
https://quickbooks.api.intuit.com/v3/company/193514782950659/query?minorversion=47

RESPONSE HEADERS
================
date: Sat, 08 Jan 2022 19:38:39 GMT
content-type: application/xml;charset=UTF-8
content-length: 185
intuit_tid: 1-61d9e83f-69de43542ad9c5963b4c883d
x-spanid: 897a52e7-1620-4b6b-9328-669d260925e9
x-amzn-trace-id: Root=1-61d9e83f-69de43542ad9c5963b4c883d
x-content-type-options: nosniff
qbo-version: 1971.195
service-time: total=126, db=33
expires: 0
cache-control: max-age=0, no-cache, no-store, must-revalidate, private
x-envoy-upstream-service-time: 151
strict-transport-security: max-age=31536000
server: envoy

RESPONSE BODY
=============
<?xml version="1.0" encoding="UTF-8" standalone="yes"?>
<IntuitResponse xmlns="http://schema.intuit.com/finance/v3" time="2022-01-08T11:38:39.536-08:00">
  <QueryResponse/>
</IntuitResponse>


