RESPONSE URI FOR SEQUENCE ID 01488
==================================
https://quickbooks.api.intuit.com/v3/company/193514782950659/query?minorversion=47

RESPONSE HEADERS
================
date: Sat, 08 Jan 2022 19:38:40 GMT
content-type: application/xml;charset=UTF-8
content-length: 185
intuit_tid: 1-61d9e840-5c6b32b83fdd74a0456276f3
x-spanid: 7599d3cb-8c8d-4ad9-b980-3e08db0d83fc
x-amzn-trace-id: Root=1-61d9e840-5c6b32b83fdd74a0456276f3
x-content-type-options: nosniff
qbo-version: 1971.195
service-time: total=99, db=8
expires: 0
cache-control: max-age=0, no-cache, no-store, must-revalidate, private
x-envoy-upstream-service-time: 126
strict-transport-security: max-age=31536000
server: envoy

RESPONSE BODY
=============
<?xml version="1.0" encoding="UTF-8" standalone="yes"?>
<IntuitResponse xmlns="http://schema.intuit.com/finance/v3" time="2022-01-08T11:38:40.411-08:00">
  <QueryResponse/>
</IntuitResponse>


