RESPONSE URI FOR SEQUENCE ID 01646
==================================
https://quickbooks.api.intuit.com/v3/company/193514782950659/query?minorversion=47

RESPONSE HEADERS
================
date: Sat, 08 Jan 2022 19:44:17 GMT
content-type: application/xml;charset=UTF-8
content-length: 185
intuit_tid: 1-61d9e991-448459ed3e3d19205a360f44
x-spanid: 0e41bc60-10c8-45fa-9321-e252ca75e18a
x-amzn-trace-id: Root=1-61d9e991-448459ed3e3d19205a360f44
x-content-type-options: nosniff
qbo-version: 1971.195
service-time: total=103, db=13
expires: 0
cache-control: max-age=0, no-cache, no-store, must-revalidate, private
x-envoy-upstream-service-time: 127
strict-transport-security: max-age=31536000
server: envoy

RESPONSE BODY
=============
<?xml version="1.0" encoding="UTF-8" standalone="yes"?>
<IntuitResponse xmlns="http://schema.intuit.com/finance/v3" time="2022-01-08T11:44:17.402-08:00">
  <QueryResponse/>
</IntuitResponse>


