RESPONSE URI FOR SEQUENCE ID 01682
==================================
https://quickbooks.api.intuit.com/v3/company/193514782950659/query?minorversion=47

RESPONSE HEADERS
================
date: Sat, 08 Jan 2022 19:44:25 GMT
content-type: application/xml;charset=UTF-8
content-length: 185
intuit_tid: 1-61d9e999-32e3a57a70ad1fb224d4ce81
x-spanid: 2ad47a94-4dbb-42ac-9d3d-8a6878b2a736
x-amzn-trace-id: Root=1-61d9e999-32e3a57a70ad1fb224d4ce81
x-content-type-options: nosniff
qbo-version: 1971.195
service-time: total=129, db=31
expires: 0
cache-control: max-age=0, no-cache, no-store, must-revalidate, private
x-envoy-upstream-service-time: 156
strict-transport-security: max-age=31536000
server: envoy

RESPONSE BODY
=============
<?xml version="1.0" encoding="UTF-8" standalone="yes"?>
<IntuitResponse xmlns="http://schema.intuit.com/finance/v3" time="2022-01-08T11:44:25.092-08:00">
  <QueryResponse/>
</IntuitResponse>


