RESPONSE URI FOR SEQUENCE ID 01680
==================================
https://quickbooks.api.intuit.com/v3/company/193514782950659/query?minorversion=47

RESPONSE HEADERS
================
date: Sat, 08 Jan 2022 19:44:24 GMT
content-type: application/xml;charset=UTF-8
content-length: 185
intuit_tid: 1-61d9e998-1ca77e504c30647c236278d8
x-spanid: fa126944-8b6a-40cb-8267-4ddb8fc13e7e
x-amzn-trace-id: Root=1-61d9e998-1ca77e504c30647c236278d8
x-content-type-options: nosniff
qbo-version: 1971.195
service-time: total=99, db=12
expires: 0
cache-control: max-age=0, no-cache, no-store, must-revalidate, private
x-envoy-upstream-service-time: 129
strict-transport-security: max-age=31536000
server: envoy

RESPONSE BODY
=============
<?xml version="1.0" encoding="UTF-8" standalone="yes"?>
<IntuitResponse xmlns="http://schema.intuit.com/finance/v3" time="2022-01-08T11:44:24.662-08:00">
  <QueryResponse/>
</IntuitResponse>


