RESPONSE URI FOR SEQUENCE ID 01698
==================================
https://quickbooks.api.intuit.com/v3/company/193514782950659/query?minorversion=47

RESPONSE HEADERS
================
date: Sat, 08 Jan 2022 19:47:09 GMT
content-type: application/xml;charset=UTF-8
content-length: 185
intuit_tid: 1-61d9ea3d-0edfed1c51083f0e632e4f1d
x-spanid: 04fa74cf-e204-4d19-bac4-89a83cc100af
x-amzn-trace-id: Root=1-61d9ea3d-0edfed1c51083f0e632e4f1d
x-content-type-options: nosniff
qbo-version: 1971.195
service-time: total=100, db=12
expires: 0
cache-control: max-age=0, no-cache, no-store, must-revalidate, private
x-envoy-upstream-service-time: 128
strict-transport-security: max-age=31536000
server: envoy

RESPONSE BODY
=============
<?xml version="1.0" encoding="UTF-8" standalone="yes"?>
<IntuitResponse xmlns="http://schema.intuit.com/finance/v3" time="2022-01-08T11:47:09.630-08:00">
  <QueryResponse/>
</IntuitResponse>


