RESPONSE URI FOR SEQUENCE ID 01696
==================================
https://quickbooks.api.intuit.com/v3/company/193514782950659/query?minorversion=47

RESPONSE HEADERS
================
date: Sat, 08 Jan 2022 19:47:09 GMT
content-type: application/xml;charset=UTF-8
content-length: 185
intuit_tid: 1-61d9ea3d-673c008741ce50935b720f4e
x-spanid: c93a6271-5699-4138-9f5e-78fd11437d78
x-amzn-trace-id: Root=1-61d9ea3d-673c008741ce50935b720f4e
x-content-type-options: nosniff
qbo-version: 1971.195
service-time: total=125, db=33
expires: 0
cache-control: max-age=0, no-cache, no-store, must-revalidate, private
x-envoy-upstream-service-time: 150
strict-transport-security: max-age=31536000
server: envoy

RESPONSE BODY
=============
<?xml version="1.0" encoding="UTF-8" standalone="yes"?>
<IntuitResponse xmlns="http://schema.intuit.com/finance/v3" time="2022-01-08T11:47:09.187-08:00">
  <QueryResponse/>
</IntuitResponse>


