RESPONSE URI FOR SEQUENCE ID 01694
==================================
https://quickbooks.api.intuit.com/v3/company/193514782950659/query?minorversion=47

RESPONSE HEADERS
================
date: Sat, 08 Jan 2022 19:47:08 GMT
content-type: application/xml;charset=UTF-8
content-length: 185
intuit_tid: 1-61d9ea3c-730150301db23e9831df145a
x-spanid: baa80799-2269-4845-9df5-3d357dbce81e
x-amzn-trace-id: Root=1-61d9ea3c-730150301db23e9831df145a
x-content-type-options: nosniff
qbo-version: 1971.195
service-time: total=101, db=12
expires: 0
cache-control: max-age=0, no-cache, no-store, must-revalidate, private
x-envoy-upstream-service-time: 127
strict-transport-security: max-age=31536000
server: envoy

RESPONSE BODY
=============
<?xml version="1.0" encoding="UTF-8" standalone="yes"?>
<IntuitResponse xmlns="http://schema.intuit.com/finance/v3" time="2022-01-08T11:47:08.744-08:00">
  <QueryResponse/>
</IntuitResponse>


