RESPONSE URI FOR SEQUENCE ID 01822
==================================
https://quickbooks.api.intuit.com/v3/company/193514782950659/query?minorversion=47

RESPONSE HEADERS
================
date: Sat, 08 Jan 2022 20:08:38 GMT
content-type: application/xml;charset=UTF-8
content-length: 185
intuit_tid: 1-61d9ef46-35823d560a59bd5762a52d8e
x-spanid: 0feb4ec2-4eb8-4365-8a4a-f9b35587d893
x-amzn-trace-id: Root=1-61d9ef46-35823d560a59bd5762a52d8e
x-content-type-options: nosniff
qbo-version: 1971.195
service-time: total=102, db=9
expires: 0
cache-control: max-age=0, no-cache, no-store, must-revalidate, private
x-envoy-upstream-service-time: 128
strict-transport-security: max-age=31536000
server: envoy

RESPONSE BODY
=============
<?xml version="1.0" encoding="UTF-8" standalone="yes"?>
<IntuitResponse xmlns="http://schema.intuit.com/finance/v3" time="2022-01-08T12:08:38.716-08:00">
  <QueryResponse/>
</IntuitResponse>


