RESPONSE URI FOR SEQUENCE ID 01824
==================================
https://quickbooks.api.intuit.com/v3/company/193514782950659/query?minorversion=47

RESPONSE HEADERS
================
date: Sat, 08 Jan 2022 20:08:39 GMT
content-type: application/xml;charset=UTF-8
content-length: 185
intuit_tid: 1-61d9ef47-6d1e490d3befa8bd6f8aed01
x-spanid: be0ee229-471e-438d-ab8b-2f4fd51e2196
x-amzn-trace-id: Root=1-61d9ef47-6d1e490d3befa8bd6f8aed01
x-content-type-options: nosniff
qbo-version: 1971.195
service-time: total=127, db=33
expires: 0
cache-control: max-age=0, no-cache, no-store, must-revalidate, private
x-envoy-upstream-service-time: 161
strict-transport-security: max-age=31536000
server: envoy

RESPONSE BODY
=============
<?xml version="1.0" encoding="UTF-8" standalone="yes"?>
<IntuitResponse xmlns="http://schema.intuit.com/finance/v3" time="2022-01-08T12:08:39.133-08:00">
  <QueryResponse/>
</IntuitResponse>


