RESPONSE URI FOR SEQUENCE ID 01854
==================================
https://quickbooks.api.intuit.com/v3/company/193514782950659/query?minorversion=47

RESPONSE HEADERS
================
date: Sat, 08 Jan 2022 20:08:45 GMT
content-type: application/xml;charset=UTF-8
content-length: 185
intuit_tid: 1-61d9ef4d-2179a6b32745bdd41564751e
x-spanid: b4eae886-2483-4990-ac98-57d4dc1c87b0
x-amzn-trace-id: Root=1-61d9ef4d-2179a6b32745bdd41564751e
x-content-type-options: nosniff
qbo-version: 1971.195
service-time: total=96, db=10
expires: 0
cache-control: max-age=0, no-cache, no-store, must-revalidate, private
x-envoy-upstream-service-time: 121
strict-transport-security: max-age=31536000
server: envoy

RESPONSE BODY
=============
<?xml version="1.0" encoding="UTF-8" standalone="yes"?>
<IntuitResponse xmlns="http://schema.intuit.com/finance/v3" time="2022-01-08T12:08:45.648-08:00">
  <QueryResponse/>
</IntuitResponse>


