RESPONSE URI FOR SEQUENCE ID 01888
==================================
https://quickbooks.api.intuit.com/v3/company/193514782950659/query?minorversion=47

RESPONSE HEADERS
================
date: Sat, 08 Jan 2022 20:11:37 GMT
content-type: application/xml;charset=UTF-8
content-length: 185
intuit_tid: 1-61d9eff9-0d6f31b81cf2e2123346632f
x-spanid: 5d62fbd1-fe1c-4433-ad3b-75c45adb2193
x-amzn-trace-id: Root=1-61d9eff9-0d6f31b81cf2e2123346632f
x-content-type-options: nosniff
qbo-version: 1971.195
service-time: total=276, db=16
expires: 0
cache-control: max-age=0, no-cache, no-store, must-revalidate, private
x-envoy-upstream-service-time: 334
strict-transport-security: max-age=31536000
server: envoy

RESPONSE BODY
=============
<?xml version="1.0" encoding="UTF-8" standalone="yes"?>
<IntuitResponse xmlns="http://schema.intuit.com/finance/v3" time="2022-01-08T12:11:37.192-08:00">
  <QueryResponse/>
</IntuitResponse>


