RESPONSE URI FOR SEQUENCE ID 01890
==================================
https://quickbooks.api.intuit.com/v3/company/193514782950659/query?minorversion=47

RESPONSE HEADERS
================
date: Sat, 08 Jan 2022 20:11:37 GMT
content-type: application/xml;charset=UTF-8
content-length: 185
intuit_tid: 1-61d9eff9-5e48c88136fdb82f5975213a
x-spanid: 6b52211a-7ec4-449a-bfbd-370b5e3bad8f
x-amzn-trace-id: Root=1-61d9eff9-5e48c88136fdb82f5975213a
x-content-type-options: nosniff
qbo-version: 1971.195
service-time: total=128, db=33
expires: 0
cache-control: max-age=0, no-cache, no-store, must-revalidate, private
x-envoy-upstream-service-time: 151
strict-transport-security: max-age=31536000
server: envoy

RESPONSE BODY
=============
<?xml version="1.0" encoding="UTF-8" standalone="yes"?>
<IntuitResponse xmlns="http://schema.intuit.com/finance/v3" time="2022-01-08T12:11:37.694-08:00">
  <QueryResponse/>
</IntuitResponse>


