RESPONSE URI FOR SEQUENCE ID 01892
==================================
https://quickbooks.api.intuit.com/v3/company/193514782950659/query?minorversion=47

RESPONSE HEADERS
================
date: Sat, 08 Jan 2022 20:11:38 GMT
content-type: application/xml;charset=UTF-8
content-length: 185
intuit_tid: 1-61d9effa-0c6394d20ac7c9dc27613f80
x-spanid: 481a2701-01ed-4233-88c7-46c08bd69fae
x-amzn-trace-id: Root=1-61d9effa-0c6394d20ac7c9dc27613f80
x-content-type-options: nosniff
qbo-version: 1971.195
service-time: total=101, db=16
expires: 0
cache-control: max-age=0, no-cache, no-store, must-revalidate, private
x-envoy-upstream-service-time: 126
strict-transport-security: max-age=31536000
server: envoy

RESPONSE BODY
=============
<?xml version="1.0" encoding="UTF-8" standalone="yes"?>
<IntuitResponse xmlns="http://schema.intuit.com/finance/v3" time="2022-01-08T12:11:38.156-08:00">
  <QueryResponse/>
</IntuitResponse>


