RESPONSE URI FOR SEQUENCE ID 01916
==================================
https://quickbooks.api.intuit.com/v3/company/193514782950659/query?minorversion=47

RESPONSE HEADERS
================
date: Sat, 08 Jan 2022 20:11:43 GMT
content-type: application/xml;charset=UTF-8
content-length: 185
intuit_tid: 1-61d9efff-53ee94fa417014ef500e8d48
x-spanid: 374cc93a-008a-4504-8fbf-50f35a6e3eea
x-amzn-trace-id: Root=1-61d9efff-53ee94fa417014ef500e8d48
x-content-type-options: nosniff
qbo-version: 1971.195
service-time: total=107, db=13
expires: 0
cache-control: max-age=0, no-cache, no-store, must-revalidate, private
x-envoy-upstream-service-time: 139
strict-transport-security: max-age=31536000
server: envoy

RESPONSE BODY
=============
<?xml version="1.0" encoding="UTF-8" standalone="yes"?>
<IntuitResponse xmlns="http://schema.intuit.com/finance/v3" time="2022-01-08T12:11:43.559-08:00">
  <QueryResponse/>
</IntuitResponse>


