RESPONSE URI FOR SEQUENCE ID 01914
==================================
https://quickbooks.api.intuit.com/v3/company/193514782950659/query?minorversion=47

RESPONSE HEADERS
================
date: Sat, 08 Jan 2022 20:11:43 GMT
content-type: application/xml;charset=UTF-8
content-length: 185
intuit_tid: 1-61d9efff-4ed97df02ba4146e6a6fc009
x-spanid: 517c86f5-b6ee-43ca-bf2b-5402f1c697c0
x-amzn-trace-id: Root=1-61d9efff-4ed97df02ba4146e6a6fc009
x-content-type-options: nosniff
qbo-version: 1971.195
service-time: total=116, db=33
expires: 0
cache-control: max-age=0, no-cache, no-store, must-revalidate, private
x-envoy-upstream-service-time: 149
strict-transport-security: max-age=31536000
server: envoy

RESPONSE BODY
=============
<?xml version="1.0" encoding="UTF-8" standalone="yes"?>
<IntuitResponse xmlns="http://schema.intuit.com/finance/v3" time="2022-01-08T12:11:43.092-08:00">
  <QueryResponse/>
</IntuitResponse>


