RESPONSE URI FOR SEQUENCE ID 01926
==================================
https://quickbooks.api.intuit.com/v3/company/193514782950659/query?minorversion=47

RESPONSE HEADERS
================
date: Sat, 08 Jan 2022 20:11:45 GMT
content-type: application/xml;charset=UTF-8
content-length: 185
intuit_tid: 1-61d9f001-4ac3d4ab6fb12b8f1b76de35
x-spanid: 0772852c-e6e2-44f5-9a82-48eecdfb6931
x-amzn-trace-id: Root=1-61d9f001-4ac3d4ab6fb12b8f1b76de35
x-content-type-options: nosniff
qbo-version: 1971.195
service-time: total=122, db=33
expires: 0
cache-control: max-age=0, no-cache, no-store, must-revalidate, private
x-envoy-upstream-service-time: 147
strict-transport-security: max-age=31536000
server: envoy

RESPONSE BODY
=============
<?xml version="1.0" encoding="UTF-8" standalone="yes"?>
<IntuitResponse xmlns="http://schema.intuit.com/finance/v3" time="2022-01-08T12:11:45.756-08:00">
  <QueryResponse/>
</IntuitResponse>


