RESPONSE URI FOR SEQUENCE ID 01930
==================================
https://quickbooks.api.intuit.com/v3/company/193514782950659/query?minorversion=47

RESPONSE HEADERS
================
date: Sat, 08 Jan 2022 20:11:46 GMT
content-type: application/xml;charset=UTF-8
content-length: 185
intuit_tid: 1-61d9f002-0efba9e61cd4931948bc4d42
x-spanid: 70eccb20-6d3b-48b6-8ff8-a7900422cfed
x-amzn-trace-id: Root=1-61d9f002-0efba9e61cd4931948bc4d42
x-content-type-options: nosniff
qbo-version: 1971.195
service-time: total=99, db=12
expires: 0
cache-control: max-age=0, no-cache, no-store, must-revalidate, private
x-envoy-upstream-service-time: 122
strict-transport-security: max-age=31536000
server: envoy

RESPONSE BODY
=============
<?xml version="1.0" encoding="UTF-8" standalone="yes"?>
<IntuitResponse xmlns="http://schema.intuit.com/finance/v3" time="2022-01-08T12:11:46.665-08:00">
  <QueryResponse/>
</IntuitResponse>


