RESPONSE URI FOR SEQUENCE ID 01994
==================================
https://quickbooks.api.intuit.com/v3/company/193514782950659/query?minorversion=47

RESPONSE HEADERS
================
date: Sat, 08 Jan 2022 20:14:18 GMT
content-type: application/xml;charset=UTF-8
content-length: 185
intuit_tid: 1-61d9f09a-1196f9554da520a2446e7f35
x-spanid: b47f09ba-332b-44d5-a8c0-76bf7d6e96cb
x-amzn-trace-id: Root=1-61d9f09a-1196f9554da520a2446e7f35
x-content-type-options: nosniff
qbo-version: 1971.195
service-time: total=90, db=12
expires: 0
cache-control: max-age=0, no-cache, no-store, must-revalidate, private
x-envoy-upstream-service-time: 118
strict-transport-security: max-age=31536000
server: envoy

RESPONSE BODY
=============
<?xml version="1.0" encoding="UTF-8" standalone="yes"?>
<IntuitResponse xmlns="http://schema.intuit.com/finance/v3" time="2022-01-08T12:14:18.822-08:00">
  <QueryResponse/>
</IntuitResponse>


