RESPONSE URI FOR SEQUENCE ID 02000
==================================
https://quickbooks.api.intuit.com/v3/company/193514782950659/query?minorversion=47

RESPONSE HEADERS
================
date: Sat, 08 Jan 2022 20:14:20 GMT
content-type: application/xml;charset=UTF-8
content-length: 185
intuit_tid: 1-61d9f09c-5b57082d0b68877a3e8b4b89
x-spanid: 61656bd3-4d9b-44c5-ba73-ab8611a5d212
x-amzn-trace-id: Root=1-61d9f09c-5b57082d0b68877a3e8b4b89
x-content-type-options: nosniff
qbo-version: 1971.195
service-time: total=126, db=33
expires: 0
cache-control: max-age=0, no-cache, no-store, must-revalidate, private
x-envoy-upstream-service-time: 152
strict-transport-security: max-age=31536000
server: envoy

RESPONSE BODY
=============
<?xml version="1.0" encoding="UTF-8" standalone="yes"?>
<IntuitResponse xmlns="http://schema.intuit.com/finance/v3" time="2022-01-08T12:14:20.199-08:00">
  <QueryResponse/>
</IntuitResponse>


