RESPONSE URI FOR SEQUENCE ID 02020
==================================
https://quickbooks.api.intuit.com/v3/company/193514782950659/query?minorversion=47

RESPONSE HEADERS
================
date: Sat, 08 Jan 2022 20:14:24 GMT
content-type: application/xml;charset=UTF-8
content-length: 185
intuit_tid: 1-61d9f0a0-2367f5a473cb82fc3b77c9d4
x-spanid: 5adaba84-41d0-40e2-94ae-2a116b859f0d
x-amzn-trace-id: Root=1-61d9f0a0-2367f5a473cb82fc3b77c9d4
x-content-type-options: nosniff
qbo-version: 1971.195
service-time: total=126, db=31
expires: 0
cache-control: max-age=0, no-cache, no-store, must-revalidate, private
x-envoy-upstream-service-time: 163
strict-transport-security: max-age=31536000
server: envoy

RESPONSE BODY
=============
<?xml version="1.0" encoding="UTF-8" standalone="yes"?>
<IntuitResponse xmlns="http://schema.intuit.com/finance/v3" time="2022-01-08T12:14:24.881-08:00">
  <QueryResponse/>
</IntuitResponse>


