RESPONSE URI FOR SEQUENCE ID 02034
==================================
https://quickbooks.api.intuit.com/v3/company/193514782950659/query?minorversion=47

RESPONSE HEADERS
================
date: Sat, 08 Jan 2022 20:14:28 GMT
content-type: application/xml;charset=UTF-8
content-length: 185
intuit_tid: 1-61d9f0a3-0da2ddbe5e18a1f1007256f3
x-spanid: 684c85e9-8268-455e-9822-0e839f95e0a1
x-amzn-trace-id: Root=1-61d9f0a3-0da2ddbe5e18a1f1007256f3
x-content-type-options: nosniff
qbo-version: 1971.195
service-time: total=90, db=12
expires: 0
cache-control: max-age=0, no-cache, no-store, must-revalidate, private
x-envoy-upstream-service-time: 116
strict-transport-security: max-age=31536000
server: envoy

RESPONSE BODY
=============
<?xml version="1.0" encoding="UTF-8" standalone="yes"?>
<IntuitResponse xmlns="http://schema.intuit.com/finance/v3" time="2022-01-08T12:14:27.987-08:00">
  <QueryResponse/>
</IntuitResponse>


