RESPONSE URI FOR SEQUENCE ID 02044
==================================
https://quickbooks.api.intuit.com/v3/company/193514782950659/query?minorversion=47

RESPONSE HEADERS
================
date: Sat, 08 Jan 2022 20:14:30 GMT
content-type: application/xml;charset=UTF-8
content-length: 185
intuit_tid: 1-61d9f0a6-453350c41d41ce3651f00043
x-spanid: a3e63b1c-616a-492f-a2c4-c2482a22add5
x-amzn-trace-id: Root=1-61d9f0a6-453350c41d41ce3651f00043
x-content-type-options: nosniff
qbo-version: 1971.195
service-time: total=96, db=11
expires: 0
cache-control: max-age=0, no-cache, no-store, must-revalidate, private
x-envoy-upstream-service-time: 121
strict-transport-security: max-age=31536000
server: envoy

RESPONSE BODY
=============
<?xml version="1.0" encoding="UTF-8" standalone="yes"?>
<IntuitResponse xmlns="http://schema.intuit.com/finance/v3" time="2022-01-08T12:14:30.228-08:00">
  <QueryResponse/>
</IntuitResponse>


