RESPONSE URI FOR SEQUENCE ID 02054
==================================
https://quickbooks.api.intuit.com/v3/company/193514782950659/query?minorversion=47

RESPONSE HEADERS
================
date: Sat, 08 Jan 2022 20:17:12 GMT
content-type: application/xml;charset=UTF-8
content-length: 185
intuit_tid: 1-61d9f148-2a565f8a0e3d09ef23d0a85f
x-spanid: cd5113fb-b286-4907-80c7-4d9beecae9c1
x-amzn-trace-id: Root=1-61d9f148-2a565f8a0e3d09ef23d0a85f
x-content-type-options: nosniff
qbo-version: 1971.195
service-time: total=96, db=17
expires: 0
cache-control: max-age=0, no-cache, no-store, must-revalidate, private
x-envoy-upstream-service-time: 121
strict-transport-security: max-age=31536000
server: envoy

RESPONSE BODY
=============
<?xml version="1.0" encoding="UTF-8" standalone="yes"?>
<IntuitResponse xmlns="http://schema.intuit.com/finance/v3" time="2022-01-08T12:17:12.209-08:00">
  <QueryResponse/>
</IntuitResponse>


