RESPONSE URI FOR SEQUENCE ID 02066
==================================
https://quickbooks.api.intuit.com/v3/company/193514782950659/query?minorversion=47

RESPONSE HEADERS
================
date: Sat, 08 Jan 2022 20:17:14 GMT
content-type: application/xml;charset=UTF-8
content-length: 185
intuit_tid: 1-61d9f14a-389e8bb628339b8440729f3c
x-spanid: e79a50af-b4e9-47af-bb1d-5f913eed5a5c
x-amzn-trace-id: Root=1-61d9f14a-389e8bb628339b8440729f3c
x-content-type-options: nosniff
qbo-version: 1971.195
service-time: total=103, db=15
expires: 0
cache-control: max-age=0, no-cache, no-store, must-revalidate, private
x-envoy-upstream-service-time: 127
strict-transport-security: max-age=31536000
server: envoy

RESPONSE BODY
=============
<?xml version="1.0" encoding="UTF-8" standalone="yes"?>
<IntuitResponse xmlns="http://schema.intuit.com/finance/v3" time="2022-01-08T12:17:14.750-08:00">
  <QueryResponse/>
</IntuitResponse>


