RESPONSE URI FOR SEQUENCE ID 02060
==================================
https://quickbooks.api.intuit.com/v3/company/193514782950659/query?minorversion=47

RESPONSE HEADERS
================
date: Sat, 08 Jan 2022 20:17:13 GMT
content-type: application/xml;charset=UTF-8
content-length: 185
intuit_tid: 1-61d9f149-377272e00c226181387a330f
x-spanid: c5e86a5b-9056-48ae-82e8-0b1456c0423d
x-amzn-trace-id: Root=1-61d9f149-377272e00c226181387a330f
x-content-type-options: nosniff
qbo-version: 1971.195
service-time: total=91, db=13
expires: 0
cache-control: max-age=0, no-cache, no-store, must-revalidate, private
x-envoy-upstream-service-time: 116
strict-transport-security: max-age=31536000
server: envoy

RESPONSE BODY
=============
<?xml version="1.0" encoding="UTF-8" standalone="yes"?>
<IntuitResponse xmlns="http://schema.intuit.com/finance/v3" time="2022-01-08T12:17:13.485-08:00">
  <QueryResponse/>
</IntuitResponse>


