RESPONSE URI FOR SEQUENCE ID 02076
==================================
https://quickbooks.api.intuit.com/v3/company/193514782950659/query?minorversion=47

RESPONSE HEADERS
================
date: Sat, 08 Jan 2022 20:17:17 GMT
content-type: application/xml;charset=UTF-8
content-length: 185
intuit_tid: 1-61d9f14d-4e61eed2343327651e9a1170
x-spanid: a4fe24b9-9bf6-43ac-953b-744af33d7947
x-amzn-trace-id: Root=1-61d9f14d-4e61eed2343327651e9a1170
x-content-type-options: nosniff
qbo-version: 1971.195
service-time: total=138, db=30
expires: 0
cache-control: max-age=0, no-cache, no-store, must-revalidate, private
x-envoy-upstream-service-time: 163
strict-transport-security: max-age=31536000
server: envoy

RESPONSE BODY
=============
<?xml version="1.0" encoding="UTF-8" standalone="yes"?>
<IntuitResponse xmlns="http://schema.intuit.com/finance/v3" time="2022-01-08T12:17:17.081-08:00">
  <QueryResponse/>
</IntuitResponse>


