RESPONSE URI FOR SEQUENCE ID 02070
==================================
https://quickbooks.api.intuit.com/v3/company/193514782950659/query?minorversion=47

RESPONSE HEADERS
================
date: Sat, 08 Jan 2022 20:17:15 GMT
content-type: application/xml;charset=UTF-8
content-length: 185
intuit_tid: 1-61d9f14b-377b37df28a327ec3f1dda98
x-spanid: ce70f810-a543-4926-a392-aadf1d5d1dba
x-amzn-trace-id: Root=1-61d9f14b-377b37df28a327ec3f1dda98
x-content-type-options: nosniff
qbo-version: 1971.195
service-time: total=109, db=12
expires: 0
cache-control: max-age=0, no-cache, no-store, must-revalidate, private
x-envoy-upstream-service-time: 136
strict-transport-security: max-age=31536000
server: envoy

RESPONSE BODY
=============
<?xml version="1.0" encoding="UTF-8" standalone="yes"?>
<IntuitResponse xmlns="http://schema.intuit.com/finance/v3" time="2022-01-08T12:17:15.748-08:00">
  <QueryResponse/>
</IntuitResponse>


