RESPONSE URI FOR SEQUENCE ID 02096
==================================
https://quickbooks.api.intuit.com/v3/company/193514782950659/query?minorversion=47

RESPONSE HEADERS
================
date: Sat, 08 Jan 2022 20:17:21 GMT
content-type: application/xml;charset=UTF-8
content-length: 185
intuit_tid: 1-61d9f151-523e25091366e44766e044a9
x-spanid: ee235a64-862c-4336-b91a-5c44c71d5124
x-amzn-trace-id: Root=1-61d9f151-523e25091366e44766e044a9
x-content-type-options: nosniff
qbo-version: 1971.195
service-time: total=126, db=20
expires: 0
cache-control: max-age=0, no-cache, no-store, must-revalidate, private
x-envoy-upstream-service-time: 153
strict-transport-security: max-age=31536000
server: envoy

RESPONSE BODY
=============
<?xml version="1.0" encoding="UTF-8" standalone="yes"?>
<IntuitResponse xmlns="http://schema.intuit.com/finance/v3" time="2022-01-08T12:17:21.491-08:00">
  <QueryResponse/>
</IntuitResponse>


