RESPONSE URI FOR SEQUENCE ID 02156
==================================
https://quickbooks.api.intuit.com/v3/company/193514782950659/query?minorversion=47

RESPONSE HEADERS
================
date: Sat, 08 Jan 2022 20:55:44 GMT
content-type: application/xml;charset=UTF-8
content-length: 185
intuit_tid: 1-61d9fa50-3d187f8d23eaea2c400601cd
x-spanid: 31a5ffac-a8c8-4d8b-be34-676d355dfaae
x-amzn-trace-id: Root=1-61d9fa50-3d187f8d23eaea2c400601cd
x-content-type-options: nosniff
qbo-version: 1971.195
service-time: total=83, db=8
expires: 0
cache-control: max-age=0, no-cache, no-store, must-revalidate, private
x-envoy-upstream-service-time: 107
strict-transport-security: max-age=31536000
server: envoy

RESPONSE BODY
=============
<?xml version="1.0" encoding="UTF-8" standalone="yes"?>
<IntuitResponse xmlns="http://schema.intuit.com/finance/v3" time="2022-01-08T12:55:44.791-08:00">
  <QueryResponse/>
</IntuitResponse>


