RESPONSE URI FOR SEQUENCE ID 02162
==================================
https://quickbooks.api.intuit.com/v3/company/193514782950659/query?minorversion=47

RESPONSE HEADERS
================
date: Sat, 08 Jan 2022 20:58:37 GMT
content-type: application/xml;charset=UTF-8
content-length: 185
intuit_tid: 1-61d9fafd-0eb081661f4baad70db47b0b
x-spanid: f2918861-ca79-40f0-860c-d2e8d89c3f7c
x-amzn-trace-id: Root=1-61d9fafd-0eb081661f4baad70db47b0b
x-content-type-options: nosniff
qbo-version: 1971.195
service-time: total=112, db=16
expires: 0
cache-control: max-age=0, no-cache, no-store, must-revalidate, private
x-envoy-upstream-service-time: 149
strict-transport-security: max-age=31536000
server: envoy

RESPONSE BODY
=============
<?xml version="1.0" encoding="UTF-8" standalone="yes"?>
<IntuitResponse xmlns="http://schema.intuit.com/finance/v3" time="2022-01-08T12:58:37.366-08:00">
  <QueryResponse/>
</IntuitResponse>


