RESPONSE URI FOR SEQUENCE ID 02180
==================================
https://quickbooks.api.intuit.com/v3/company/193514782950659/query?minorversion=47

RESPONSE HEADERS
================
date: Sat, 08 Jan 2022 20:58:41 GMT
content-type: application/xml;charset=UTF-8
content-length: 185
intuit_tid: 1-61d9fb01-5cbccc02102310de428f947f
x-spanid: 5e2d14b3-fc56-4e9c-a95f-5d8c9b4b0afe
x-amzn-trace-id: Root=1-61d9fb01-5cbccc02102310de428f947f
x-content-type-options: nosniff
qbo-version: 1971.195
service-time: total=126, db=32
expires: 0
cache-control: max-age=0, no-cache, no-store, must-revalidate, private
x-envoy-upstream-service-time: 151
strict-transport-security: max-age=31536000
server: envoy

RESPONSE BODY
=============
<?xml version="1.0" encoding="UTF-8" standalone="yes"?>
<IntuitResponse xmlns="http://schema.intuit.com/finance/v3" time="2022-01-08T12:58:41.426-08:00">
  <QueryResponse/>
</IntuitResponse>


