RESPONSE URI FOR SEQUENCE ID 02196
==================================
https://quickbooks.api.intuit.com/v3/company/193514782950659/query?minorversion=47

RESPONSE HEADERS
================
date: Sat, 08 Jan 2022 20:58:45 GMT
content-type: application/xml;charset=UTF-8
content-length: 185
intuit_tid: 1-61d9fb04-2aa93b2a4648edcc7fbd9346
x-spanid: 2cf67763-fbbd-4508-83f0-d35f1920ff9e
x-amzn-trace-id: Root=1-61d9fb04-2aa93b2a4648edcc7fbd9346
x-content-type-options: nosniff
qbo-version: 1971.195
service-time: total=122, db=34
expires: 0
cache-control: max-age=0, no-cache, no-store, must-revalidate, private
x-envoy-upstream-service-time: 151
strict-transport-security: max-age=31536000
server: envoy

RESPONSE BODY
=============
<?xml version="1.0" encoding="UTF-8" standalone="yes"?>
<IntuitResponse xmlns="http://schema.intuit.com/finance/v3" time="2022-01-08T12:58:44.953-08:00">
  <QueryResponse/>
</IntuitResponse>


