RESPONSE URI FOR SEQUENCE ID 02202
==================================
https://quickbooks.api.intuit.com/v3/company/193514782950659/query?minorversion=47

RESPONSE HEADERS
================
date: Sat, 08 Jan 2022 20:58:46 GMT
content-type: application/xml;charset=UTF-8
content-length: 185
intuit_tid: 1-61d9fb06-4efde1101e4c7edf17a6fb01
x-spanid: 05a89168-c46f-4d77-9693-0d40f4ccc459
x-amzn-trace-id: Root=1-61d9fb06-4efde1101e4c7edf17a6fb01
x-content-type-options: nosniff
qbo-version: 1971.195
service-time: total=113, db=33
expires: 0
cache-control: max-age=0, no-cache, no-store, must-revalidate, private
x-envoy-upstream-service-time: 141
strict-transport-security: max-age=31536000
server: envoy

RESPONSE BODY
=============
<?xml version="1.0" encoding="UTF-8" standalone="yes"?>
<IntuitResponse xmlns="http://schema.intuit.com/finance/v3" time="2022-01-08T12:58:46.360-08:00">
  <QueryResponse/>
</IntuitResponse>


