RESPONSE URI FOR SEQUENCE ID 02234
==================================
https://quickbooks.api.intuit.com/v3/company/193514782950659/query?minorversion=47

RESPONSE HEADERS
================
date: Sat, 08 Jan 2022 20:58:53 GMT
content-type: application/xml;charset=UTF-8
content-length: 185
intuit_tid: 1-61d9fb0d-77c949a3023c27c65cb1aa3f
x-spanid: 4b168c8d-bd4a-4ec6-9547-c5a7d3f7bce3
x-amzn-trace-id: Root=1-61d9fb0d-77c949a3023c27c65cb1aa3f
x-content-type-options: nosniff
qbo-version: 1971.195
service-time: total=120, db=34
expires: 0
cache-control: max-age=0, no-cache, no-store, must-revalidate, private
x-envoy-upstream-service-time: 148
strict-transport-security: max-age=31536000
server: envoy

RESPONSE BODY
=============
<?xml version="1.0" encoding="UTF-8" standalone="yes"?>
<IntuitResponse xmlns="http://schema.intuit.com/finance/v3" time="2022-01-08T12:58:53.551-08:00">
  <QueryResponse/>
</IntuitResponse>


