RESPONSE URI FOR SEQUENCE ID 02268
==================================
https://quickbooks.api.intuit.com/v3/company/193514782950659/query?minorversion=47

RESPONSE HEADERS
================
date: Sat, 08 Jan 2022 21:01:44 GMT
content-type: application/xml;charset=UTF-8
content-length: 185
intuit_tid: 1-61d9fbb8-7b2d409b168a3de52faee844
x-spanid: 15b4a4cf-b8a3-477a-91e9-a46817c20e73
x-amzn-trace-id: Root=1-61d9fbb8-7b2d409b168a3de52faee844
x-content-type-options: nosniff
qbo-version: 1971.195
service-time: total=121, db=29
expires: 0
cache-control: max-age=0, no-cache, no-store, must-revalidate, private
x-envoy-upstream-service-time: 147
strict-transport-security: max-age=31536000
server: envoy

RESPONSE BODY
=============
<?xml version="1.0" encoding="UTF-8" standalone="yes"?>
<IntuitResponse xmlns="http://schema.intuit.com/finance/v3" time="2022-01-08T13:01:44.237-08:00">
  <QueryResponse/>
</IntuitResponse>


