RESPONSE URI FOR SEQUENCE ID 02286
==================================
https://quickbooks.api.intuit.com/v3/company/193514782950659/query?minorversion=47

RESPONSE HEADERS
================
date: Sat, 08 Jan 2022 21:01:48 GMT
content-type: application/xml;charset=UTF-8
content-length: 185
intuit_tid: 1-61d9fbbc-28fb84150085a3397997eaf7
x-spanid: 5142dcb2-170d-4049-b70e-8e9b7d25278e
x-amzn-trace-id: Root=1-61d9fbbc-28fb84150085a3397997eaf7
x-content-type-options: nosniff
qbo-version: 1971.195
service-time: total=168, db=34
expires: 0
cache-control: max-age=0, no-cache, no-store, must-revalidate, private
x-envoy-upstream-service-time: 192
strict-transport-security: max-age=31536000
server: envoy

RESPONSE BODY
=============
<?xml version="1.0" encoding="UTF-8" standalone="yes"?>
<IntuitResponse xmlns="http://schema.intuit.com/finance/v3" time="2022-01-08T13:01:48.232-08:00">
  <QueryResponse/>
</IntuitResponse>


