RESPONSE URI FOR SEQUENCE ID 02284
==================================
https://quickbooks.api.intuit.com/v3/company/193514782950659/query?minorversion=47

RESPONSE HEADERS
================
date: Sat, 08 Jan 2022 21:01:47 GMT
content-type: application/xml;charset=UTF-8
content-length: 185
intuit_tid: 1-61d9fbbb-53890e0a671cec20196e61e9
x-spanid: 0f1c4d04-d70c-40c1-9a32-4e6bdb2b6a79
x-amzn-trace-id: Root=1-61d9fbbb-53890e0a671cec20196e61e9
x-content-type-options: nosniff
qbo-version: 1971.195
service-time: total=116, db=32
expires: 0
cache-control: max-age=0, no-cache, no-store, must-revalidate, private
x-envoy-upstream-service-time: 141
strict-transport-security: max-age=31536000
server: envoy

RESPONSE BODY
=============
<?xml version="1.0" encoding="UTF-8" standalone="yes"?>
<IntuitResponse xmlns="http://schema.intuit.com/finance/v3" time="2022-01-08T13:01:47.770-08:00">
  <QueryResponse/>
</IntuitResponse>


