RESPONSE URI FOR SEQUENCE ID 02298
==================================
https://quickbooks.api.intuit.com/v3/company/193514782950659/query?minorversion=47

RESPONSE HEADERS
================
date: Sat, 08 Jan 2022 21:01:51 GMT
content-type: application/xml;charset=UTF-8
content-length: 185
intuit_tid: 1-61d9fbbe-61133b48423db81760a5fd86
x-spanid: 5a39c0a1-54d4-41ab-9a96-12d0eb74a39e
x-amzn-trace-id: Root=1-61d9fbbe-61133b48423db81760a5fd86
x-content-type-options: nosniff
qbo-version: 1971.195
service-time: total=121, db=36
expires: 0
cache-control: max-age=0, no-cache, no-store, must-revalidate, private
x-envoy-upstream-service-time: 147
strict-transport-security: max-age=31536000
server: envoy

RESPONSE BODY
=============
<?xml version="1.0" encoding="UTF-8" standalone="yes"?>
<IntuitResponse xmlns="http://schema.intuit.com/finance/v3" time="2022-01-08T13:01:50.953-08:00">
  <QueryResponse/>
</IntuitResponse>


