RESPONSE URI FOR SEQUENCE ID 02308
==================================
https://quickbooks.api.intuit.com/v3/company/193514782950659/query?minorversion=47

RESPONSE HEADERS
================
date: Sat, 08 Jan 2022 21:01:53 GMT
content-type: application/xml;charset=UTF-8
content-length: 185
intuit_tid: 1-61d9fbc1-6cfe38b454a8ac2e09330e78
x-spanid: d2f1b5de-9294-47e4-a003-2d9c7c1d0a50
x-amzn-trace-id: Root=1-61d9fbc1-6cfe38b454a8ac2e09330e78
x-content-type-options: nosniff
qbo-version: 1971.195
service-time: total=135, db=34
expires: 0
cache-control: max-age=0, no-cache, no-store, must-revalidate, private
x-envoy-upstream-service-time: 161
strict-transport-security: max-age=31536000
server: envoy

RESPONSE BODY
=============
<?xml version="1.0" encoding="UTF-8" standalone="yes"?>
<IntuitResponse xmlns="http://schema.intuit.com/finance/v3" time="2022-01-08T13:01:53.190-08:00">
  <QueryResponse/>
</IntuitResponse>


