RESPONSE URI FOR SEQUENCE ID 02304
==================================
https://quickbooks.api.intuit.com/v3/company/193514782950659/query?minorversion=47

RESPONSE HEADERS
================
date: Sat, 08 Jan 2022 21:01:52 GMT
content-type: application/xml;charset=UTF-8
content-length: 185
intuit_tid: 1-61d9fbc0-459c241f19d5d0c0062f9c63
x-spanid: 967bae64-8229-44ec-bffd-d10d6e5bc9f9
x-amzn-trace-id: Root=1-61d9fbc0-459c241f19d5d0c0062f9c63
x-content-type-options: nosniff
qbo-version: 1971.195
service-time: total=110, db=34
expires: 0
cache-control: max-age=0, no-cache, no-store, must-revalidate, private
x-envoy-upstream-service-time: 141
strict-transport-security: max-age=31536000
server: envoy

RESPONSE BODY
=============
<?xml version="1.0" encoding="UTF-8" standalone="yes"?>
<IntuitResponse xmlns="http://schema.intuit.com/finance/v3" time="2022-01-08T13:01:52.304-08:00">
  <QueryResponse/>
</IntuitResponse>


