RESPONSE URI FOR SEQUENCE ID 02330
==================================
https://quickbooks.api.intuit.com/v3/company/193514782950659/query?minorversion=47

RESPONSE HEADERS
================
date: Sat, 08 Jan 2022 21:07:17 GMT
content-type: application/xml;charset=UTF-8
content-length: 185
intuit_tid: 1-61d9fd05-22e965b251830f545710ab75
x-spanid: 23f96b3a-e74c-45bd-bc85-83497c2acd61
x-amzn-trace-id: Root=1-61d9fd05-22e965b251830f545710ab75
x-content-type-options: nosniff
qbo-version: 1971.195
service-time: total=112, db=12
expires: 0
cache-control: max-age=0, no-cache, no-store, must-revalidate, private
x-envoy-upstream-service-time: 139
strict-transport-security: max-age=31536000
server: envoy

RESPONSE BODY
=============
<?xml version="1.0" encoding="UTF-8" standalone="yes"?>
<IntuitResponse xmlns="http://schema.intuit.com/finance/v3" time="2022-01-08T13:07:17.564-08:00">
  <QueryResponse/>
</IntuitResponse>


