RESPONSE URI FOR SEQUENCE ID 02344
==================================
https://quickbooks.api.intuit.com/v3/company/193514782950659/query?minorversion=47

RESPONSE HEADERS
================
date: Sat, 08 Jan 2022 21:07:20 GMT
content-type: application/xml;charset=UTF-8
content-length: 185
intuit_tid: 1-61d9fd08-6f10b98e50d35fd65725d239
x-spanid: 96f521b9-c472-4233-afc3-a27f22e62131
x-amzn-trace-id: Root=1-61d9fd08-6f10b98e50d35fd65725d239
x-content-type-options: nosniff
qbo-version: 1971.195
service-time: total=93, db=16
expires: 0
cache-control: max-age=0, no-cache, no-store, must-revalidate, private
x-envoy-upstream-service-time: 121
strict-transport-security: max-age=31536000
server: envoy

RESPONSE BODY
=============
<?xml version="1.0" encoding="UTF-8" standalone="yes"?>
<IntuitResponse xmlns="http://schema.intuit.com/finance/v3" time="2022-01-08T13:07:20.734-08:00">
  <QueryResponse/>
</IntuitResponse>


