RESPONSE URI FOR SEQUENCE ID 02346
==================================
https://quickbooks.api.intuit.com/v3/company/193514782950659/query?minorversion=47

RESPONSE HEADERS
================
date: Sat, 08 Jan 2022 21:07:21 GMT
content-type: application/xml;charset=UTF-8
content-length: 185
intuit_tid: 1-61d9fd09-68897fbd2c9da0ba2f09cf62
x-spanid: cf3ac4ed-fe85-4de4-b8a3-5db8666faba9
x-amzn-trace-id: Root=1-61d9fd09-68897fbd2c9da0ba2f09cf62
x-content-type-options: nosniff
qbo-version: 1971.195
service-time: total=119, db=30
expires: 0
cache-control: max-age=0, no-cache, no-store, must-revalidate, private
x-envoy-upstream-service-time: 150
strict-transport-security: max-age=31536000
server: envoy

RESPONSE BODY
=============
<?xml version="1.0" encoding="UTF-8" standalone="yes"?>
<IntuitResponse xmlns="http://schema.intuit.com/finance/v3" time="2022-01-08T13:07:21.169-08:00">
  <QueryResponse/>
</IntuitResponse>


