RESPONSE URI FOR SEQUENCE ID 02362
==================================
https://quickbooks.api.intuit.com/v3/company/193514782950659/query?minorversion=47

RESPONSE HEADERS
================
date: Sat, 08 Jan 2022 21:07:24 GMT
content-type: application/xml;charset=UTF-8
content-length: 185
intuit_tid: 1-61d9fd0c-3e1c6e3b4244138216586f4a
x-spanid: f0a00662-d760-488d-b0db-9953af4f3903
x-amzn-trace-id: Root=1-61d9fd0c-3e1c6e3b4244138216586f4a
x-content-type-options: nosniff
qbo-version: 1971.195
service-time: total=128, db=29
expires: 0
cache-control: max-age=0, no-cache, no-store, must-revalidate, private
x-envoy-upstream-service-time: 152
strict-transport-security: max-age=31536000
server: envoy

RESPONSE BODY
=============
<?xml version="1.0" encoding="UTF-8" standalone="yes"?>
<IntuitResponse xmlns="http://schema.intuit.com/finance/v3" time="2022-01-08T13:07:24.758-08:00">
  <QueryResponse/>
</IntuitResponse>


