RESPONSE URI FOR SEQUENCE ID 02924
==================================
https://quickbooks.api.intuit.com/v3/company/193514782950659/query?minorversion=47

RESPONSE HEADERS
================
date: Thu, 03 Feb 2022 11:24:19 GMT
content-type: application/xml;charset=UTF-8
content-length: 185
intuit_tid: 1-61fbbb63-688535f164bf91bb0c607f8d
x-spanid: f28f11a5-6373-46fc-a1a6-f36a7f210e7d
x-amzn-trace-id: Root=1-61fbbb63-688535f164bf91bb0c607f8d
x-content-type-options: nosniff
qbo-version: 1973.097
service-time: total=99, db=9
expires: 0
cache-control: max-age=0, no-cache, no-store, must-revalidate, private
x-envoy-upstream-service-time: 129
strict-transport-security: max-age=31536000
server: envoy

RESPONSE BODY
=============
<?xml version="1.0" encoding="UTF-8" standalone="yes"?>
<IntuitResponse xmlns="http://schema.intuit.com/finance/v3" time="2022-02-03T03:24:19.864-08:00">
  <QueryResponse/>
</IntuitResponse>


