RESPONSE URI FOR SEQUENCE ID 05846
==================================
https://quickbooks.api.intuit.com/v3/company/193514782950659/query?minorversion=47

RESPONSE HEADERS
================
date: Tue, 15 Mar 2022 16:30:51 GMT
content-type: application/xml;charset=UTF-8
content-length: 5145
intuit_tid: 1-6230bf3b-39fa60c63f27edeb2a5058f2
x-spanid: bb69ba1c-69e1-4a47-87ec-942bbfba3f0a
x-amzn-trace-id: Root=1-6230bf3b-39fa60c63f27edeb2a5058f2
x-content-type-options: nosniff
x-xss-protection: 1; mode=block
qbo-version: 1976.152
service-time: total=200, db=77
expires: 0
cache-control: max-age=0, no-cache, no-store, must-revalidate, private
x-envoy-upstream-service-time: 226
strict-transport-security: max-age=31536000
server: envoy

RESPONSE BODY
=============
<?xml version="1.0" encoding="UTF-8" standalone="yes"?>
<IntuitResponse xmlns="http://schema.intuit.com/finance/v3" time="2022-03-15T09:30:51.267-07:00">
  <QueryResponse startPosition="1" maxResults="1" totalCount="1">
    <Invoice domain="QBO" sparse="false">
      <Id>640</Id>
      <SyncToken>0</SyncToken>
      <MetaData>
        <CreateTime>2022-03-15T09:27:52-07:00</CreateTime>
        <LastUpdatedTime>2022-03-15T09:27:52-07:00</LastUpdatedTime>
      </MetaData>
      <CustomField>
        <DefinitionId>2</DefinitionId>
        <Type>StringType</Type>
        <StringValue>Notice to Owner/Preliminary No</StringValue>
      </CustomField>
      <CustomField>
        <DefinitionId>3</DefinitionId>
        <Type>StringType</Type>
        <StringValue>2111 SW 19 ST MIAMI FL 33145</StringValue>
      </CustomField>
      <DocNumber>320_1647361671</DocNumber>
      <TxnDate>2022-03-15</TxnDate>
      <CurrencyRef name="United States Dollar">USD</CurrencyRef>
      <Line>
        <Id>1</Id>
        <LineNum>1</LineNum>
        <Description>Contracted By - H&amp;R CONSTRUCTION</Description>
        <Amount>20.00</Amount>
        <DetailType>SalesItemLineDetail</DetailType>
        <SalesItemLineDetail>
          <ItemRef name="SERVICES:NTO">32</ItemRef>
          <UnitPrice>20</UnitPrice>
          <Qty>1</Qty>
          <ItemAccountRef name="Services">1</ItemAccountRef>
          <TaxCodeRef>TAX</TaxCodeRef>
          <TaxClassificationRef>EUC-99990202-V1-00020000</TaxClassificationRef>
        </SalesItemLineDetail>
      </Line>
      <Line>
        <Id>2</Id>
        <LineNum>2</LineNum>
        <Description>Rush Fee</Description>
        <Amount>8.50</Amount>
        <DetailType>SalesItemLineDetail</DetailType>
        <SalesItemLineDetail>
          <ItemRef name="SERVICES:Rush fee">33</ItemRef>
          <UnitPrice>8.5</UnitPrice>
          <Qty>1</Qty>
          <ItemAccountRef name="Services">1</ItemAccountRef>
          <TaxCodeRef>TAX</TaxCodeRef>
          <TaxClassificationRef>EUC-99990202-V1-00020000</TaxClassificationRef>
        </SalesItemLineDetail>
      </Line>
      <Line>
        <Id>3</Id>
        <LineNum>3</LineNum>
        <Description>Firm Mail</Description>
        <Amount>3.95</Amount>
        <DetailType>SalesItemLineDetail</DetailType>
        <SalesItemLineDetail>
          <ItemRef name="MAILING:Firm Mail">18</ItemRef>
          <UnitPrice>3.95</UnitPrice>
          <Qty>1</Qty>
          <ItemAccountRef name="Services">1</ItemAccountRef>
          <TaxCodeRef>TAX</TaxCodeRef>
          <TaxClassificationRef>EUC-99990202-V1-00020000</TaxClassificationRef>
        </SalesItemLineDetail>
      </Line>
      <Line>
        <Id>4</Id>
        <LineNum>4</LineNum>
        <Description>Certified Mail</Description>
        <Amount>5.42</Amount>
        <DetailType>SalesItemLineDetail</DetailType>
        <SalesItemLineDetail>
          <ItemRef name="MAILING:Certified Mail USPS">17</ItemRef>
          <UnitPrice>5.42</UnitPrice>
          <Qty>1</Qty>
          <ItemAccountRef name="Services">1</ItemAccountRef>
          <TaxCodeRef>TAX</TaxCodeRef>
          <TaxClassificationRef>EUC-99990202-V1-00020000</TaxClassificationRef>
        </SalesItemLineDetail>
      </Line>
      <Line>
        <Id>5</Id>
        <LineNum>5</LineNum>
        <Description>Certified Mail with Electronic Return Receipt</Description>
        <Amount>7.22</Amount>
        <DetailType>SalesItemLineDetail</DetailType>
        <SalesItemLineDetail>
          <ItemRef name="MAILING:Certified Mail ESRR">15</ItemRef>
          <UnitPrice>7.22</UnitPrice>
          <Qty>1</Qty>
          <ItemAccountRef name="Services">1</ItemAccountRef>
          <TaxCodeRef>TAX</TaxCodeRef>
          <TaxClassificationRef>EUC-99990202-V1-00020000</TaxClassificationRef>
        </SalesItemLineDetail>
      </Line>
      <Line>
        <Id>6</Id>
        <LineNum>6</LineNum>
        <Description>C70191120000063845652-320</Description>
        <Amount>6.95</Amount>
        <DetailType>SalesItemLineDetail</DetailType>
        <SalesItemLineDetail>
          <ItemRef name="MAILING:Manual">19</ItemRef>
          <UnitPrice>6.95</UnitPrice>
          <Qty>1</Qty>
          <ItemAccountRef name="Services">1</ItemAccountRef>
          <TaxCodeRef>TAX</TaxCodeRef>
          <TaxClassificationRef>EUC-99990202-V1-00020000</TaxClassificationRef>
        </SalesItemLineDetail>
      </Line>
      <Line>
        <Amount>52.04</Amount>
        <DetailType>SubTotalLineDetail</DetailType>
        <SubTotalLineDetail/>
      </Line>
      <TxnTaxDetail>
        <TxnTaxCodeRef>3</TxnTaxCodeRef>
        <TotalTax>0</TotalTax>
        <TaxLine>
          <Amount>0</Amount>
          <DetailType>TaxLineDetail</DetailType>
          <TaxLineDetail>
            <TaxRateRef>3</TaxRateRef>
            <PercentBased>true</PercentBased>
            <TaxPercent>6</TaxPercent>
            <NetAmountTaxable>0</NetAmountTaxable>
          </TaxLineDetail>
        </TaxLine>
        <TaxLine>
          <Amount>0</Amount>
          <DetailType>TaxLineDetail</DetailType>
          <TaxLineDetail>
            <TaxRateRef>4</TaxRateRef>
            <PercentBased>true</PercentBased>
            <TaxPercent>1</TaxPercent>
            <NetAmountTaxable>0</NetAmountTaxable>
          </TaxLineDetail>
        </TaxLine>
      </TxnTaxDetail>
      <CustomerRef name="ERNESTO HERNANDEZ">195</CustomerRef>
      <BillAddr>
        <Id>196</Id>
        <Line1>6945 NW 53 TERRACE</Line1>
        <City>MIAMI</City>
        <CountrySubDivisionCode>FLOIRDA</CountrySubDivisionCode>
        <PostalCode>33166</PostalCode>
      </BillAddr>
      <ShipAddr>
        <Id>196</Id>
        <Line1>6945 NW 53 TERRACE</Line1>
        <City>MIAMI</City>
        <CountrySubDivisionCode>FLOIRDA</CountrySubDivisionCode>
        <PostalCode>33166</PostalCode>
      </ShipAddr>
      <FreeFormAddress>true</FreeFormAddress>
      <ShipFromAddr>
        <Id>831</Id>
        <Line1>PO Box 22821</Line1>
        <Line2>Hialeah, FL  33002 US</Line2>
      </ShipFromAddr>
      <SalesTermRef name="Net 15">2</SalesTermRef>
      <DueDate>2022-03-30</DueDate>
      <TotalAmt>52.04</TotalAmt>
      <ApplyTaxAfterDiscount>false</ApplyTaxAfterDiscount>
      <PrintStatus>NeedToPrint</PrintStatus>
      <EmailStatus>NotSet</EmailStatus>
      <Balance>52.04</Balance>
      <TaxExemptionRef name="service">99</TaxExemptionRef>
      <AllowIPNPayment>false</AllowIPNPayment>
      <AllowOnlinePayment>false</AllowOnlinePayment>
      <AllowOnlineCreditCardPayment>false</AllowOnlineCreditCardPayment>
      <AllowOnlineACHPayment>false</AllowOnlineACHPayment>
    </Invoice>
  </QueryResponse>
</IntuitResponse>


