RESPONSE URI FOR SEQUENCE ID 07008
==================================
https://quickbooks.api.intuit.com/v3/company/193514782950659/query?minorversion=47

RESPONSE HEADERS
================
date: Wed, 06 Apr 2022 21:46:45 GMT
content-type: application/xml;charset=UTF-8
content-length: 4536
intuit_tid: 1-624e0a45-0d1fa6ba05df41007ab92611
x-spanid: 0450b3e7-2c84-4bf9-bc39-6b184068b263
x-amzn-trace-id: Root=1-624e0a45-0d1fa6ba05df41007ab92611
x-content-type-options: nosniff
x-xss-protection: 1; mode=block
qbo-version: 1978.180
service-time: total=133, db=46
expires: 0
cache-control: max-age=0, no-cache, no-store, must-revalidate, private
x-envoy-upstream-service-time: 171
strict-transport-security: max-age=31536000
server: envoy

RESPONSE BODY
=============
<?xml version="1.0" encoding="UTF-8" standalone="yes"?>
<IntuitResponse xmlns="http://schema.intuit.com/finance/v3" time="2022-04-06T14:46:45.214-07:00">
  <QueryResponse startPosition="1" maxResults="1" totalCount="1">
    <Invoice domain="QBO" sparse="false">
      <Id>619</Id>
      <SyncToken>0</SyncToken>
      <MetaData>
        <CreateTime>2022-03-10T08:48:46-08:00</CreateTime>
        <LastUpdatedTime>2022-04-06T12:28:03-07:00</LastUpdatedTime>
      </MetaData>
      <CustomField>
        <DefinitionId>2</DefinitionId>
        <Type>StringType</Type>
        <StringValue>Notice to Owner/Preliminary No</StringValue>
      </CustomField>
      <CustomField>
        <DefinitionId>3</DefinitionId>
        <Type>StringType</Type>
        <StringValue>929 SOUTHWEST 3RD AVENUE , MIA</StringValue>
      </CustomField>
      <DocNumber>299_1646930926</DocNumber>
      <TxnDate>2022-03-10</TxnDate>
      <CurrencyRef name="United States Dollar">USD</CurrencyRef>
      <Line>
        <Id>1</Id>
        <LineNum>1</LineNum>
        <Description>Contracted By - H.A. CONTRACTING CORP.</Description>
        <Amount>45.00</Amount>
        <DetailType>SalesItemLineDetail</DetailType>
        <SalesItemLineDetail>
          <ItemRef name="SERVICES:NTO">32</ItemRef>
          <UnitPrice>45</UnitPrice>
          <Qty>1</Qty>
          <ItemAccountRef name="Services">1</ItemAccountRef>
          <TaxCodeRef>TAX</TaxCodeRef>
          <TaxClassificationRef>EUC-99990202-V1-00020000</TaxClassificationRef>
        </SalesItemLineDetail>
      </Line>
      <Line>
        <Id>2</Id>
        <LineNum>2</LineNum>
        <Description>Rush Fee</Description>
        <Amount>12.50</Amount>
        <DetailType>SalesItemLineDetail</DetailType>
        <SalesItemLineDetail>
          <ItemRef name="SERVICES:Rush fee">33</ItemRef>
          <UnitPrice>12.5</UnitPrice>
          <Qty>1</Qty>
          <ItemAccountRef name="Services">1</ItemAccountRef>
          <TaxCodeRef>TAX</TaxCodeRef>
          <TaxClassificationRef>EUC-99990202-V1-00020000</TaxClassificationRef>
        </SalesItemLineDetail>
      </Line>
      <Line>
        <Id>3</Id>
        <LineNum>3</LineNum>
        <Description>Certified Mail</Description>
        <Amount>10.84</Amount>
        <DetailType>SalesItemLineDetail</DetailType>
        <SalesItemLineDetail>
          <ItemRef name="MAILING:Certified Mail USPS">17</ItemRef>
          <UnitPrice>5.42</UnitPrice>
          <Qty>2</Qty>
          <ItemAccountRef name="Services">1</ItemAccountRef>
          <TaxCodeRef>TAX</TaxCodeRef>
          <TaxClassificationRef>EUC-99990202-V1-00020000</TaxClassificationRef>
        </SalesItemLineDetail>
      </Line>
      <Line>
        <Id>4</Id>
        <LineNum>4</LineNum>
        <Description>C70191120000063845577-299</Description>
        <Amount>6.95</Amount>
        <DetailType>SalesItemLineDetail</DetailType>
        <SalesItemLineDetail>
          <ItemRef name="MAILING:Manual">19</ItemRef>
          <UnitPrice>6.95</UnitPrice>
          <Qty>1</Qty>
          <ItemAccountRef name="Services">1</ItemAccountRef>
          <TaxCodeRef>TAX</TaxCodeRef>
          <TaxClassificationRef>EUC-99990202-V1-00020000</TaxClassificationRef>
        </SalesItemLineDetail>
      </Line>
      <Line>
        <Amount>75.29</Amount>
        <DetailType>SubTotalLineDetail</DetailType>
        <SubTotalLineDetail/>
      </Line>
      <TxnTaxDetail>
        <TxnTaxCodeRef>3</TxnTaxCodeRef>
        <TotalTax>5.27</TotalTax>
        <TaxLine>
          <Amount>4.51</Amount>
          <DetailType>TaxLineDetail</DetailType>
          <TaxLineDetail>
            <TaxRateRef>3</TaxRateRef>
            <PercentBased>true</PercentBased>
            <TaxPercent>6</TaxPercent>
            <NetAmountTaxable>75.29</NetAmountTaxable>
          </TaxLineDetail>
        </TaxLine>
        <TaxLine>
          <Amount>0.76</Amount>
          <DetailType>TaxLineDetail</DetailType>
          <TaxLineDetail>
            <TaxRateRef>4</TaxRateRef>
            <PercentBased>true</PercentBased>
            <TaxPercent>1</TaxPercent>
            <NetAmountTaxable>75.29</NetAmountTaxable>
          </TaxLineDetail>
        </TaxLine>
      </TxnTaxDetail>
      <CustomerRef name="DADE ELECTRIC SERVICE INC._1645596425">264</CustomerRef>
      <BillAddr>
        <Id>627</Id>
        <Line1>8191 NW 91 TERR. # 9</Line1>
        <City>Miami</City>
        <CountrySubDivisionCode>Florida</CountrySubDivisionCode>
        <PostalCode>33166</PostalCode>
      </BillAddr>
      <ShipAddr>
        <Id>628</Id>
        <Line1>8191 NW 91 TERR. # 9</Line1>
        <City>Miami</City>
        <CountrySubDivisionCode>Florida</CountrySubDivisionCode>
        <PostalCode>33166</PostalCode>
      </ShipAddr>
      <FreeFormAddress>true</FreeFormAddress>
      <ShipFromAddr>
        <Id>814</Id>
        <Line1>PO Box 22821</Line1>
        <Line2>Hialeah, FL  33002 US</Line2>
      </ShipFromAddr>
      <SalesTermRef name="Net 15">2</SalesTermRef>
      <DueDate>2022-03-25</DueDate>
      <TotalAmt>80.56</TotalAmt>
      <ApplyTaxAfterDiscount>false</ApplyTaxAfterDiscount>
      <PrintStatus>NeedToPrint</PrintStatus>
      <EmailStatus>EmailSent</EmailStatus>
      <BillEmail>
        <Address>elizabeth@dadeelectric.com</Address>
      </BillEmail>
      <Balance>80.56</Balance>
      <DeliveryInfo>
        <DeliveryType>Email</DeliveryType>
        <DeliveryTime>2022-04-06T12:23:39-07:00</DeliveryTime>
      </DeliveryInfo>
      <TaxExemptionRef name="service">99</TaxExemptionRef>
      <AllowIPNPayment>false</AllowIPNPayment>
      <AllowOnlinePayment>false</AllowOnlinePayment>
      <AllowOnlineCreditCardPayment>false</AllowOnlineCreditCardPayment>
      <AllowOnlineACHPayment>false</AllowOnlineACHPayment>
      <EInvoiceStatus>Viewed</EInvoiceStatus>
    </Invoice>
  </QueryResponse>
</IntuitResponse>


