RESPONSE URI FOR SEQUENCE ID 07242
==================================
https://quickbooks.api.intuit.com/v3/company/193514782950659/query?minorversion=47

RESPONSE HEADERS
================
date: Wed, 06 Apr 2022 22:16:43 GMT
content-type: application/xml;charset=UTF-8
content-length: 4506
intuit_tid: 1-624e114b-70dd082f7939b1ca04594a71
x-spanid: 85082d8a-af4d-4208-aee3-01c6bec3caa6
x-amzn-trace-id: Root=1-624e114b-70dd082f7939b1ca04594a71
x-content-type-options: nosniff
x-xss-protection: 1; mode=block
qbo-version: 1978.180
service-time: total=267, db=150
expires: 0
cache-control: max-age=0, no-cache, no-store, must-revalidate, private
x-envoy-upstream-service-time: 311
strict-transport-security: max-age=31536000
server: envoy

RESPONSE BODY
=============
<?xml version="1.0" encoding="UTF-8" standalone="yes"?>
<IntuitResponse xmlns="http://schema.intuit.com/finance/v3" time="2022-04-06T15:16:43.343-07:00">
  <QueryResponse startPosition="1" maxResults="1" totalCount="1">
    <Invoice domain="QBO" sparse="false">
      <Id>737</Id>
      <SyncToken>0</SyncToken>
      <MetaData>
        <CreateTime>2022-04-04T09:27:37-07:00</CreateTime>
        <LastUpdatedTime>2022-04-06T14:11:43-07:00</LastUpdatedTime>
      </MetaData>
      <CustomField>
        <DefinitionId>2</DefinitionId>
        <Type>StringType</Type>
        <StringValue>Notice to Owner/Preliminary No</StringValue>
      </CustomField>
      <CustomField>
        <DefinitionId>3</DefinitionId>
        <Type>StringType</Type>
        <StringValue>2021 SW 58 CT</StringValue>
      </CustomField>
      <DocNumber>279_1649089656</DocNumber>
      <TxnDate>2022-04-04</TxnDate>
      <CurrencyRef name="United States Dollar">USD</CurrencyRef>
      <Line>
        <Id>1</Id>
        <LineNum>1</LineNum>
        <Description>Contracted By - ELECTRO GROUP, INC</Description>
        <Amount>45.00</Amount>
        <DetailType>SalesItemLineDetail</DetailType>
        <SalesItemLineDetail>
          <ItemRef name="SERVICES:NTO">32</ItemRef>
          <UnitPrice>45</UnitPrice>
          <Qty>1</Qty>
          <ItemAccountRef name="Services">1</ItemAccountRef>
          <TaxCodeRef>TAX</TaxCodeRef>
          <TaxClassificationRef>EUC-99990202-V1-00020000</TaxClassificationRef>
        </SalesItemLineDetail>
      </Line>
      <Line>
        <Id>2</Id>
        <LineNum>2</LineNum>
        <Description>Firm Mail</Description>
        <Amount>3.95</Amount>
        <DetailType>SalesItemLineDetail</DetailType>
        <SalesItemLineDetail>
          <ItemRef name="MAILING:Firm Mail">18</ItemRef>
          <UnitPrice>3.95</UnitPrice>
          <Qty>1</Qty>
          <ItemAccountRef name="Services">1</ItemAccountRef>
          <TaxCodeRef>TAX</TaxCodeRef>
          <TaxClassificationRef>EUC-99990202-V1-00020000</TaxClassificationRef>
        </SalesItemLineDetail>
      </Line>
      <Line>
        <Id>3</Id>
        <LineNum>3</LineNum>
        <Description>Certified Mail</Description>
        <Amount>5.42</Amount>
        <DetailType>SalesItemLineDetail</DetailType>
        <SalesItemLineDetail>
          <ItemRef name="MAILING:Certified Mail USPS">17</ItemRef>
          <UnitPrice>5.42</UnitPrice>
          <Qty>1</Qty>
          <ItemAccountRef name="Services">1</ItemAccountRef>
          <TaxCodeRef>TAX</TaxCodeRef>
          <TaxClassificationRef>EUC-99990202-V1-00020000</TaxClassificationRef>
        </SalesItemLineDetail>
      </Line>
      <Line>
        <Id>4</Id>
        <LineNum>4</LineNum>
        <Description>Certified Mail with Electronic Return Receipt</Description>
        <Amount>7.22</Amount>
        <DetailType>SalesItemLineDetail</DetailType>
        <SalesItemLineDetail>
          <ItemRef name="MAILING:Certified Mail ESRR">15</ItemRef>
          <UnitPrice>7.22</UnitPrice>
          <Qty>1</Qty>
          <ItemAccountRef name="Services">1</ItemAccountRef>
          <TaxCodeRef>TAX</TaxCodeRef>
          <TaxClassificationRef>EUC-99990202-V1-00020000</TaxClassificationRef>
        </SalesItemLineDetail>
      </Line>
      <Line>
        <Amount>61.59</Amount>
        <DetailType>SubTotalLineDetail</DetailType>
        <SubTotalLineDetail/>
      </Line>
      <TxnTaxDetail>
        <TxnTaxCodeRef>3</TxnTaxCodeRef>
        <TotalTax>0</TotalTax>
        <TaxLine>
          <Amount>0</Amount>
          <DetailType>TaxLineDetail</DetailType>
          <TaxLineDetail>
            <TaxRateRef>3</TaxRateRef>
            <PercentBased>true</PercentBased>
            <TaxPercent>6</TaxPercent>
            <NetAmountTaxable>0</NetAmountTaxable>
          </TaxLineDetail>
        </TaxLine>
        <TaxLine>
          <Amount>0</Amount>
          <DetailType>TaxLineDetail</DetailType>
          <TaxLineDetail>
            <TaxRateRef>4</TaxRateRef>
            <PercentBased>true</PercentBased>
            <TaxPercent>1</TaxPercent>
            <NetAmountTaxable>0</NetAmountTaxable>
          </TaxLineDetail>
        </TaxLine>
      </TxnTaxDetail>
      <CustomerRef name="DESMAR PC INC_1641471298">226</CustomerRef>
      <BillAddr>
        <Id>428</Id>
        <Line1>6405 NW 36 ST # 124</Line1>
        <City>Miami</City>
        <CountrySubDivisionCode>Florida</CountrySubDivisionCode>
        <PostalCode>33166</PostalCode>
      </BillAddr>
      <ShipAddr>
        <Id>429</Id>
        <Line1>6405 NW 36 ST # 124</Line1>
        <City>Miami</City>
        <CountrySubDivisionCode>Florida</CountrySubDivisionCode>
        <PostalCode>33166</PostalCode>
      </ShipAddr>
      <FreeFormAddress>true</FreeFormAddress>
      <ShipFromAddr>
        <Id>943</Id>
        <Line1>PO Box 22821</Line1>
        <Line2>Hialeah, FL  33002 US</Line2>
      </ShipFromAddr>
      <SalesTermRef name="Net 15">2</SalesTermRef>
      <DueDate>2022-04-19</DueDate>
      <TotalAmt>61.59</TotalAmt>
      <ApplyTaxAfterDiscount>false</ApplyTaxAfterDiscount>
      <PrintStatus>NeedToPrint</PrintStatus>
      <EmailStatus>EmailSent</EmailStatus>
      <BillEmail>
        <Address>info@desmarpc.com</Address>
      </BillEmail>
      <Balance>61.59</Balance>
      <DeliveryInfo>
        <DeliveryType>Email</DeliveryType>
        <DeliveryTime>2022-04-06T12:23:59-07:00</DeliveryTime>
      </DeliveryInfo>
      <TaxExemptionRef name="service">99</TaxExemptionRef>
      <AllowIPNPayment>false</AllowIPNPayment>
      <AllowOnlinePayment>false</AllowOnlinePayment>
      <AllowOnlineCreditCardPayment>false</AllowOnlineCreditCardPayment>
      <AllowOnlineACHPayment>false</AllowOnlineACHPayment>
      <EInvoiceStatus>Viewed</EInvoiceStatus>
    </Invoice>
  </QueryResponse>
</IntuitResponse>


