RESPONSE URI FOR SEQUENCE ID 07246
==================================
https://quickbooks.api.intuit.com/v3/company/193514782950659/query?minorversion=47

RESPONSE HEADERS
================
date: Wed, 06 Apr 2022 22:16:44 GMT
content-type: application/xml;charset=UTF-8
content-length: 4237
intuit_tid: 1-624e114c-2463d04b7344032c7ed0180e
x-spanid: 4d924c6c-fdbb-467d-919b-105340e62d47
x-amzn-trace-id: Root=1-624e114c-2463d04b7344032c7ed0180e
x-content-type-options: nosniff
x-xss-protection: 1; mode=block
qbo-version: 1978.180
service-time: total=209, db=121
expires: 0
cache-control: max-age=0, no-cache, no-store, must-revalidate, private
x-envoy-upstream-service-time: 249
strict-transport-security: max-age=31536000
server: envoy

RESPONSE BODY
=============
<?xml version="1.0" encoding="UTF-8" standalone="yes"?>
<IntuitResponse xmlns="http://schema.intuit.com/finance/v3" time="2022-04-06T15:16:44.517-07:00">
  <QueryResponse startPosition="1" maxResults="1" totalCount="1">
    <Invoice domain="QBO" sparse="false">
      <Id>736</Id>
      <SyncToken>0</SyncToken>
      <MetaData>
        <CreateTime>2022-04-04T09:27:36-07:00</CreateTime>
        <LastUpdatedTime>2022-04-06T13:34:30-07:00</LastUpdatedTime>
      </MetaData>
      <CustomField>
        <DefinitionId>1</DefinitionId>
        <Type>StringType</Type>
        <StringValue>JDS Development Group</StringValue>
      </CustomField>
      <CustomField>
        <DefinitionId>2</DefinitionId>
        <Type>StringType</Type>
        <StringValue>Notice to Owner/Preliminary No</StringValue>
      </CustomField>
      <CustomField>
        <DefinitionId>3</DefinitionId>
        <Type>StringType</Type>
        <StringValue>1300 Monad Terrace Unit 8F, Mi</StringValue>
      </CustomField>
      <DocNumber>330_1649089656</DocNumber>
      <TxnDate>2022-04-04</TxnDate>
      <CurrencyRef name="United States Dollar">USD</CurrencyRef>
      <Line>
        <Id>1</Id>
        <LineNum>1</LineNum>
        <Description>Contracted By - JDS Development Group</Description>
        <Amount>45.00</Amount>
        <DetailType>SalesItemLineDetail</DetailType>
        <SalesItemLineDetail>
          <ItemRef name="SERVICES:NTO">32</ItemRef>
          <UnitPrice>45</UnitPrice>
          <Qty>1</Qty>
          <ItemAccountRef name="Services">1</ItemAccountRef>
          <TaxCodeRef>TAX</TaxCodeRef>
          <TaxClassificationRef>EUC-99990202-V1-00020000</TaxClassificationRef>
        </SalesItemLineDetail>
      </Line>
      <Line>
        <Id>2</Id>
        <LineNum>2</LineNum>
        <Description>Firm Mail</Description>
        <Amount>3.95</Amount>
        <DetailType>SalesItemLineDetail</DetailType>
        <SalesItemLineDetail>
          <ItemRef name="MAILING:Firm Mail">18</ItemRef>
          <UnitPrice>3.95</UnitPrice>
          <Qty>1</Qty>
          <ItemAccountRef name="Services">1</ItemAccountRef>
          <TaxCodeRef>TAX</TaxCodeRef>
          <TaxClassificationRef>EUC-99990202-V1-00020000</TaxClassificationRef>
        </SalesItemLineDetail>
      </Line>
      <Line>
        <Id>3</Id>
        <LineNum>3</LineNum>
        <Description>CES7019112000063845997-330</Description>
        <Amount>6.95</Amount>
        <DetailType>SalesItemLineDetail</DetailType>
        <SalesItemLineDetail>
          <ItemRef name="MAILING:Manual">19</ItemRef>
          <UnitPrice>6.95</UnitPrice>
          <Qty>1</Qty>
          <ItemAccountRef name="Services">1</ItemAccountRef>
          <TaxCodeRef>TAX</TaxCodeRef>
          <TaxClassificationRef>EUC-99990202-V1-00020000</TaxClassificationRef>
        </SalesItemLineDetail>
      </Line>
      <Line>
        <Amount>55.90</Amount>
        <DetailType>SubTotalLineDetail</DetailType>
        <SubTotalLineDetail/>
      </Line>
      <TxnTaxDetail>
        <TxnTaxCodeRef>3</TxnTaxCodeRef>
        <TotalTax>3.91</TotalTax>
        <TaxLine>
          <Amount>3.35</Amount>
          <DetailType>TaxLineDetail</DetailType>
          <TaxLineDetail>
            <TaxRateRef>3</TaxRateRef>
            <PercentBased>true</PercentBased>
            <TaxPercent>6</TaxPercent>
            <NetAmountTaxable>55.90</NetAmountTaxable>
          </TaxLineDetail>
        </TaxLine>
        <TaxLine>
          <Amount>0.56</Amount>
          <DetailType>TaxLineDetail</DetailType>
          <TaxLineDetail>
            <TaxRateRef>4</TaxRateRef>
            <PercentBased>true</PercentBased>
            <TaxPercent>1</TaxPercent>
            <NetAmountTaxable>55.90</NetAmountTaxable>
          </TaxLineDetail>
        </TaxLine>
      </TxnTaxDetail>
      <CustomerRef name="Mr Wood Custom Floors, Inc_1646324085">266</CustomerRef>
      <BillAddr>
        <Id>662</Id>
        <Line1>1925 NE 150th Street</Line1>
        <City>North miami</City>
        <CountrySubDivisionCode>Florida</CountrySubDivisionCode>
        <PostalCode>33181</PostalCode>
      </BillAddr>
      <ShipAddr>
        <Id>663</Id>
        <Line1>1925 NE 150th Street</Line1>
        <City>North miami</City>
        <CountrySubDivisionCode>Florida</CountrySubDivisionCode>
        <PostalCode>33181</PostalCode>
      </ShipAddr>
      <FreeFormAddress>true</FreeFormAddress>
      <ShipFromAddr>
        <Id>942</Id>
        <Line1>PO Box 22821</Line1>
        <Line2>Hialeah, FL  33002 US</Line2>
      </ShipFromAddr>
      <SalesTermRef name="Net 15">2</SalesTermRef>
      <DueDate>2022-04-19</DueDate>
      <TotalAmt>59.81</TotalAmt>
      <ApplyTaxAfterDiscount>false</ApplyTaxAfterDiscount>
      <PrintStatus>NeedToPrint</PrintStatus>
      <EmailStatus>EmailSent</EmailStatus>
      <BillEmail>
        <Address>mrwoodfloors@yahoo.com</Address>
      </BillEmail>
      <Balance>59.81</Balance>
      <DeliveryInfo>
        <DeliveryType>Email</DeliveryType>
        <DeliveryTime>2022-04-06T12:23:59-07:00</DeliveryTime>
      </DeliveryInfo>
      <TaxExemptionRef name="SERVICE">99</TaxExemptionRef>
      <AllowIPNPayment>false</AllowIPNPayment>
      <AllowOnlinePayment>false</AllowOnlinePayment>
      <AllowOnlineCreditCardPayment>false</AllowOnlineCreditCardPayment>
      <AllowOnlineACHPayment>false</AllowOnlineACHPayment>
      <EInvoiceStatus>Viewed</EInvoiceStatus>
    </Invoice>
  </QueryResponse>
</IntuitResponse>


