RESPONSE URI FOR SEQUENCE ID 07800
==================================
https://quickbooks.api.intuit.com/v3/company/193514782950659/invoice?minorversion=47

RESPONSE HEADERS
================
date: Tue, 12 Apr 2022 17:01:59 GMT
content-type: application/xml;charset=UTF-8
content-length: 3801
intuit_tid: 1-6255b086-13b8b1f35786dd341770ca9b
x-spanid: 19df997a-2eef-4c75-9e43-f2fac6245d59
x-amzn-trace-id: Root=1-6255b086-13b8b1f35786dd341770ca9b
x-content-type-options: nosniff
x-xss-protection: 1; mode=block
qbo-version: 1978.185
service-time: total=601, db=191
expires: 0
cache-control: max-age=0, no-cache, no-store, must-revalidate, private
x-envoy-upstream-service-time: 643
strict-transport-security: max-age=31536000
server: envoy

RESPONSE BODY
=============
<?xml version="1.0" encoding="UTF-8" standalone="yes"?>
<IntuitResponse xmlns="http://schema.intuit.com/finance/v3" time="2022-04-12T10:01:58.523-07:00">
  <Invoice domain="QBO" sparse="false">
    <Id>1229</Id>
    <SyncToken>0</SyncToken>
    <MetaData>
      <CreateTime>2022-04-12T10:01:58-07:00</CreateTime>
      <LastUpdatedTime>2022-04-12T10:01:58-07:00</LastUpdatedTime>
    </MetaData>
    <CustomField>
      <DefinitionId>2</DefinitionId>
      <Type>StringType</Type>
      <StringValue>Notice to Owner/Preliminary No</StringValue>
    </CustomField>
    <CustomField>
      <DefinitionId>3</DefinitionId>
      <Type>StringType</Type>
      <StringValue>1725 NE 125 ST NORTH MIAMI FLO</StringValue>
    </CustomField>
    <DocNumber>491_1649782917</DocNumber>
    <TxnDate>2022-04-12</TxnDate>
    <CurrencyRef name="United States Dollar">USD</CurrencyRef>
    <Line>
      <Id>1</Id>
      <LineNum>1</LineNum>
      <Description>Contracted By - EMERALD NEUCOR CONSTRUCTION</Description>
      <Amount>45.00</Amount>
      <DetailType>SalesItemLineDetail</DetailType>
      <SalesItemLineDetail>
        <ItemRef name="SERVICES:NTO">32</ItemRef>
        <UnitPrice>45</UnitPrice>
        <Qty>1</Qty>
        <ItemAccountRef name="Services">1</ItemAccountRef>
        <TaxCodeRef>TAX</TaxCodeRef>
        <TaxClassificationRef>EUC-99990202-V1-00020000</TaxClassificationRef>
      </SalesItemLineDetail>
    </Line>
    <Line>
      <Id>2</Id>
      <LineNum>2</LineNum>
      <Description>Firm Mail</Description>
      <Amount>3.95</Amount>
      <DetailType>SalesItemLineDetail</DetailType>
      <SalesItemLineDetail>
        <ItemRef name="MAILING:Firm Mail">18</ItemRef>
        <UnitPrice>3.95</UnitPrice>
        <Qty>1</Qty>
        <ItemAccountRef name="Services">1</ItemAccountRef>
        <TaxCodeRef>TAX</TaxCodeRef>
        <TaxClassificationRef>EUC-99990202-V1-00020000</TaxClassificationRef>
      </SalesItemLineDetail>
    </Line>
    <Line>
      <Id>3</Id>
      <LineNum>3</LineNum>
      <Description>Certified Mail with Electronic Return Receipt</Description>
      <Amount>7.22</Amount>
      <DetailType>SalesItemLineDetail</DetailType>
      <SalesItemLineDetail>
        <ItemRef name="MAILING:Certified Mail ESRR">15</ItemRef>
        <UnitPrice>7.22</UnitPrice>
        <Qty>1</Qty>
        <ItemAccountRef name="Services">1</ItemAccountRef>
        <TaxCodeRef>TAX</TaxCodeRef>
        <TaxClassificationRef>EUC-99990202-V1-00020000</TaxClassificationRef>
      </SalesItemLineDetail>
    </Line>
    <Line>
      <Amount>56.17</Amount>
      <DetailType>SubTotalLineDetail</DetailType>
      <SubTotalLineDetail/>
    </Line>
    <TxnTaxDetail>
      <TxnTaxCodeRef>4</TxnTaxCodeRef>
      <TotalTax>3.93</TotalTax>
      <TaxLine>
        <Amount>0.56</Amount>
        <DetailType>TaxLineDetail</DetailType>
        <TaxLineDetail>
          <TaxRateRef>5</TaxRateRef>
          <PercentBased>true</PercentBased>
          <TaxPercent>1</TaxPercent>
          <NetAmountTaxable>56.17</NetAmountTaxable>
        </TaxLineDetail>
      </TaxLine>
      <TaxLine>
        <Amount>3.37</Amount>
        <DetailType>TaxLineDetail</DetailType>
        <TaxLineDetail>
          <TaxRateRef>3</TaxRateRef>
          <PercentBased>true</PercentBased>
          <TaxPercent>6</TaxPercent>
          <NetAmountTaxable>56.17</NetAmountTaxable>
        </TaxLineDetail>
      </TaxLine>
    </TxnTaxDetail>
    <CustomerRef name="VALUE PLUMBING SERVICES INC_1648618347">276</CustomerRef>
    <BillAddr>
      <Id>914</Id>
      <Line1>7613 BILTMORE BLVD</Line1>
      <City>Miramar</City>
      <CountrySubDivisionCode>Florida</CountrySubDivisionCode>
      <PostalCode>33023</PostalCode>
    </BillAddr>
    <ShipAddr>
      <Id>915</Id>
      <Line1>7613 BILTMORE BLVD</Line1>
      <City>Miramar</City>
      <CountrySubDivisionCode>Florida</CountrySubDivisionCode>
      <PostalCode>33023</PostalCode>
    </ShipAddr>
    <FreeFormAddress>true</FreeFormAddress>
    <ShipFromAddr>
      <Id>981</Id>
      <Line1>PO Box 22821</Line1>
      <Line2>Hialeah, FL  33002 US</Line2>
    </ShipFromAddr>
    <SalesTermRef name="Net 15">2</SalesTermRef>
    <DueDate>2022-04-27</DueDate>
    <TotalAmt>60.10</TotalAmt>
    <ApplyTaxAfterDiscount>false</ApplyTaxAfterDiscount>
    <PrintStatus>NeedToPrint</PrintStatus>
    <EmailStatus>NotSet</EmailStatus>
    <Balance>60.10</Balance>
    <TaxExemptionRef/>
    <AllowIPNPayment>false</AllowIPNPayment>
    <AllowOnlinePayment>false</AllowOnlinePayment>
    <AllowOnlineCreditCardPayment>false</AllowOnlineCreditCardPayment>
    <AllowOnlineACHPayment>false</AllowOnlineACHPayment>
  </Invoice>
</IntuitResponse>


