RESPONSE URI FOR SEQUENCE ID 07846
==================================
https://quickbooks.api.intuit.com/v3/company/193514782950659/query?minorversion=47

RESPONSE HEADERS
================
date: Tue, 12 Apr 2022 17:53:08 GMT
content-type: application/xml;charset=UTF-8
content-length: 4249
intuit_tid: 1-6255bc84-5df9478d7ab39a7a7b9ab67b
x-spanid: cfaa45e8-64b9-4104-b304-a4e3445abab5
x-amzn-trace-id: Root=1-6255bc84-5df9478d7ab39a7a7b9ab67b
x-content-type-options: nosniff
x-xss-protection: 1; mode=block
qbo-version: 1978.185
service-time: total=226, db=118
expires: 0
cache-control: max-age=0, no-cache, no-store, must-revalidate, private
x-envoy-upstream-service-time: 255
strict-transport-security: max-age=31536000
server: envoy

RESPONSE BODY
=============
<?xml version="1.0" encoding="UTF-8" standalone="yes"?>
<IntuitResponse xmlns="http://schema.intuit.com/finance/v3" time="2022-04-12T10:53:08.647-07:00">
  <QueryResponse startPosition="1" maxResults="1" totalCount="1">
    <Invoice domain="QBO" sparse="false">
      <Id>1234</Id>
      <SyncToken>0</SyncToken>
      <MetaData>
        <CreateTime>2022-04-12T10:02:04-07:00</CreateTime>
        <LastUpdatedTime>2022-04-12T10:02:04-07:00</LastUpdatedTime>
      </MetaData>
      <CustomField>
        <DefinitionId>2</DefinitionId>
        <Type>StringType</Type>
        <StringValue>Notice to Owner/Preliminary No</StringValue>
      </CustomField>
      <CustomField>
        <DefinitionId>3</DefinitionId>
        <Type>StringType</Type>
        <StringValue>7500 SW 87TH AVE #200</StringValue>
      </CustomField>
      <DocNumber>449_1649782923</DocNumber>
      <TxnDate>2022-04-12</TxnDate>
      <CurrencyRef name="United States Dollar">USD</CurrencyRef>
      <Line>
        <Id>1</Id>
        <LineNum>1</LineNum>
        <Description>Contracted By - MARLIN PLUMBING OF MIAMI INC</Description>
        <Amount>35.00</Amount>
        <DetailType>SalesItemLineDetail</DetailType>
        <SalesItemLineDetail>
          <ItemRef name="SERVICES:NTO">32</ItemRef>
          <UnitPrice>35</UnitPrice>
          <Qty>1</Qty>
          <ItemAccountRef name="Services">1</ItemAccountRef>
          <TaxCodeRef>TAX</TaxCodeRef>
          <TaxClassificationRef>EUC-99990202-V1-00020000</TaxClassificationRef>
        </SalesItemLineDetail>
      </Line>
      <Line>
        <Id>2</Id>
        <LineNum>2</LineNum>
        <Description>Firm Mail</Description>
        <Amount>3.95</Amount>
        <DetailType>SalesItemLineDetail</DetailType>
        <SalesItemLineDetail>
          <ItemRef name="MAILING:Firm Mail">18</ItemRef>
          <UnitPrice>3.95</UnitPrice>
          <Qty>1</Qty>
          <ItemAccountRef name="Services">1</ItemAccountRef>
          <TaxCodeRef>TAX</TaxCodeRef>
          <TaxClassificationRef>EUC-99990202-V1-00020000</TaxClassificationRef>
        </SalesItemLineDetail>
      </Line>
      <Line>
        <Id>3</Id>
        <LineNum>3</LineNum>
        <Description>Certified Mail</Description>
        <Amount>5.42</Amount>
        <DetailType>SalesItemLineDetail</DetailType>
        <SalesItemLineDetail>
          <ItemRef name="MAILING:Certified Mail USPS">17</ItemRef>
          <UnitPrice>5.42</UnitPrice>
          <Qty>1</Qty>
          <ItemAccountRef name="Services">1</ItemAccountRef>
          <TaxCodeRef>TAX</TaxCodeRef>
          <TaxClassificationRef>EUC-99990202-V1-00020000</TaxClassificationRef>
        </SalesItemLineDetail>
      </Line>
      <Line>
        <Id>4</Id>
        <LineNum>4</LineNum>
        <Description>C70191120000063846154-449</Description>
        <Amount>6.95</Amount>
        <DetailType>SalesItemLineDetail</DetailType>
        <SalesItemLineDetail>
          <ItemRef name="MAILING:Manual">19</ItemRef>
          <UnitPrice>6.95</UnitPrice>
          <Qty>1</Qty>
          <ItemAccountRef name="Services">1</ItemAccountRef>
          <TaxCodeRef>TAX</TaxCodeRef>
          <TaxClassificationRef>EUC-99990202-V1-00020000</TaxClassificationRef>
        </SalesItemLineDetail>
      </Line>
      <Line>
        <Amount>51.32</Amount>
        <DetailType>SubTotalLineDetail</DetailType>
        <SubTotalLineDetail/>
      </Line>
      <TxnTaxDetail>
        <TxnTaxCodeRef>3</TxnTaxCodeRef>
        <TotalTax>0</TotalTax>
        <TaxLine>
          <Amount>0</Amount>
          <DetailType>TaxLineDetail</DetailType>
          <TaxLineDetail>
            <TaxRateRef>3</TaxRateRef>
            <PercentBased>true</PercentBased>
            <TaxPercent>6</TaxPercent>
            <NetAmountTaxable>0</NetAmountTaxable>
          </TaxLineDetail>
        </TaxLine>
        <TaxLine>
          <Amount>0</Amount>
          <DetailType>TaxLineDetail</DetailType>
          <TaxLineDetail>
            <TaxRateRef>4</TaxRateRef>
            <PercentBased>true</PercentBased>
            <TaxPercent>1</TaxPercent>
            <NetAmountTaxable>0</NetAmountTaxable>
          </TaxLineDetail>
        </TaxLine>
      </TxnTaxDetail>
      <CustomerRef name="STEVE F BERGER">36</CustomerRef>
      <BillAddr>
        <Id>37</Id>
        <Line1>8131 NW 91 ST</Line1>
        <City>MIAMI</City>
        <CountrySubDivisionCode>FLORIDA</CountrySubDivisionCode>
        <PostalCode>33166</PostalCode>
      </BillAddr>
      <ShipAddr>
        <Id>37</Id>
        <Line1>8131 NW 91 ST</Line1>
        <City>MIAMI</City>
        <CountrySubDivisionCode>FLORIDA</CountrySubDivisionCode>
        <PostalCode>33166</PostalCode>
      </ShipAddr>
      <FreeFormAddress>true</FreeFormAddress>
      <ShipFromAddr>
        <Id>986</Id>
        <Line1>PO Box 22821</Line1>
        <Line2>Hialeah, FL  33002 US</Line2>
      </ShipFromAddr>
      <SalesTermRef name="Net 15">2</SalesTermRef>
      <DueDate>2022-04-27</DueDate>
      <TotalAmt>51.32</TotalAmt>
      <ApplyTaxAfterDiscount>false</ApplyTaxAfterDiscount>
      <PrintStatus>NeedToPrint</PrintStatus>
      <EmailStatus>NotSet</EmailStatus>
      <Balance>51.32</Balance>
      <TaxExemptionRef name="service">99</TaxExemptionRef>
      <AllowIPNPayment>false</AllowIPNPayment>
      <AllowOnlinePayment>false</AllowOnlinePayment>
      <AllowOnlineCreditCardPayment>false</AllowOnlineCreditCardPayment>
      <AllowOnlineACHPayment>false</AllowOnlineACHPayment>
    </Invoice>
  </QueryResponse>
</IntuitResponse>


