RESPONSE URI FOR SEQUENCE ID 07862
==================================
https://quickbooks.api.intuit.com/v3/company/193514782950659/query?minorversion=47

RESPONSE HEADERS
================
date: Tue, 12 Apr 2022 18:23:12 GMT
content-type: application/xml;charset=UTF-8
content-length: 4747
intuit_tid: 1-6255c390-5129bb84187de33f71f8dc62
x-spanid: 53e6a11d-56f2-48ec-ad06-5df129dc05d0
x-amzn-trace-id: Root=1-6255c390-5129bb84187de33f71f8dc62
x-content-type-options: nosniff
x-xss-protection: 1; mode=block
qbo-version: 1978.185
service-time: total=143, db=47
expires: 0
cache-control: max-age=0, no-cache, no-store, must-revalidate, private
x-envoy-upstream-service-time: 180
strict-transport-security: max-age=31536000
server: envoy

RESPONSE BODY
=============
<?xml version="1.0" encoding="UTF-8" standalone="yes"?>
<IntuitResponse xmlns="http://schema.intuit.com/finance/v3" time="2022-04-12T11:23:12.302-07:00">
  <QueryResponse startPosition="1" maxResults="1" totalCount="1">
    <Invoice domain="QBO" sparse="false">
      <Id>1231</Id>
      <SyncToken>0</SyncToken>
      <MetaData>
        <CreateTime>2022-04-12T10:02:01-07:00</CreateTime>
        <LastUpdatedTime>2022-04-12T10:02:01-07:00</LastUpdatedTime>
      </MetaData>
      <CustomField>
        <DefinitionId>2</DefinitionId>
        <Type>StringType</Type>
        <StringValue>Notice to Owner/Preliminary No</StringValue>
      </CustomField>
      <CustomField>
        <DefinitionId>3</DefinitionId>
        <Type>StringType</Type>
        <StringValue>870 San Pedro Ave, Coral Gable</StringValue>
      </CustomField>
      <DocNumber>479_1649782920</DocNumber>
      <TxnDate>2022-04-12</TxnDate>
      <CurrencyRef name="United States Dollar">USD</CurrencyRef>
      <Line>
        <Id>1</Id>
        <LineNum>1</LineNum>
        <Description>Contracted By - DEERE CONSTRUCTION OF FLORIDA LLC</Description>
        <Amount>40.00</Amount>
        <DetailType>SalesItemLineDetail</DetailType>
        <SalesItemLineDetail>
          <ItemRef name="SERVICES:NTO">32</ItemRef>
          <UnitPrice>40</UnitPrice>
          <Qty>1</Qty>
          <ItemAccountRef name="Services">1</ItemAccountRef>
          <TaxCodeRef>TAX</TaxCodeRef>
          <TaxClassificationRef>EUC-99990202-V1-00020000</TaxClassificationRef>
        </SalesItemLineDetail>
      </Line>
      <Line>
        <Id>2</Id>
        <LineNum>2</LineNum>
        <Description>Rush Fee</Description>
        <Amount>12.50</Amount>
        <DetailType>SalesItemLineDetail</DetailType>
        <SalesItemLineDetail>
          <ItemRef name="SERVICES:Rush fee">33</ItemRef>
          <UnitPrice>12.5</UnitPrice>
          <Qty>1</Qty>
          <ItemAccountRef name="Services">1</ItemAccountRef>
          <TaxCodeRef>TAX</TaxCodeRef>
          <TaxClassificationRef>EUC-99990202-V1-00020000</TaxClassificationRef>
        </SalesItemLineDetail>
      </Line>
      <Line>
        <Id>3</Id>
        <LineNum>3</LineNum>
        <Description>Firm Mail</Description>
        <Amount>3.95</Amount>
        <DetailType>SalesItemLineDetail</DetailType>
        <SalesItemLineDetail>
          <ItemRef name="MAILING:Firm Mail">18</ItemRef>
          <UnitPrice>3.95</UnitPrice>
          <Qty>1</Qty>
          <ItemAccountRef name="Services">1</ItemAccountRef>
          <TaxCodeRef>TAX</TaxCodeRef>
          <TaxClassificationRef>EUC-99990202-V1-00020000</TaxClassificationRef>
        </SalesItemLineDetail>
      </Line>
      <Line>
        <Id>4</Id>
        <LineNum>4</LineNum>
        <Description>Certified Mail</Description>
        <Amount>10.84</Amount>
        <DetailType>SalesItemLineDetail</DetailType>
        <SalesItemLineDetail>
          <ItemRef name="MAILING:Certified Mail USPS">17</ItemRef>
          <UnitPrice>5.42</UnitPrice>
          <Qty>2</Qty>
          <ItemAccountRef name="Services">1</ItemAccountRef>
          <TaxCodeRef>TAX</TaxCodeRef>
          <TaxClassificationRef>EUC-99990202-V1-00020000</TaxClassificationRef>
        </SalesItemLineDetail>
      </Line>
      <Line>
        <Id>5</Id>
        <LineNum>5</LineNum>
        <Description>Certified Mail with Electronic Return Receipt</Description>
        <Amount>7.22</Amount>
        <DetailType>SalesItemLineDetail</DetailType>
        <SalesItemLineDetail>
          <ItemRef name="MAILING:Certified Mail ESRR">15</ItemRef>
          <UnitPrice>7.22</UnitPrice>
          <Qty>1</Qty>
          <ItemAccountRef name="Services">1</ItemAccountRef>
          <TaxCodeRef>TAX</TaxCodeRef>
          <TaxClassificationRef>EUC-99990202-V1-00020000</TaxClassificationRef>
        </SalesItemLineDetail>
      </Line>
      <Line>
        <Amount>74.51</Amount>
        <DetailType>SubTotalLineDetail</DetailType>
        <SubTotalLineDetail/>
      </Line>
      <TxnTaxDetail>
        <TxnTaxCodeRef>3</TxnTaxCodeRef>
        <TotalTax>0</TotalTax>
        <TaxLine>
          <Amount>0</Amount>
          <DetailType>TaxLineDetail</DetailType>
          <TaxLineDetail>
            <TaxRateRef>3</TaxRateRef>
            <PercentBased>true</PercentBased>
            <TaxPercent>6</TaxPercent>
            <NetAmountTaxable>0</NetAmountTaxable>
          </TaxLineDetail>
        </TaxLine>
        <TaxLine>
          <Amount>0</Amount>
          <DetailType>TaxLineDetail</DetailType>
          <TaxLineDetail>
            <TaxRateRef>4</TaxRateRef>
            <PercentBased>true</PercentBased>
            <TaxPercent>1</TaxPercent>
            <NetAmountTaxable>0</NetAmountTaxable>
          </TaxLineDetail>
        </TaxLine>
      </TxnTaxDetail>
      <CustomerRef name="DAFRAN CONSTRUCTIONS CORP_1641675651">231</CustomerRef>
      <BillAddr>
        <Id>438</Id>
        <Line1>11921 WALSH BLVD</Line1>
        <City>Miami</City>
        <CountrySubDivisionCode>Florida</CountrySubDivisionCode>
        <PostalCode>33184</PostalCode>
      </BillAddr>
      <ShipAddr>
        <Id>439</Id>
        <Line1>11921 WALSH BLVD</Line1>
        <City>Miami</City>
        <CountrySubDivisionCode>Florida</CountrySubDivisionCode>
        <PostalCode>33184</PostalCode>
      </ShipAddr>
      <FreeFormAddress>true</FreeFormAddress>
      <ShipFromAddr>
        <Id>983</Id>
        <Line1>PO Box 22821</Line1>
        <Line2>Hialeah, FL  33002 US</Line2>
      </ShipFromAddr>
      <SalesTermRef name="Net 15">2</SalesTermRef>
      <DueDate>2022-04-27</DueDate>
      <TotalAmt>74.51</TotalAmt>
      <ApplyTaxAfterDiscount>false</ApplyTaxAfterDiscount>
      <PrintStatus>NeedToPrint</PrintStatus>
      <EmailStatus>NotSet</EmailStatus>
      <Balance>74.51</Balance>
      <TaxExemptionRef name="SERVICE">99</TaxExemptionRef>
      <AllowIPNPayment>false</AllowIPNPayment>
      <AllowOnlinePayment>false</AllowOnlinePayment>
      <AllowOnlineCreditCardPayment>false</AllowOnlineCreditCardPayment>
      <AllowOnlineACHPayment>false</AllowOnlineACHPayment>
    </Invoice>
  </QueryResponse>
</IntuitResponse>


