RESPONSE URI FOR SEQUENCE ID 08308
==================================
https://quickbooks.api.intuit.com/v3/company/193514782950659/invoice?minorversion=47

RESPONSE HEADERS
================
date: Tue, 19 Apr 2022 14:04:06 GMT
content-type: application/xml
content-length: 509
intuit_tid: 1-625ec156-22734a9d6a5e50740b187ebe
x-spanid: 3779b45b-b3a2-48ff-9b64-b4b197115367
x-amzn-trace-id: Root=1-625ec156-22734a9d6a5e50740b187ebe
x-content-type-options: nosniff
x-envoy-upstream-service-time: 396
strict-transport-security: max-age=31536000
server: envoy

RESPONSE BODY
=============
<?xml version="1.0" encoding="UTF-8" standalone="yes"?>
<IntuitResponse xmlns="http://schema.intuit.com/finance/v3" time="2022-04-19T07:04:06.236-07:00">
  <Fault type="ValidationFault">
    <Error code="6000" element="">
      <Message>A business validation error has occurred while processing your request</Message>
      <Detail>Business Validation Error: You cannot enter more than 31 characters in the sales_custom_1_val field. You tried entering NTO 342- c..., which is 46 characters.</Detail>
    </Error>
  </Fault>
</IntuitResponse>


