RESPONSE URI FOR SEQUENCE ID 09189
==================================
https://quickbooks.api.intuit.com/v3/company/193514782950659/invoice?minorversion=47

RESPONSE HEADERS
================
date: Thu, 12 May 2022 16:37:03 GMT
content-type: application/xml
content-length: 509
intuit_tid: 1-627d37ae-724d88582466fd6f6bb0e656
x-spanid: 1ccae143-e911-4505-808e-2c1db2201294
x-amzn-trace-id: Root=1-627d37ae-724d88582466fd6f6bb0e656
x-content-type-options: nosniff
x-envoy-upstream-service-time: 580
strict-transport-security: max-age=31536000
server: envoy

RESPONSE BODY
=============
<?xml version="1.0" encoding="UTF-8" standalone="yes"?>
<IntuitResponse xmlns="http://schema.intuit.com/finance/v3" time="2022-05-12T09:37:02.850-07:00">
  <Fault type="ValidationFault">
    <Error code="6000" element="">
      <Message>A business validation error has occurred while processing your request</Message>
      <Detail>Business Validation Error: You cannot enter more than 31 characters in the sales_custom_1_val field. You tried entering NTO 342- c..., which is 46 characters.</Detail>
    </Error>
  </Fault>
</IntuitResponse>


