RESPONSE URI FOR SEQUENCE ID 09281
==================================
https://quickbooks.api.intuit.com/v3/company/193514782950659/invoice?minorversion=47

RESPONSE HEADERS
================
date: Wed, 18 May 2022 15:57:06 GMT
content-type: application/xml
content-length: 509
intuit_tid: 1-62851751-477c28cd33022ee26dd38609
x-spanid: db230932-9400-4755-b03f-e9c2798c2c23
x-amzn-trace-id: Root=1-62851751-477c28cd33022ee26dd38609
x-content-type-options: nosniff
x-envoy-upstream-service-time: 522
strict-transport-security: max-age=31536000
server: envoy

RESPONSE BODY
=============
<?xml version="1.0" encoding="UTF-8" standalone="yes"?>
<IntuitResponse xmlns="http://schema.intuit.com/finance/v3" time="2022-05-18T08:57:05.768-07:00">
  <Fault type="ValidationFault">
    <Error code="6000" element="">
      <Message>A business validation error has occurred while processing your request</Message>
      <Detail>Business Validation Error: You cannot enter more than 31 characters in the sales_custom_1_val field. You tried entering CICC 7040-..., which is 40 characters.</Detail>
    </Error>
  </Fault>
</IntuitResponse>


