RESPONSE URI FOR SEQUENCE ID 09325
==================================
https://quickbooks.api.intuit.com/v3/company/193514782950659/invoice?minorversion=47

RESPONSE HEADERS
================
date: Wed, 18 May 2022 16:58:48 GMT
content-type: application/xml
content-length: 509
intuit_tid: 1-628525c8-61908dfe56112e7657e1fd87
x-spanid: 9f2f11b8-d585-4afc-8e13-8c280cd9b80b
x-amzn-trace-id: Root=1-628525c8-61908dfe56112e7657e1fd87
x-content-type-options: nosniff
x-envoy-upstream-service-time: 381
strict-transport-security: max-age=31536000
server: envoy

RESPONSE BODY
=============
<?xml version="1.0" encoding="UTF-8" standalone="yes"?>
<IntuitResponse xmlns="http://schema.intuit.com/finance/v3" time="2022-05-18T09:58:48.454-07:00">
  <Fault type="ValidationFault">
    <Error code="6000" element="">
      <Message>A business validation error has occurred while processing your request</Message>
      <Detail>Business Validation Error: You cannot enter more than 31 characters in the sales_custom_1_val field. You tried entering NTO 342- c..., which is 46 characters.</Detail>
    </Error>
  </Fault>
</IntuitResponse>


