RESPONSE URI FOR SEQUENCE ID 09357
==================================
https://quickbooks.api.intuit.com/v3/company/193514782950659/invoice?minorversion=47

RESPONSE HEADERS
================
date: Wed, 18 May 2022 17:01:32 GMT
content-type: application/xml;charset=UTF-8
content-length: 3515
intuit_tid: 1-6285266c-2aec411f0ed9a9f85de14041
x-spanid: c15b9bc0-3c70-454a-bd04-75ab2ffe1182
x-amzn-trace-id: Root=1-6285266c-2aec411f0ed9a9f85de14041
x-content-type-options: nosniff
x-xss-protection: 1; mode=block
qbo-version: 1980.242
service-time: total=533, db=291
expires: 0
cache-control: max-age=0, no-cache, no-store, must-revalidate, private
x-envoy-upstream-service-time: 556
strict-transport-security: max-age=31536000
server: envoy

RESPONSE BODY
=============
<?xml version="1.0" encoding="UTF-8" standalone="yes"?>
<IntuitResponse xmlns="http://schema.intuit.com/finance/v3" time="2022-05-18T10:01:32.061-07:00">
  <Invoice domain="QBO" sparse="false">
    <Id>1609</Id>
    <SyncToken>0</SyncToken>
    <MetaData>
      <CreateTime>2022-05-18T10:01:32-07:00</CreateTime>
      <LastUpdatedTime>2022-05-18T10:01:32-07:00</LastUpdatedTime>
    </MetaData>
    <CustomField>
      <DefinitionId>1</DefinitionId>
      <Name>sales1</Name>
      <Type>StringType</Type>
      <StringValue>PO#1245</StringValue>
    </CustomField>
    <CustomField>
      <DefinitionId>2</DefinitionId>
      <Name>sales2</Name>
      <Type>StringType</Type>
      <StringValue>Notice to Owner/Preliminary No</StringValue>
    </CustomField>
    <CustomField>
      <DefinitionId>3</DefinitionId>
      <Name>sales3</Name>
      <Type>StringType</Type>
      <StringValue>771 NW 24TH COURT MIAMI FLORID</StringValue>
    </CustomField>
    <DocNumber>59_1652893291</DocNumber>
    <TxnDate>2022-05-18</TxnDate>
    <CurrencyRef name="United States Dollar">USD</CurrencyRef>
    <Line>
      <Id>1</Id>
      <LineNum>1</LineNum>
      <Description>Contracted By - GOMEZ CONSTRUCTION COMPANY</Description>
      <Amount>25.00</Amount>
      <DetailType>SalesItemLineDetail</DetailType>
      <SalesItemLineDetail>
        <ItemRef name="SERVICES:NTO">32</ItemRef>
        <UnitPrice>25</UnitPrice>
        <Qty>1</Qty>
        <ItemAccountRef name="Services">1</ItemAccountRef>
        <TaxCodeRef>NON</TaxCodeRef>
        <TaxClassificationRef>EUC-99990201-V1-00020000</TaxClassificationRef>
      </SalesItemLineDetail>
    </Line>
    <Line>
      <Id>2</Id>
      <LineNum>2</LineNum>
      <Description>Additional address charges</Description>
      <Amount>110.00</Amount>
      <DetailType>SalesItemLineDetail</DetailType>
      <SalesItemLineDetail>
        <ItemRef name="SERVICES:NTO- Additional Address">34</ItemRef>
        <UnitPrice>10</UnitPrice>
        <Qty>11</Qty>
        <ItemAccountRef name="Services">1</ItemAccountRef>
        <TaxCodeRef>TAX</TaxCodeRef>
        <TaxClassificationRef>EUC-99990202-V1-00020000</TaxClassificationRef>
      </SalesItemLineDetail>
    </Line>
    <Line>
      <Amount>135.00</Amount>
      <DetailType>SubTotalLineDetail</DetailType>
      <SubTotalLineDetail/>
    </Line>
    <TxnTaxDetail>
      <TxnTaxCodeRef>3</TxnTaxCodeRef>
      <TotalTax>7.70</TotalTax>
      <TaxLine>
        <Amount>6.60</Amount>
        <DetailType>TaxLineDetail</DetailType>
        <TaxLineDetail>
          <TaxRateRef>3</TaxRateRef>
          <PercentBased>true</PercentBased>
          <TaxPercent>6</TaxPercent>
          <NetAmountTaxable>110.00</NetAmountTaxable>
        </TaxLineDetail>
      </TaxLine>
      <TaxLine>
        <Amount>1.10</Amount>
        <DetailType>TaxLineDetail</DetailType>
        <TaxLineDetail>
          <TaxRateRef>4</TaxRateRef>
          <PercentBased>true</PercentBased>
          <TaxPercent>1</TaxPercent>
          <NetAmountTaxable>110.00</NetAmountTaxable>
        </TaxLineDetail>
      </TaxLine>
    </TxnTaxDetail>
    <CustomerRef name="AAA Construction Corp._1615909222">213</CustomerRef>
    <BillAddr>
      <Id>1117</Id>
      <Line1>301 Hialeah Drive ste 118</Line1>
      <CountrySubDivisionCode>Florida</CountrySubDivisionCode>
      <PostalCode>33010</PostalCode>
    </BillAddr>
    <ShipAddr>
      <Id>1117</Id>
      <Line1>301 Hialeah Drive ste 118</Line1>
      <CountrySubDivisionCode>Florida</CountrySubDivisionCode>
      <PostalCode>33010</PostalCode>
    </ShipAddr>
    <FreeFormAddress>true</FreeFormAddress>
    <ShipFromAddr>
      <Id>1160</Id>
      <Line1>PO Box 22821</Line1>
      <Line2>Hialeah, FL  33002 US</Line2>
    </ShipFromAddr>
    <SalesTermRef name="Net 15">2</SalesTermRef>
    <DueDate>2022-06-02</DueDate>
    <TotalAmt>142.70</TotalAmt>
    <ApplyTaxAfterDiscount>false</ApplyTaxAfterDiscount>
    <PrintStatus>NeedToPrint</PrintStatus>
    <EmailStatus>NotSet</EmailStatus>
    <Balance>142.70</Balance>
    <TaxExemptionRef/>
    <AllowIPNPayment>false</AllowIPNPayment>
    <AllowOnlinePayment>false</AllowOnlinePayment>
    <AllowOnlineCreditCardPayment>false</AllowOnlineCreditCardPayment>
    <AllowOnlineACHPayment>false</AllowOnlineACHPayment>
  </Invoice>
</IntuitResponse>


