RESPONSE URI FOR SEQUENCE ID 09527
==================================
https://quickbooks.api.intuit.com/v3/company/193514782950659/query?minorversion=47

RESPONSE HEADERS
================
date: Fri, 20 May 2022 14:49:43 GMT
content-type: application/xml;charset=UTF-8
content-length: 4826
intuit_tid: 1-6287aa87-511f7c4672c4f81a75dd6d42
x-spanid: 68ddde08-5ecd-4973-9c18-85ed5d3f1aac
x-amzn-trace-id: Root=1-6287aa87-511f7c4672c4f81a75dd6d42
x-content-type-options: nosniff
x-xss-protection: 1; mode=block
qbo-version: 1980.242
service-time: total=145, db=39
expires: 0
cache-control: max-age=0, no-cache, no-store, must-revalidate, private
x-envoy-upstream-service-time: 167
strict-transport-security: max-age=31536000
server: envoy

RESPONSE BODY
=============
<?xml version="1.0" encoding="UTF-8" standalone="yes"?>
<IntuitResponse xmlns="http://schema.intuit.com/finance/v3" time="2022-05-20T07:49:43.603-07:00">
  <QueryResponse startPosition="1" maxResults="1" totalCount="1">
    <Invoice domain="QBO" sparse="false">
      <Id>1620</Id>
      <SyncToken>0</SyncToken>
      <MetaData>
        <CreateTime>2022-05-20T07:46:41-07:00</CreateTime>
        <LastUpdatedTime>2022-05-20T07:46:41-07:00</LastUpdatedTime>
      </MetaData>
      <CustomField>
        <DefinitionId>2</DefinitionId>
        <Name>sales2</Name>
        <Type>StringType</Type>
        <StringValue>Notice to Owner/Preliminary No</StringValue>
      </CustomField>
      <CustomField>
        <DefinitionId>3</DefinitionId>
        <Name>sales3</Name>
        <Type>StringType</Type>
        <StringValue>8319 W SUNRISE BLVD PLANTATION</StringValue>
      </CustomField>
      <DocNumber>592_1653058001</DocNumber>
      <TxnDate>2022-05-20</TxnDate>
      <CurrencyRef name="United States Dollar">USD</CurrencyRef>
      <Line>
        <Id>1</Id>
        <LineNum>1</LineNum>
        <Description>Contracted By - GETTLE &amp; ASSOCIATES GENERAL CONTRACTORS, INC</Description>
        <Amount>45.00</Amount>
        <DetailType>SalesItemLineDetail</DetailType>
        <SalesItemLineDetail>
          <ItemRef name="SERVICES:NTO">32</ItemRef>
          <UnitPrice>45</UnitPrice>
          <Qty>1</Qty>
          <ItemAccountRef name="Services">1</ItemAccountRef>
          <TaxCodeRef>NON</TaxCodeRef>
          <TaxClassificationRef>EUC-99990201-V1-00020000</TaxClassificationRef>
        </SalesItemLineDetail>
      </Line>
      <Line>
        <Id>2</Id>
        <LineNum>2</LineNum>
        <Description>Firm Mail</Description>
        <Amount>3.95</Amount>
        <DetailType>SalesItemLineDetail</DetailType>
        <SalesItemLineDetail>
          <ItemRef name="MAILING:Firm Mail">18</ItemRef>
          <UnitPrice>3.95</UnitPrice>
          <Qty>1</Qty>
          <ItemAccountRef name="Services">1</ItemAccountRef>
          <TaxCodeRef>TAX</TaxCodeRef>
          <TaxClassificationRef>EUC-99990202-V1-00020000</TaxClassificationRef>
        </SalesItemLineDetail>
      </Line>
      <Line>
        <Id>3</Id>
        <LineNum>3</LineNum>
        <Description>Certified Mail</Description>
        <Amount>5.42</Amount>
        <DetailType>SalesItemLineDetail</DetailType>
        <SalesItemLineDetail>
          <ItemRef name="MAILING:Certified Mail USPS">17</ItemRef>
          <UnitPrice>5.42</UnitPrice>
          <Qty>1</Qty>
          <ItemAccountRef name="Services">1</ItemAccountRef>
          <TaxCodeRef>TAX</TaxCodeRef>
          <TaxClassificationRef>EUC-99990202-V1-00020000</TaxClassificationRef>
        </SalesItemLineDetail>
      </Line>
      <Line>
        <Id>4</Id>
        <LineNum>4</LineNum>
        <Description>Certified Mail with Electronic Return Receipt</Description>
        <Amount>7.22</Amount>
        <DetailType>SalesItemLineDetail</DetailType>
        <SalesItemLineDetail>
          <ItemRef name="MAILING:Certified Mail ESRR">15</ItemRef>
          <UnitPrice>7.22</UnitPrice>
          <Qty>1</Qty>
          <ItemAccountRef name="Services">1</ItemAccountRef>
          <TaxCodeRef>TAX</TaxCodeRef>
          <TaxClassificationRef>EUC-99990202-V1-00020000</TaxClassificationRef>
        </SalesItemLineDetail>
      </Line>
      <Line>
        <Id>5</Id>
        <LineNum>5</LineNum>
        <Description>CES70191120000063846666-592</Description>
        <Amount>6.95</Amount>
        <DetailType>SalesItemLineDetail</DetailType>
        <SalesItemLineDetail>
          <ItemRef name="MAILING:Manual">19</ItemRef>
          <UnitPrice>6.95</UnitPrice>
          <Qty>1</Qty>
          <ItemAccountRef name="Services">1</ItemAccountRef>
          <TaxCodeRef>TAX</TaxCodeRef>
          <TaxClassificationRef>EUC-99990202-V1-00020000</TaxClassificationRef>
        </SalesItemLineDetail>
      </Line>
      <Line>
        <Amount>68.54</Amount>
        <DetailType>SubTotalLineDetail</DetailType>
        <SubTotalLineDetail/>
      </Line>
      <TxnTaxDetail>
        <TxnTaxCodeRef>3</TxnTaxCodeRef>
        <TotalTax>1.65</TotalTax>
        <TaxLine>
          <Amount>1.42</Amount>
          <DetailType>TaxLineDetail</DetailType>
          <TaxLineDetail>
            <TaxRateRef>3</TaxRateRef>
            <PercentBased>true</PercentBased>
            <TaxPercent>6</TaxPercent>
            <NetAmountTaxable>23.54</NetAmountTaxable>
          </TaxLineDetail>
        </TaxLine>
        <TaxLine>
          <Amount>0.23</Amount>
          <DetailType>TaxLineDetail</DetailType>
          <TaxLineDetail>
            <TaxRateRef>4</TaxRateRef>
            <PercentBased>true</PercentBased>
            <TaxPercent>1</TaxPercent>
            <NetAmountTaxable>23.54</NetAmountTaxable>
          </TaxLineDetail>
        </TaxLine>
      </TxnTaxDetail>
      <CustomerRef name="CONTIERRA ENGINEERING CONTRACTORS LLC_1650035980">281</CustomerRef>
      <BillAddr>
        <Id>1016</Id>
        <Line1>7700 SW 109 STREET</Line1>
        <City>PINECREAST</City>
        <CountrySubDivisionCode>Florida</CountrySubDivisionCode>
        <PostalCode>33156</PostalCode>
      </BillAddr>
      <ShipAddr>
        <Id>1017</Id>
        <Line1>7700 SW 109 STREET</Line1>
        <City>PINECREAST</City>
        <CountrySubDivisionCode>Florida</CountrySubDivisionCode>
        <PostalCode>33156</PostalCode>
      </ShipAddr>
      <FreeFormAddress>true</FreeFormAddress>
      <ShipFromAddr>
        <Id>1171</Id>
        <Line1>PO Box 22821</Line1>
        <Line2>Hialeah, FL  33002 US</Line2>
      </ShipFromAddr>
      <SalesTermRef name="Net 15">2</SalesTermRef>
      <DueDate>2022-06-04</DueDate>
      <TotalAmt>70.19</TotalAmt>
      <ApplyTaxAfterDiscount>false</ApplyTaxAfterDiscount>
      <PrintStatus>NeedToPrint</PrintStatus>
      <EmailStatus>NotSet</EmailStatus>
      <Balance>70.19</Balance>
      <TaxExemptionRef/>
      <AllowIPNPayment>false</AllowIPNPayment>
      <AllowOnlinePayment>false</AllowOnlinePayment>
      <AllowOnlineCreditCardPayment>false</AllowOnlineCreditCardPayment>
      <AllowOnlineACHPayment>false</AllowOnlineACHPayment>
    </Invoice>
  </QueryResponse>
</IntuitResponse>


