RESPONSE URI FOR SEQUENCE ID 09655
==================================
https://quickbooks.api.intuit.com/v3/company/193514782950659/invoice?minorversion=47

RESPONSE HEADERS
================
date: Fri, 27 May 2022 13:36:34 GMT
content-type: application/xml;charset=UTF-8
content-length: 4246
intuit_tid: 1-6290d3e1-592c5d3e221d48d20b039af3
x-spanid: 60128f49-b053-42a1-a6ce-83d95b04f713
x-amzn-trace-id: Root=1-6290d3e1-592c5d3e221d48d20b039af3
x-content-type-options: nosniff
x-xss-protection: 1; mode=block
qbo-version: 1981.138
service-time: total=616, db=362
expires: 0
cache-control: max-age=0, no-cache, no-store, must-revalidate, private
x-envoy-upstream-service-time: 643
strict-transport-security: max-age=31536000
server: envoy

RESPONSE BODY
=============
<?xml version="1.0" encoding="UTF-8" standalone="yes"?>
<IntuitResponse xmlns="http://schema.intuit.com/finance/v3" time="2022-05-27T06:36:33.814-07:00">
  <Invoice domain="QBO" sparse="false">
    <Id>1644</Id>
    <SyncToken>0</SyncToken>
    <MetaData>
      <CreateTime>2022-05-27T06:36:34-07:00</CreateTime>
      <LastUpdatedTime>2022-05-27T06:36:34-07:00</LastUpdatedTime>
    </MetaData>
    <CustomField>
      <DefinitionId>2</DefinitionId>
      <Name>sales2</Name>
      <Type>StringType</Type>
      <StringValue>Notice to Owner/Preliminary No</StringValue>
    </CustomField>
    <CustomField>
      <DefinitionId>3</DefinitionId>
      <Name>sales3</Name>
      <Type>StringType</Type>
      <StringValue>3401 HALISSEE ST MIAMI FL 3313</StringValue>
    </CustomField>
    <DocNumber>624_1653658593</DocNumber>
    <TxnDate>2022-05-27</TxnDate>
    <CurrencyRef name="United States Dollar">USD</CurrencyRef>
    <Line>
      <Id>1</Id>
      <LineNum>1</LineNum>
      <Description>Contracted By - REYES QUALITY SERVICES</Description>
      <Amount>20.00</Amount>
      <DetailType>SalesItemLineDetail</DetailType>
      <SalesItemLineDetail>
        <ItemRef name="SERVICES:NTO">32</ItemRef>
        <UnitPrice>20</UnitPrice>
        <Qty>1</Qty>
        <ItemAccountRef name="Services">1</ItemAccountRef>
        <TaxCodeRef>NON</TaxCodeRef>
        <TaxClassificationRef>EUC-99990201-V1-00020000</TaxClassificationRef>
      </SalesItemLineDetail>
    </Line>
    <Line>
      <Id>2</Id>
      <LineNum>2</LineNum>
      <Description>Rush Fee</Description>
      <Amount>8.50</Amount>
      <DetailType>SalesItemLineDetail</DetailType>
      <SalesItemLineDetail>
        <ItemRef name="SERVICES:Rush fee">33</ItemRef>
        <UnitPrice>8.5</UnitPrice>
        <Qty>1</Qty>
        <ItemAccountRef name="Services">1</ItemAccountRef>
        <TaxCodeRef>TAX</TaxCodeRef>
        <TaxClassificationRef>EUC-99990202-V1-00020000</TaxClassificationRef>
      </SalesItemLineDetail>
    </Line>
    <Line>
      <Id>3</Id>
      <LineNum>3</LineNum>
      <Description>Firm Mail</Description>
      <Amount>3.95</Amount>
      <DetailType>SalesItemLineDetail</DetailType>
      <SalesItemLineDetail>
        <ItemRef name="MAILING:Firm Mail">18</ItemRef>
        <UnitPrice>3.95</UnitPrice>
        <Qty>1</Qty>
        <ItemAccountRef name="Services">1</ItemAccountRef>
        <TaxCodeRef>TAX</TaxCodeRef>
        <TaxClassificationRef>EUC-99990202-V1-00020000</TaxClassificationRef>
      </SalesItemLineDetail>
    </Line>
    <Line>
      <Id>4</Id>
      <LineNum>4</LineNum>
      <Description>Certified Mail with Electronic Return Receipt</Description>
      <Amount>7.22</Amount>
      <DetailType>SalesItemLineDetail</DetailType>
      <SalesItemLineDetail>
        <ItemRef name="MAILING:Certified Mail ESRR">15</ItemRef>
        <UnitPrice>7.22</UnitPrice>
        <Qty>1</Qty>
        <ItemAccountRef name="Services">1</ItemAccountRef>
        <TaxCodeRef>TAX</TaxCodeRef>
        <TaxClassificationRef>EUC-99990202-V1-00020000</TaxClassificationRef>
      </SalesItemLineDetail>
    </Line>
    <Line>
      <Amount>39.67</Amount>
      <DetailType>SubTotalLineDetail</DetailType>
      <SubTotalLineDetail/>
    </Line>
    <TxnTaxDetail>
      <TxnTaxCodeRef>3</TxnTaxCodeRef>
      <TotalTax>0</TotalTax>
      <TaxLine>
        <Amount>0</Amount>
        <DetailType>TaxLineDetail</DetailType>
        <TaxLineDetail>
          <TaxRateRef>3</TaxRateRef>
          <PercentBased>true</PercentBased>
          <TaxPercent>6</TaxPercent>
          <NetAmountTaxable>0</NetAmountTaxable>
        </TaxLineDetail>
      </TaxLine>
      <TaxLine>
        <Amount>0</Amount>
        <DetailType>TaxLineDetail</DetailType>
        <TaxLineDetail>
          <TaxRateRef>4</TaxRateRef>
          <PercentBased>true</PercentBased>
          <TaxPercent>1</TaxPercent>
          <NetAmountTaxable>0</NetAmountTaxable>
        </TaxLineDetail>
      </TaxLine>
    </TxnTaxDetail>
    <CustomerRef name="ERNESTO HERNANDEZ">195</CustomerRef>
    <BillAddr>
      <Id>1115</Id>
      <Line1>6945 NW 53 TERRACE</Line1>
      <City>MIAMI</City>
      <CountrySubDivisionCode>FLOIRDA</CountrySubDivisionCode>
      <PostalCode>33166</PostalCode>
    </BillAddr>
    <ShipAddr>
      <Id>1115</Id>
      <Line1>6945 NW 53 TERRACE</Line1>
      <City>MIAMI</City>
      <CountrySubDivisionCode>FLOIRDA</CountrySubDivisionCode>
      <PostalCode>33166</PostalCode>
    </ShipAddr>
    <FreeFormAddress>true</FreeFormAddress>
    <ShipFromAddr>
      <Id>1188</Id>
      <Line1>PO Box 22821</Line1>
      <Line2>Hialeah, FL  33002 US</Line2>
    </ShipFromAddr>
    <SalesTermRef name="Net 15">2</SalesTermRef>
    <DueDate>2022-06-11</DueDate>
    <TotalAmt>39.67</TotalAmt>
    <ApplyTaxAfterDiscount>false</ApplyTaxAfterDiscount>
    <PrintStatus>NeedToPrint</PrintStatus>
    <EmailStatus>NotSet</EmailStatus>
    <Balance>39.67</Balance>
    <TaxExemptionRef name="service">99</TaxExemptionRef>
    <AllowIPNPayment>false</AllowIPNPayment>
    <AllowOnlinePayment>false</AllowOnlinePayment>
    <AllowOnlineCreditCardPayment>false</AllowOnlineCreditCardPayment>
    <AllowOnlineACHPayment>false</AllowOnlineACHPayment>
  </Invoice>
</IntuitResponse>


