RESPONSE URI FOR SEQUENCE ID 09737
==================================
https://quickbooks.api.intuit.com/v3/company/193514782950659/invoice?minorversion=47

RESPONSE HEADERS
================
date: Fri, 27 May 2022 14:28:46 GMT
content-type: application/xml
content-length: 509
intuit_tid: 1-6290e01e-79d6d0e23d2cec06289bb5f7
x-spanid: e7dfc79c-c9c6-488e-b0b6-113e6fc9d726
x-amzn-trace-id: Root=1-6290e01e-79d6d0e23d2cec06289bb5f7
x-content-type-options: nosniff
x-envoy-upstream-service-time: 608
strict-transport-security: max-age=31536000
server: envoy

RESPONSE BODY
=============
<?xml version="1.0" encoding="UTF-8" standalone="yes"?>
<IntuitResponse xmlns="http://schema.intuit.com/finance/v3" time="2022-05-27T07:28:46.214-07:00">
  <Fault type="ValidationFault">
    <Error code="6000" element="">
      <Message>A business validation error has occurred while processing your request</Message>
      <Detail>Business Validation Error: You cannot enter more than 31 characters in the sales_custom_1_val field. You tried entering NTO 342- c..., which is 46 characters.</Detail>
    </Error>
  </Fault>
</IntuitResponse>


