RESPONSE URI FOR SEQUENCE ID 09798
==================================
https://quickbooks.api.intuit.com/v3/company/193514782950659/invoice?minorversion=47

RESPONSE HEADERS
================
date: Fri, 27 May 2022 14:30:56 GMT
content-type: application/xml
content-length: 509
intuit_tid: 1-6290e09f-670b13b81555c99d2f697272
x-spanid: 1c948935-4bc0-41a3-b8c5-86b7e995d803
x-amzn-trace-id: Root=1-6290e09f-670b13b81555c99d2f697272
x-content-type-options: nosniff
x-envoy-upstream-service-time: 660
strict-transport-security: max-age=31536000
server: envoy

RESPONSE BODY
=============
<?xml version="1.0" encoding="UTF-8" standalone="yes"?>
<IntuitResponse xmlns="http://schema.intuit.com/finance/v3" time="2022-05-27T07:30:56.049-07:00">
  <Fault type="ValidationFault">
    <Error code="6000" element="">
      <Message>A business validation error has occurred while processing your request</Message>
      <Detail>Business Validation Error: You cannot enter more than 31 characters in the sales_custom_1_val field. You tried entering NTO 342- c..., which is 46 characters.</Detail>
    </Error>
  </Fault>
</IntuitResponse>


