RESPONSE URI FOR SEQUENCE ID 11005
==================================
https://quickbooks.api.intuit.com/v3/company/193514782950659/invoice?minorversion=47

RESPONSE HEADERS
================
date: Tue, 05 Jul 2022 16:07:23 GMT
content-type: application/xml;charset=UTF-8
content-length: 2966
intuit_tid: 1-62c461bb-0c841e6e54c270b143a6182c
x-spanid: a793a849-c9ae-46e7-87e5-3c3657f33c36
x-amzn-trace-id: Root=1-62c461bb-0c841e6e54c270b143a6182c
x-content-type-options: nosniff
x-xss-protection: 1; mode=block
qbo-version: 1983.200
service-time: total=599, db=291
expires: 0
cache-control: max-age=0, no-cache, no-store, must-revalidate, private
x-envoy-upstream-service-time: 620
strict-transport-security: max-age=31536000
server: envoy

RESPONSE BODY
=============
<?xml version="1.0" encoding="UTF-8" standalone="yes"?>
<IntuitResponse xmlns="http://schema.intuit.com/finance/v3" time="2022-07-05T09:07:23.332-07:00">
  <Invoice domain="QBO" sparse="false">
    <Id>1913</Id>
    <SyncToken>0</SyncToken>
    <MetaData>
      <CreateTime>2022-07-05T09:07:23-07:00</CreateTime>
      <LastUpdatedTime>2022-07-05T09:07:23-07:00</LastUpdatedTime>
    </MetaData>
    <CustomField>
      <DefinitionId>2</DefinitionId>
      <Name>sales2</Name>
      <Type>StringType</Type>
      <StringValue>Notice to Owner/Preliminary No</StringValue>
    </CustomField>
    <CustomField>
      <DefinitionId>3</DefinitionId>
      <Name>sales3</Name>
      <Type>StringType</Type>
      <StringValue>4030 W 88TH ST</StringValue>
    </CustomField>
    <DocNumber>650_1657037243</DocNumber>
    <TxnDate>2022-07-05</TxnDate>
    <CurrencyRef name="United States Dollar">USD</CurrencyRef>
    <Line>
      <Id>1</Id>
      <LineNum>1</LineNum>
      <Description>Contracted By - GONZALEZ &amp; SONS EQIIPT.INC</Description>
      <Amount>45.00</Amount>
      <DetailType>SalesItemLineDetail</DetailType>
      <SalesItemLineDetail>
        <ItemRef name="SERVICES:NTO">32</ItemRef>
        <UnitPrice>45</UnitPrice>
        <Qty>1</Qty>
        <ItemAccountRef name="Services">1</ItemAccountRef>
        <TaxCodeRef>NON</TaxCodeRef>
        <TaxClassificationRef>EUC-99990201-V1-00020000</TaxClassificationRef>
      </SalesItemLineDetail>
    </Line>
    <Line>
      <Amount>45.00</Amount>
      <DetailType>SubTotalLineDetail</DetailType>
      <SubTotalLineDetail/>
    </Line>
    <TxnTaxDetail>
      <TxnTaxCodeRef>3</TxnTaxCodeRef>
      <TotalTax>0</TotalTax>
      <TaxLine>
        <Amount>0</Amount>
        <DetailType>TaxLineDetail</DetailType>
        <TaxLineDetail>
          <TaxRateRef>3</TaxRateRef>
          <PercentBased>true</PercentBased>
          <TaxPercent>6</TaxPercent>
          <NetAmountTaxable>0</NetAmountTaxable>
        </TaxLineDetail>
      </TaxLine>
      <TaxLine>
        <Amount>0</Amount>
        <DetailType>TaxLineDetail</DetailType>
        <TaxLineDetail>
          <TaxRateRef>4</TaxRateRef>
          <PercentBased>true</PercentBased>
          <TaxPercent>1</TaxPercent>
          <NetAmountTaxable>0</NetAmountTaxable>
        </TaxLineDetail>
      </TaxLine>
    </TxnTaxDetail>
    <CustomerRef name="KGV PLUMBING SUPPLY CORPORATION_1644580451">257</CustomerRef>
    <BillAddr>
      <Id>590</Id>
      <Line1>7303 NW 79TH TERRACE</Line1>
      <City>Medley</City>
      <CountrySubDivisionCode>Florida</CountrySubDivisionCode>
      <PostalCode>33166</PostalCode>
    </BillAddr>
    <ShipAddr>
      <Id>591</Id>
      <Line1>7303 NW 79TH TERRACE</Line1>
      <City>Medley</City>
      <CountrySubDivisionCode>Florida</CountrySubDivisionCode>
      <PostalCode>33166</PostalCode>
    </ShipAddr>
    <FreeFormAddress>true</FreeFormAddress>
    <ShipFromAddr>
      <Id>1399</Id>
      <Line1>PO Box 22821</Line1>
      <Line2>Hialeah, FL  33002 US</Line2>
    </ShipFromAddr>
    <SalesTermRef name="Net 15">2</SalesTermRef>
    <DueDate>2022-07-20</DueDate>
    <TotalAmt>45.00</TotalAmt>
    <ApplyTaxAfterDiscount>false</ApplyTaxAfterDiscount>
    <PrintStatus>NeedToPrint</PrintStatus>
    <EmailStatus>NotSet</EmailStatus>
    <Balance>45.00</Balance>
    <TaxExemptionRef name="SERVICE">99</TaxExemptionRef>
    <AllowIPNPayment>false</AllowIPNPayment>
    <AllowOnlinePayment>false</AllowOnlinePayment>
    <AllowOnlineCreditCardPayment>false</AllowOnlineCreditCardPayment>
    <AllowOnlineACHPayment>false</AllowOnlineACHPayment>
  </Invoice>
</IntuitResponse>


