RESPONSE URI FOR SEQUENCE ID 11691
==================================
https://quickbooks.api.intuit.com/v3/company/193514782950659/invoice?minorversion=47

RESPONSE HEADERS
================
date: Fri, 22 Jul 2022 16:05:37 GMT
content-type: application/xml;charset=UTF-8
content-length: 3812
intuit_tid: 1-62dacad0-380c43a94f4b510a4c6d060f
x-spanid: e44e4a35-d8b9-48d3-a83d-edc1a3d3469f
x-amzn-trace-id: Root=1-62dacad0-380c43a94f4b510a4c6d060f
x-content-type-options: nosniff
x-xss-protection: 1; mode=block
qbo-version: 1985.162
service-time: total=917, db=357
expires: 0
cache-control: max-age=0, no-cache, no-store, must-revalidate, private
x-envoy-upstream-service-time: 969
strict-transport-security: max-age=31536000
server: envoy

RESPONSE BODY
=============
<?xml version="1.0" encoding="UTF-8" standalone="yes"?>
<IntuitResponse xmlns="http://schema.intuit.com/finance/v3" time="2022-07-22T09:05:36.241-07:00">
  <Invoice domain="QBO" sparse="false">
    <Id>2072</Id>
    <SyncToken>0</SyncToken>
    <MetaData>
      <CreateTime>2022-07-22T09:05:36-07:00</CreateTime>
      <LastUpdatedTime>2022-07-22T09:05:36-07:00</LastUpdatedTime>
    </MetaData>
    <CustomField>
      <DefinitionId>2</DefinitionId>
      <Name>sales2</Name>
      <Type>StringType</Type>
      <StringValue>Notice to Owner/Preliminary No</StringValue>
    </CustomField>
    <CustomField>
      <DefinitionId>3</DefinitionId>
      <Name>sales3</Name>
      <Type>StringType</Type>
      <StringValue>62900 OVERSEAS Hwy UNIT#10, MA</StringValue>
    </CustomField>
    <DocNumber>790_1658505935</DocNumber>
    <TxnDate>2022-07-22</TxnDate>
    <CurrencyRef name="United States Dollar">USD</CurrencyRef>
    <Line>
      <Id>1</Id>
      <LineNum>1</LineNum>
      <Description>Contracted By - IGMAR ENTERPRISES, LLC</Description>
      <Amount>45.00</Amount>
      <DetailType>SalesItemLineDetail</DetailType>
      <SalesItemLineDetail>
        <ItemRef name="SERVICES:NTO">32</ItemRef>
        <UnitPrice>45</UnitPrice>
        <Qty>1</Qty>
        <ItemAccountRef name="Services">1</ItemAccountRef>
        <TaxCodeRef>NON</TaxCodeRef>
        <TaxClassificationRef>EUC-99990201-V1-00020000</TaxClassificationRef>
      </SalesItemLineDetail>
    </Line>
    <Line>
      <Id>2</Id>
      <LineNum>2</LineNum>
      <Description>Firm Mail</Description>
      <Amount>3.95</Amount>
      <DetailType>SalesItemLineDetail</DetailType>
      <SalesItemLineDetail>
        <ItemRef name="MAILING:Firm Mail">18</ItemRef>
        <UnitPrice>3.95</UnitPrice>
        <Qty>1</Qty>
        <ItemAccountRef name="Services">1</ItemAccountRef>
        <TaxCodeRef>NON</TaxCodeRef>
        <TaxClassificationRef>EUC-99990201-V1-00020000</TaxClassificationRef>
      </SalesItemLineDetail>
    </Line>
    <Line>
      <Id>3</Id>
      <LineNum>3</LineNum>
      <Description>Certified Mail with Electronic Return Receipt</Description>
      <Amount>7.66</Amount>
      <DetailType>SalesItemLineDetail</DetailType>
      <SalesItemLineDetail>
        <ItemRef name="MAILING:Certified Mail ESRR">15</ItemRef>
        <UnitPrice>7.66</UnitPrice>
        <Qty>1</Qty>
        <ItemAccountRef name="Services">1</ItemAccountRef>
        <TaxCodeRef>NON</TaxCodeRef>
        <TaxClassificationRef>EUC-99990201-V1-00020000</TaxClassificationRef>
      </SalesItemLineDetail>
    </Line>
    <Line>
      <Amount>56.61</Amount>
      <DetailType>SubTotalLineDetail</DetailType>
      <SubTotalLineDetail/>
    </Line>
    <TxnTaxDetail>
      <TxnTaxCodeRef>3</TxnTaxCodeRef>
      <TotalTax>0</TotalTax>
      <TaxLine>
        <Amount>0</Amount>
        <DetailType>TaxLineDetail</DetailType>
        <TaxLineDetail>
          <TaxRateRef>3</TaxRateRef>
          <PercentBased>true</PercentBased>
          <TaxPercent>6</TaxPercent>
          <NetAmountTaxable>0</NetAmountTaxable>
        </TaxLineDetail>
      </TaxLine>
      <TaxLine>
        <Amount>0</Amount>
        <DetailType>TaxLineDetail</DetailType>
        <TaxLineDetail>
          <TaxRateRef>4</TaxRateRef>
          <PercentBased>true</PercentBased>
          <TaxPercent>1</TaxPercent>
          <NetAmountTaxable>0</NetAmountTaxable>
        </TaxLineDetail>
      </TaxLine>
    </TxnTaxDetail>
    <CustomerRef name="JOSE E DIAZ">61</CustomerRef>
    <BillAddr>
      <Id>62</Id>
      <Line1>P.O. BOX 700788</Line1>
      <City>MIAMI</City>
      <CountrySubDivisionCode>FLORIDA</CountrySubDivisionCode>
      <PostalCode>33170</PostalCode>
    </BillAddr>
    <ShipAddr>
      <Id>62</Id>
      <Line1>P.O. BOX 700788</Line1>
      <City>MIAMI</City>
      <CountrySubDivisionCode>FLORIDA</CountrySubDivisionCode>
      <PostalCode>33170</PostalCode>
    </ShipAddr>
    <FreeFormAddress>true</FreeFormAddress>
    <ShipFromAddr>
      <Id>1503</Id>
      <Line1>PO Box 22821</Line1>
      <Line2>Hialeah, FL  33002 US</Line2>
    </ShipFromAddr>
    <SalesTermRef name="Net 15">2</SalesTermRef>
    <DueDate>2022-08-06</DueDate>
    <TotalAmt>56.61</TotalAmt>
    <ApplyTaxAfterDiscount>false</ApplyTaxAfterDiscount>
    <PrintStatus>NeedToPrint</PrintStatus>
    <EmailStatus>NotSet</EmailStatus>
    <Balance>56.61</Balance>
    <TaxExemptionRef name="SERVICE">99</TaxExemptionRef>
    <AllowIPNPayment>false</AllowIPNPayment>
    <AllowOnlinePayment>false</AllowOnlinePayment>
    <AllowOnlineCreditCardPayment>false</AllowOnlineCreditCardPayment>
    <AllowOnlineACHPayment>false</AllowOnlineACHPayment>
  </Invoice>
</IntuitResponse>


