RESPONSE URI FOR SEQUENCE ID 11701
==================================
https://quickbooks.api.intuit.com/v3/company/193514782950659/invoice?minorversion=47

RESPONSE HEADERS
================
date: Fri, 22 Jul 2022 16:05:42 GMT
content-type: application/xml
content-length: 509
intuit_tid: 1-62dacad5-75ce8a42539882b4151c07f5
x-spanid: 5836cd57-4051-4584-803f-57888cd7be6f
x-amzn-trace-id: Root=1-62dacad5-75ce8a42539882b4151c07f5
x-content-type-options: nosniff
x-envoy-upstream-service-time: 363
strict-transport-security: max-age=31536000
server: envoy

RESPONSE BODY
=============
<?xml version="1.0" encoding="UTF-8" standalone="yes"?>
<IntuitResponse xmlns="http://schema.intuit.com/finance/v3" time="2022-07-22T09:05:41.906-07:00">
  <Fault type="ValidationFault">
    <Error code="6000" element="">
      <Message>A business validation error has occurred while processing your request</Message>
      <Detail>Business Validation Error: You cannot enter more than 31 characters in the sales_custom_1_val field. You tried entering NTO 342- c..., which is 46 characters.</Detail>
    </Error>
  </Fault>
</IntuitResponse>


