RESPONSE URI FOR SEQUENCE ID 11745
==================================
https://quickbooks.api.intuit.com/v3/company/193514782950659/query?minorversion=47

RESPONSE HEADERS
================
date: Fri, 22 Jul 2022 16:28:26 GMT
content-type: application/xml;charset=UTF-8
content-length: 3952
intuit_tid: 1-62dad02a-1a1ed9b37149fd2304307154
x-spanid: f17382a1-67af-4475-8a8e-45fba7aacc6f
x-amzn-trace-id: Root=1-62dad02a-1a1ed9b37149fd2304307154
x-content-type-options: nosniff
x-xss-protection: 1; mode=block
qbo-version: 1985.162
service-time: total=232, db=121
expires: 0
cache-control: max-age=0, no-cache, no-store, must-revalidate, private
x-envoy-upstream-service-time: 256
strict-transport-security: max-age=31536000
server: envoy

RESPONSE BODY
=============
<?xml version="1.0" encoding="UTF-8" standalone="yes"?>
<IntuitResponse xmlns="http://schema.intuit.com/finance/v3" time="2022-07-22T09:28:26.363-07:00">
  <QueryResponse startPosition="1" maxResults="1" totalCount="1">
    <Invoice domain="QBO" sparse="false">
      <Id>2067</Id>
      <SyncToken>0</SyncToken>
      <MetaData>
        <CreateTime>2022-07-22T09:05:31-07:00</CreateTime>
        <LastUpdatedTime>2022-07-22T09:05:31-07:00</LastUpdatedTime>
      </MetaData>
      <CustomField>
        <DefinitionId>2</DefinitionId>
        <Name>sales2</Name>
        <Type>StringType</Type>
        <StringValue>Notice to Owner/Preliminary No</StringValue>
      </CustomField>
      <CustomField>
        <DefinitionId>3</DefinitionId>
        <Name>sales3</Name>
        <Type>StringType</Type>
        <StringValue>3355 NW 22st RD MIAMI FL</StringValue>
      </CustomField>
      <DocNumber>809_1658505930</DocNumber>
      <TxnDate>2022-07-22</TxnDate>
      <CurrencyRef name="United States Dollar">USD</CurrencyRef>
      <Line>
        <Id>1</Id>
        <LineNum>1</LineNum>
        <Description>Contracted By - TITAN STRUCTURAL INC</Description>
        <Amount>45.00</Amount>
        <DetailType>SalesItemLineDetail</DetailType>
        <SalesItemLineDetail>
          <ItemRef name="SERVICES:NTO">32</ItemRef>
          <UnitPrice>45</UnitPrice>
          <Qty>1</Qty>
          <ItemAccountRef name="Services">1</ItemAccountRef>
          <TaxCodeRef>NON</TaxCodeRef>
          <TaxClassificationRef>EUC-99990201-V1-00020000</TaxClassificationRef>
        </SalesItemLineDetail>
      </Line>
      <Line>
        <Id>2</Id>
        <LineNum>2</LineNum>
        <Description>Firm Mail</Description>
        <Amount>3.95</Amount>
        <DetailType>SalesItemLineDetail</DetailType>
        <SalesItemLineDetail>
          <ItemRef name="MAILING:Firm Mail">18</ItemRef>
          <UnitPrice>3.95</UnitPrice>
          <Qty>1</Qty>
          <ItemAccountRef name="Services">1</ItemAccountRef>
          <TaxCodeRef>NON</TaxCodeRef>
          <TaxClassificationRef>EUC-99990201-V1-00020000</TaxClassificationRef>
        </SalesItemLineDetail>
      </Line>
      <Line>
        <Id>3</Id>
        <LineNum>3</LineNum>
        <Description>Certified Mail with Electronic Return Receipt</Description>
        <Amount>22.98</Amount>
        <DetailType>SalesItemLineDetail</DetailType>
        <SalesItemLineDetail>
          <ItemRef name="MAILING:Certified Mail ESRR">15</ItemRef>
          <UnitPrice>7.66</UnitPrice>
          <Qty>3</Qty>
          <ItemAccountRef name="Services">1</ItemAccountRef>
          <TaxCodeRef>NON</TaxCodeRef>
          <TaxClassificationRef>EUC-99990201-V1-00020000</TaxClassificationRef>
        </SalesItemLineDetail>
      </Line>
      <Line>
        <Amount>71.93</Amount>
        <DetailType>SubTotalLineDetail</DetailType>
        <SubTotalLineDetail/>
      </Line>
      <TxnTaxDetail>
        <TxnTaxCodeRef>3</TxnTaxCodeRef>
        <TotalTax>0</TotalTax>
        <TaxLine>
          <Amount>0</Amount>
          <DetailType>TaxLineDetail</DetailType>
          <TaxLineDetail>
            <TaxRateRef>3</TaxRateRef>
            <PercentBased>true</PercentBased>
            <TaxPercent>6</TaxPercent>
            <NetAmountTaxable>0</NetAmountTaxable>
          </TaxLineDetail>
        </TaxLine>
        <TaxLine>
          <Amount>0</Amount>
          <DetailType>TaxLineDetail</DetailType>
          <TaxLineDetail>
            <TaxRateRef>4</TaxRateRef>
            <PercentBased>true</PercentBased>
            <TaxPercent>1</TaxPercent>
            <NetAmountTaxable>0</NetAmountTaxable>
          </TaxLineDetail>
        </TaxLine>
      </TxnTaxDetail>
      <CustomerRef name="FLORIDA BLOCK CARPENTRY INC_1642613045">242</CustomerRef>
      <BillAddr>
        <Id>503</Id>
        <Line1>316 WEST PALM DRIVE STE 127</Line1>
        <City>Florida City</City>
        <CountrySubDivisionCode>Florida</CountrySubDivisionCode>
        <PostalCode>33034</PostalCode>
      </BillAddr>
      <ShipAddr>
        <Id>504</Id>
        <Line1>316 WEST PALM DRIVE STE 127</Line1>
        <City>Florida City</City>
        <CountrySubDivisionCode>Florida</CountrySubDivisionCode>
        <PostalCode>33034</PostalCode>
      </ShipAddr>
      <FreeFormAddress>true</FreeFormAddress>
      <ShipFromAddr>
        <Id>1498</Id>
        <Line1>PO Box 22821</Line1>
        <Line2>Hialeah, FL  33002 US</Line2>
      </ShipFromAddr>
      <SalesTermRef name="Net 15">2</SalesTermRef>
      <DueDate>2022-08-06</DueDate>
      <TotalAmt>71.93</TotalAmt>
      <ApplyTaxAfterDiscount>false</ApplyTaxAfterDiscount>
      <PrintStatus>NeedToPrint</PrintStatus>
      <EmailStatus>NotSet</EmailStatus>
      <Balance>71.93</Balance>
      <TaxExemptionRef name="service">99</TaxExemptionRef>
      <AllowIPNPayment>false</AllowIPNPayment>
      <AllowOnlinePayment>false</AllowOnlinePayment>
      <AllowOnlineCreditCardPayment>false</AllowOnlineCreditCardPayment>
      <AllowOnlineACHPayment>false</AllowOnlineACHPayment>
    </Invoice>
  </QueryResponse>
</IntuitResponse>


