RESPONSE URI FOR SEQUENCE ID 11875
==================================
https://quickbooks.api.intuit.com/v3/company/193514782950659/invoice?minorversion=47

RESPONSE HEADERS
================
date: Mon, 25 Jul 2022 16:25:51 GMT
content-type: application/xml;charset=UTF-8
content-length: 3424
intuit_tid: 1-62dec40e-55e256f468db2bd8763ad6dc
x-spanid: c0e93949-6da6-4402-88a0-27f3c74796c2
x-amzn-trace-id: Root=1-62dec40e-55e256f468db2bd8763ad6dc
x-content-type-options: nosniff
x-xss-protection: 1; mode=block
qbo-version: 1985.162
service-time: total=623, db=162
expires: 0
cache-control: max-age=0, no-cache, no-store, must-revalidate, private
x-envoy-upstream-service-time: 660
strict-transport-security: max-age=31536000
server: envoy

RESPONSE BODY
=============
<?xml version="1.0" encoding="UTF-8" standalone="yes"?>
<IntuitResponse xmlns="http://schema.intuit.com/finance/v3" time="2022-07-25T09:25:50.809-07:00">
  <Invoice domain="QBO" sparse="false">
    <Id>2082</Id>
    <SyncToken>0</SyncToken>
    <MetaData>
      <CreateTime>2022-07-25T09:25:51-07:00</CreateTime>
      <LastUpdatedTime>2022-07-25T09:25:51-07:00</LastUpdatedTime>
    </MetaData>
    <CustomField>
      <DefinitionId>2</DefinitionId>
      <Name>sales2</Name>
      <Type>StringType</Type>
      <StringValue>Claim of Lien</StringValue>
    </CustomField>
    <CustomField>
      <DefinitionId>3</DefinitionId>
      <Name>sales3</Name>
      <Type>StringType</Type>
      <StringValue>456 sw 89 st miami florida&amp;nb</StringValue>
    </CustomField>
    <DocNumber>135_CYO_1658766350</DocNumber>
    <TxnDate>2022-07-25</TxnDate>
    <CurrencyRef name="United States Dollar">USD</CurrencyRef>
    <Line>
      <Id>1</Id>
      <LineNum>1</LineNum>
      <Description>Claim of Lien
Contracted By - STAMP COM ADD VERIFICATION
Parent Work Order Number - 134
07/25/2022</Description>
      <Amount>30.00</Amount>
      <DetailType>SalesItemLineDetail</DetailType>
      <SalesItemLineDetail>
        <ItemRef name="CLAIM OF LIEN:Claim of Lien">38</ItemRef>
        <UnitPrice>30</UnitPrice>
        <Qty>1</Qty>
        <ItemAccountRef name="Services">1</ItemAccountRef>
        <TaxCodeRef>NON</TaxCodeRef>
        <TaxClassificationRef>EUC-99990201-V1-00020000</TaxClassificationRef>
      </SalesItemLineDetail>
    </Line>
    <Line>
      <Id>2</Id>
      <LineNum>2</LineNum>
      <Description>Firm Mail</Description>
      <Amount>19.75</Amount>
      <DetailType>SalesItemLineDetail</DetailType>
      <SalesItemLineDetail>
        <ItemRef name="MAILING:Firm Mail">18</ItemRef>
        <UnitPrice>3.95</UnitPrice>
        <Qty>5</Qty>
        <ItemAccountRef name="Services">1</ItemAccountRef>
        <TaxCodeRef>NON</TaxCodeRef>
        <TaxClassificationRef>EUC-99990201-V1-00020000</TaxClassificationRef>
      </SalesItemLineDetail>
    </Line>
    <Line>
      <Amount>49.75</Amount>
      <DetailType>SubTotalLineDetail</DetailType>
      <SubTotalLineDetail/>
    </Line>
    <TxnTaxDetail>
      <TxnTaxCodeRef>3</TxnTaxCodeRef>
      <TotalTax>0</TotalTax>
      <TaxLine>
        <Amount>0</Amount>
        <DetailType>TaxLineDetail</DetailType>
        <TaxLineDetail>
          <TaxRateRef>3</TaxRateRef>
          <PercentBased>true</PercentBased>
          <TaxPercent>6</TaxPercent>
          <NetAmountTaxable>0</NetAmountTaxable>
        </TaxLineDetail>
      </TaxLine>
      <TaxLine>
        <Amount>0</Amount>
        <DetailType>TaxLineDetail</DetailType>
        <TaxLineDetail>
          <TaxRateRef>4</TaxRateRef>
          <PercentBased>true</PercentBased>
          <TaxPercent>1</TaxPercent>
          <NetAmountTaxable>0</NetAmountTaxable>
        </TaxLineDetail>
      </TaxLine>
    </TxnTaxDetail>
    <CustomerRef name="AAA Construction Corp._1615909222">213</CustomerRef>
    <BillAddr>
      <Id>1204</Id>
      <Line1>301 Hialeah Drive ste 118</Line1>
      <CountrySubDivisionCode>Florida</CountrySubDivisionCode>
      <PostalCode>33010</PostalCode>
    </BillAddr>
    <ShipAddr>
      <Id>1204</Id>
      <Line1>301 Hialeah Drive ste 118</Line1>
      <CountrySubDivisionCode>Florida</CountrySubDivisionCode>
      <PostalCode>33010</PostalCode>
    </ShipAddr>
    <FreeFormAddress>true</FreeFormAddress>
    <ShipFromAddr>
      <Id>1513</Id>
      <Line1>PO Box 22821</Line1>
      <Line2>Hialeah, FL  33002 US</Line2>
    </ShipFromAddr>
    <SalesTermRef name="Net 15">2</SalesTermRef>
    <DueDate>2022-08-09</DueDate>
    <TotalAmt>49.75</TotalAmt>
    <ApplyTaxAfterDiscount>false</ApplyTaxAfterDiscount>
    <PrintStatus>NeedToPrint</PrintStatus>
    <EmailStatus>NotSet</EmailStatus>
    <Balance>49.75</Balance>
    <TaxExemptionRef name="service">99</TaxExemptionRef>
    <AllowIPNPayment>false</AllowIPNPayment>
    <AllowOnlinePayment>false</AllowOnlinePayment>
    <AllowOnlineCreditCardPayment>false</AllowOnlineCreditCardPayment>
    <AllowOnlineACHPayment>false</AllowOnlineACHPayment>
  </Invoice>
</IntuitResponse>


