<?xml version="1.0" standalone="no"?>
<!DOCTYPE svg PUBLIC "-//W3C//DTD SVG 1.1//EN" "http://www.w3.org/Graphics/SVG/1.1/DTD/svg11.dtd" >
<svg xmlns="http://www.w3.org/2000/svg" xmlns:xlink="http://www.w3.org/1999/xlink" version="1.1">
<metadata>
Created by FontForge 20170731 at Tue Oct  9 23:04:37 2001
 By Aleksey,,,
Copyright (c) 1985, 1987, 1988, 1994, 1999 Adobe Systems Incorporated. All Rights Reserved.Helvetica is a trademark of Linotype-Hell AG and/or its subsidiaries.
</metadata>
<defs>
<font id="HelveticaLT-Light" horiz-adv-x="556" >
  <font-face 
    font-family="Helvetica LT Light"
    font-weight="300"
    font-stretch="normal"
    units-per-em="1000"
    panose-1="2 0 4 3 4 0 0 2 0 4"
    ascent="800"
    descent="-200"
    x-height="518"
    cap-height="720"
    bbox="-164 -250 1000 979"
    underline-thickness="50"
    underline-position="-175"
    unicode-range="U+0020-FB02"
  />
<missing-glyph horiz-adv-x="278" 
 />
    <glyph glyph-name=".notdef" horiz-adv-x="278" 
 />
    <glyph glyph-name=".null" horiz-adv-x="0" 
 />
    <glyph glyph-name="nonmarkingreturn" horiz-adv-x="278" 
 />
    <glyph glyph-name="space" unicode=" " horiz-adv-x="278" 
 />
    <glyph glyph-name="space" unicode="&#xa0;" horiz-adv-x="278" 
 />
    <glyph glyph-name="exclam" unicode="!" horiz-adv-x="333" 
d="M130 0v88h73v-88h-73zM130 496v224h73v-224l-14 -315h-45z" />
    <glyph glyph-name="quotedbl" unicode="&#x22;" horiz-adv-x="278" 
d="M168 720h52v-226h-52v226zM57 720h52v-226h-52v226z" />
    <glyph glyph-name="numbersign" unicode="#" 
d="M227 427l-22 -140h138l20 140h-136zM504 228h-111l-32 -228h-59l31 228h-137l-34 -228h-59l34 228h-110v59h119l21 140h-112v59h120l32 212h60l-32 -212h136l31 212h59l-31 -212h100v-59h-108l-20 -140h102v-59z" />
    <glyph glyph-name="dollar" unicode="$" 
d="M255 651q-28 0 -52.5 -9t-43 -25.5t-29 -39.5t-10.5 -51q0 -33 10.5 -55t29 -36.5t43 -23.5t52.5 -17v257zM302 35q31 0 58.5 11t48.5 30t33 45.5t12 58.5q0 37 -12 61.5t-32.5 40t-48 24.5t-59.5 16v-287zM302 -95h-46v76q-85 5 -140.5 47t-73.5 126q-2 13 -3 25l-2 24
h65q0 -34 11 -63.5t31.5 -52t48.5 -36.5t62 -16v297q-41 10 -77.5 23.5t-63.5 35t-42.5 53.5t-15.5 79q0 42 16 76t43.5 58t63.5 36.5t77 11.5v61h46v-61q41 0 76 -11.5t61 -34t41 -55.5t17 -75h-65q0 27 -10.5 49.5t-28 38.5t-41 25t-50.5 9v-266q49 -12 89 -26t68 -37
t43.5 -59.5t15.5 -93.5q0 -44 -19 -78.5t-49.5 -58.5t-69.5 -37t-78 -14v-76z" />
    <glyph glyph-name="percent" unicode="%" horiz-adv-x="889" 
d="M657 274q-23 0 -42.5 -9t-34 -24t-23 -35t-8.5 -42q0 -21 9 -40.5t24 -34.5t34.5 -23.5t40.5 -8.5q22 0 41.5 9t34 24t23 34.5t8.5 41.5t-8.5 41.5t-23 34.5t-34 23.5t-41.5 8.5zM232 424q22 0 41.5 8.5t34.5 23.5t24 34.5t9 41.5t-8.5 41.5t-23.5 34.5t-35 24t-42 9
t-41.5 -8.5t-34.5 -23.5t-23.5 -35t-8.5 -42t8.5 -41.5t23.5 -34.5t34.5 -23.5t41.5 -8.5zM271 -14h-52l397 719h52zM658 331q34 0 64 -13t52 -35.5t34.5 -52.5t12.5 -64t-12.5 -64.5t-34.5 -53t-52 -35.5t-64 -13t-64.5 13t-53 35.5t-35.5 53t-13 64.5t13.5 64t36 52.5
t52.5 35.5t64 13zM398 532q0 -34 -13 -64t-35.5 -52.5t-53 -35.5t-64.5 -13t-64 13t-52.5 35.5t-35.5 52.5t-13 64t13 64t35.5 52.5t52.5 36t64 13.5t64.5 -13t53 -35.5t35.5 -53t13 -64.5z" />
    <glyph glyph-name="ampersand" unicode="&#x26;" horiz-adv-x="667" 
d="M378 540q9 20 7.5 42.5t-13 41t-31.5 30.5t-48 12q-19 0 -36 -6t-30.5 -17t-21.5 -27t-8 -36q0 -16 8 -35t19.5 -37t24.5 -34.5t23 -28.5q30 18 60.5 39.5t45.5 55.5zM249 375q-30 -14 -55.5 -33.5t-44 -43.5t-29.5 -51.5t-11 -56.5q0 -36 12.5 -64.5t34 -48.5t51 -31
t64.5 -11q58 0 102.5 26.5t80.5 69.5zM488 186q19 32 24.5 67.5t5.5 72.5h59q-2 -49 -12.5 -97.5t-37.5 -90.5l117 -138h-81l-70 85q-47 -56 -101 -80t-126 -24q-47 0 -88 15.5t-71.5 43.5t-48 67.5t-17.5 87.5q0 40 14 74t37.5 62t54.5 49.5t66 37.5q-29 34 -53 73.5
t-24 87.5q0 34 13 60.5t35 44.5t51.5 27t62.5 9t61 -11t48 -30t31 -44.5t11 -53.5q0 -36 -11.5 -62.5t-31 -47t-45.5 -37.5t-54 -34z" />
    <glyph glyph-name="quotesingle" unicode="'" horiz-adv-x="222" 
d="M85 720h52v-226h-52v226z" />
    <glyph glyph-name="parenleft" unicode="(" horiz-adv-x="333" 
d="M277 739q-72 -104 -112.5 -222.5t-40.5 -245.5q0 -125 42 -242t111 -220h-51q-41 57 -73 110.5t-54 109t-33 116t-11 131.5q0 69 11.5 129.5t33.5 116.5t53.5 109.5t72.5 107.5h51z" />
    <glyph glyph-name="parenright" unicode=")" horiz-adv-x="333" 
d="M56 -191q72 104 112.5 222.5t40.5 245.5q0 125 -42 242t-111 220h51q41 -57 73 -110.5t53.5 -109t33 -116t11.5 -131.5q0 -69 -11.5 -129.5t-33.5 -116.5t-54 -109.5t-72 -107.5h-51z" />
    <glyph glyph-name="asterisk" unicode="*" horiz-adv-x="389" 
d="M173 603v117h42v-117l114 42l15 -44l-114 -37l75 -106l-39 -24l-74 108l-78 -106l-35 27l77 101l-112 40l18 42z" />
    <glyph glyph-name="plus" unicode="+" horiz-adv-x="660" 
d="M300 500h60v-220h220v-60h-220v-220h-60v220h-220v60h220v220z" />
    <glyph glyph-name="comma" unicode="," horiz-adv-x="278" 
d="M175 -30q0 -44 -20.5 -70.5t-52.5 -36.5v37q12 8 23 22t11 44v34h-34v88h73v-118z" />
    <glyph glyph-name="hyphen" unicode="-" horiz-adv-x="333" 
d="M293 291v-62h-253v62h253z" />
    <glyph glyph-name="hyphen" unicode="&#xad;" horiz-adv-x="333" 
d="M293 291v-62h-253v62h253z" />
    <glyph glyph-name="period" unicode="." horiz-adv-x="278" 
d="M102 0v88h73v-88h-73z" />
    <glyph glyph-name="slash" unicode="/" horiz-adv-x="278" 
d="M53 -90h-56l235 829h56z" />
    <glyph glyph-name="zero" unicode="0" 
d="M452 347q0 57 -6.5 111.5t-25.5 97.5t-53.5 69t-90.5 26q-53 0 -86.5 -26.5t-52.5 -70.5t-26.5 -100t-7.5 -114q0 -68 8.5 -123.5t28.5 -94.5t53.5 -60.5t84.5 -21.5q57 0 91.5 28t52.5 72t24 99t6 108zM278 705q52 0 90 -15.5t64.5 -42.5t43 -63t25.5 -76.5t12 -83.5
t3 -84q0 -70 -10 -134t-36.5 -113t-72.5 -78t-119 -29t-119.5 29t-73 78.5t-36.5 115t-10 138.5q0 67 9 131t34.5 114.5t72.5 81.5t123 31z" />
    <glyph glyph-name="one" unicode="1" 
d="M302 524h-182v42q40 3 72.5 8t57 19t41 40.5t24.5 71.5h51v-705h-64v524z" />
    <glyph glyph-name="two" unicode="2" 
d="M69 474q0 52 16 94.5t46 73t72.5 47t94.5 16.5q53 0 93.5 -15.5t68 -41.5t41.5 -62t14 -76q0 -47 -15.5 -83t-41 -64t-58 -50t-66.5 -41.5t-67 -37.5t-59 -38q-17 -13 -33 -27.5t-29 -31.5t-21 -37.5t-9 -45.5h393v-54h-461q1 51 11 92t44 80q37 42 76.5 72t77.5 53.5
t72 43t60 42.5t41 52t15 71q0 34 -12 61t-33 46t-49 28.5t-61 9.5q-35 0 -63.5 -14.5t-49 -38.5t-31.5 -56t-9 -68h-68z" />
    <glyph glyph-name="three" unicode="3" 
d="M221 392q45 0 82 5.5t63.5 21t41.5 41.5t15 67q0 33 -12 56.5t-32.5 38.5t-48 22t-57.5 7q-34 0 -61.5 -11t-47.5 -31.5t-31 -48t-11 -60.5h-64q0 48 16.5 86.5t51.5 71.5q33 30 74.5 38.5t85.5 8.5q42 0 78.5 -10.5t63.5 -32t43 -54.5t16 -77q0 -55 -24.5 -95t-75.5 -62
q38 -12 62.5 -31.5t38.5 -43t19 -49.5t5 -50q0 -44 -15 -82t-44 -67t-71.5 -46.5t-96.5 -18.5q-61 0 -106 11t-75 36.5t-47 67t-23 103.5h64q0 -81 48.5 -122.5t126.5 -41.5q38 0 71 13t56.5 35t36 51t11.5 60q-2 43 -20 71.5t-48.5 45t-71.5 22t-87 2.5v52z" />
    <glyph glyph-name="four" unicode="4" 
d="M99 228h259v374zM358 174h-322v55l328 469h58v-470h98v-54h-98v-174h-64v174z" />
    <glyph glyph-name="five" unicode="5" 
d="M99 183q10 -72 57.5 -107.5t116.5 -35.5q39 0 70.5 14t53.5 38.5t33.5 57t11.5 70.5q0 39 -12.5 72t-35 57t-55 37t-72.5 13q-48 0 -86 -17.5t-67 -55.5l-53 7l57 365h350v-54h-296l-44 -237q21 13 38.5 22t35.5 14.5t37.5 7.5t43.5 2q48 0 89 -16t71 -46t46.5 -73.5
t16.5 -97.5q0 -56 -18.5 -99.5t-49.5 -73.5t-71.5 -45.5t-83.5 -15.5q-50 0 -93.5 10t-76.5 33.5t-53.5 61t-24.5 92.5h64z" />
    <glyph glyph-name="six" unicode="6" 
d="M288 388q-37 0 -66.5 -14t-50 -38t-31.5 -55.5t-11 -67.5q0 -30 8.5 -60.5t28 -55.5t49.5 -41t74 -16q45 0 75.5 15.5t49.5 41t27.5 57t8.5 63.5q0 82 -39.5 126.5t-122.5 44.5zM437 532q-11 54 -44 86.5t-90 32.5q-65 0 -102.5 -31t-57.5 -78.5t-27 -103.5t-11 -106
q15 20 31.5 40t37.5 35.5t49 25t67 9.5q107 0 165.5 -60.5t58.5 -166.5q0 -107 -59 -168t-167 -61q-53 0 -98 17.5t-78 57.5t-52 104.5t-19 157.5q0 63 11 130.5t39.5 123.5t78 92t127.5 36q84 0 140 -44t66 -129h-66z" />
    <glyph glyph-name="seven" unicode="7" 
d="M59 698h449v-60q-76 -86 -129 -176.5t-87 -176t-50.5 -159.5t-19.5 -126h-70q5 76 30.5 161.5t63.5 169.5t86 162.5t99 140.5h-372v64z" />
    <glyph glyph-name="eight" unicode="8" 
d="M276 651q-30 0 -56 -8t-45.5 -24t-30.5 -40t-11 -55q0 -33 12.5 -56.5t33.5 -38.5t48 -22.5t56 -7.5t54 7.5t43 24.5t28.5 43t10.5 64q0 54 -35 83.5t-108 29.5zM279 345q-37 0 -68 -9t-54 -27.5t-36 -47t-13 -67.5q0 -33 12.5 -61t35 -48.5t55 -32.5t72.5 -12
q35 0 65 11.5t52.5 32.5t35 50t12.5 64q0 37 -13 64.5t-36 46t-54 27.5t-66 9zM167 379q-26 16 -44.5 30.5t-30.5 31.5t-17.5 38.5t-5.5 53.5q0 36 16 68t43 55.5t63.5 36.5t78.5 12q40 0 78.5 -10t68.5 -31t48 -53.5t18 -77.5q0 -55 -22.5 -94t-73.5 -64q58 -21 91.5 -67
t33.5 -108q0 -52 -17.5 -92t-50 -67t-78.5 -41t-102 -14q-38 0 -77.5 13t-71 39t-51.5 65t-20 91q0 63 31.5 112.5t91.5 72.5z" />
    <glyph glyph-name="nine" unicode="9" 
d="M268 651q-81 -2 -122 -50t-41 -131q0 -81 42.5 -126t120.5 -45q37 0 66.5 14t50 38t31 55.5t10.5 67.5q0 78 -42 126.5t-116 50.5zM118 155q11 -57 44.5 -86t92.5 -29q63 0 100.5 31t58 78t28 101.5t9.5 102.5l-2 2q-32 -54 -79.5 -82t-110.5 -28q-50 0 -90 16t-68.5 46
t-44 72t-15.5 93q0 50 14 92.5t42 74t70.5 49t100.5 17.5q71 0 118.5 -28t76 -76t40.5 -113t12 -139q0 -90 -19 -157.5t-53.5 -113.5t-81.5 -69t-103 -23q-41 0 -77 10t-63 31t-44 53t-21 75h65z" />
    <glyph glyph-name="colon" unicode=":" horiz-adv-x="278" 
d="M102 404v88h73v-88h-73zM102 0v88h73v-88h-73z" />
    <glyph glyph-name="semicolon" unicode=";" horiz-adv-x="278" 
d="M102 404v88h73v-88h-73zM175 -30q0 -44 -20.5 -70.5t-52.5 -36.5v37q12 8 23 22t11 44v34h-34v88h73v-118z" />
    <glyph glyph-name="less" unicode="&#x3c;" horiz-adv-x="660" 
d="M580 58v-64l-500 235v53l500 223v-64l-421 -186z" />
    <glyph glyph-name="equal" unicode="=" horiz-adv-x="660" 
d="M580 124h-500v60h500v-60zM580 318h-500v60h500v-60z" />
    <glyph glyph-name="greater" unicode="&#x3e;" horiz-adv-x="660" 
d="M580 229l-500 -235v64l421 197l-421 186v64l500 -223v-53z" />
    <glyph glyph-name="question" unicode="?" horiz-adv-x="500" 
d="M210 0v88h73v-88h-73zM216 182q-1 55 7.5 100t47.5 86q22 23 46 45t44 44.5t33.5 46.5t13.5 52q0 27 -10.5 50.5t-30.5 41t-49 27.5t-66 10t-66 -13t-48.5 -36t-29.5 -53.5t-9 -66.5h-61q-4 50 11 91t44.5 70.5t70.5 45.5t90 16q51 0 91.5 -13.5t68.5 -38t43 -59.5
t15 -77q0 -44 -19.5 -75.5t-47.5 -58.5t-58 -54.5t-52 -61.5q-17 -26 -19 -57.5t-2 -61.5h-58z" />
    <glyph glyph-name="at" unicode="@" horiz-adv-x="800" 
d="M337 196q34 0 64 28t52.5 67.5t35.5 84t13 78.5q0 29 -19 51t-50 22q-40 0 -72 -24.5t-54.5 -61t-35 -78t-12.5 -75.5q0 -36 20 -64t58 -28zM743 167q-24 -44 -59 -78.5t-77.5 -58.5t-90.5 -36.5t-97 -12.5q-80 0 -149.5 30t-120.5 82t-80 121.5t-29 148.5q0 78 30 146.5
t81.5 119.5t119.5 80.5t144 29.5q72 0 135 -23.5t109.5 -65.5t73.5 -100t27 -127q0 -59 -21.5 -112t-55 -93t-75 -63.5t-81.5 -23.5q-26 0 -51.5 12.5t-34.5 39.5q-23 -23 -55 -36.5t-64 -13.5t-58 12t-44 32.5t-27.5 47.5t-9.5 58q0 50 18 103.5t50.5 98t78 73t101.5 28.5
q35 0 66 -17t46 -49l15 46h67l-101 -302q-6 -17 -9.5 -31.5t-2.5 -25.5t7.5 -17.5t21.5 -6.5q31 0 60 23t51 58.5t35 78.5t13 83q0 61 -23 110t-62 83t-90 52t-108 18q-69 0 -127.5 -26.5t-100.5 -72t-65.5 -106t-23.5 -128.5t24.5 -127t67.5 -103t101 -69.5t126 -25.5
q39 0 76.5 9t72 26.5t64 43t52.5 57.5h59z" />
    <glyph glyph-name="A" unicode="A" horiz-adv-x="667" 
d="M193 284h282l-141 378zM15 0l283 720h77l276 -720h-70l-83 226h-328l-85 -226h-70z" />
    <glyph glyph-name="B" unicode="B" horiz-adv-x="667" 
d="M149 402h172q53 0 89 9t58 26.5t31.5 43t9.5 58.5q0 34 -11 57.5t-35 38t-62.5 21t-94.5 6.5h-157v-260zM149 58h173q56 0 97.5 5t68.5 20.5t40.5 44t13.5 75.5q0 45 -15 72.5t-43 42.5t-67 20.5t-87 5.5h-181v-286zM81 0v720h260q63 0 108 -13t73.5 -37t41.5 -57.5
t13 -73.5q0 -38 -10 -65.5t-26 -46t-36.5 -29t-42.5 -14.5v-2q75 -11 111.5 -59t36.5 -120q0 -56 -17.5 -95t-48.5 -63t-74.5 -34.5t-94.5 -10.5h-294z" />
    <glyph glyph-name="C" unicode="C" horiz-adv-x="722" 
d="M592 511q-21 92 -78 131t-149 39q-65 0 -112 -26t-77.5 -70t-45 -101.5t-14.5 -121.5q0 -60 12.5 -118t41.5 -103.5t78 -73.5t123 -28q46 0 84 15t66.5 41.5t48 62.5t29.5 79h71q-12 -52 -35 -98.5t-60.5 -81.5t-91 -55.5t-125.5 -20.5q-83 0 -142 30.5t-96.5 82.5
t-54.5 120.5t-17 145.5q0 103 25.5 175t70.5 117.5t106 66t133 20.5q55 0 102.5 -14.5t84 -43.5t60 -71.5t32.5 -98.5h-70z" />
    <glyph glyph-name="D" unicode="D" horiz-adv-x="722" 
d="M149 58h163q46 0 86.5 5.5t82.5 27.5q36 18 59 49t36.5 67.5t19 76.5t5.5 77q0 39 -5 79.5t-19 77t-38 67t-62 50.5q-32 17 -76 22t-89 5h-163v-604zM81 0v720h246q30 0 59 -1.5t57 -7t54.5 -16.5t51.5 -29q36 -26 59 -63.5t36.5 -79t19 -84t5.5 -78.5t-4.5 -73
t-14.5 -72.5t-26.5 -68t-41.5 -59.5q-25 -28 -54.5 -45t-62 -26.5t-67.5 -13t-71 -3.5h-246z" />
    <glyph glyph-name="E" unicode="E" horiz-adv-x="611" 
d="M81 0v720h479v-58h-411v-260h371v-58h-371v-286h421v-58h-489z" />
    <glyph glyph-name="F" unicode="F" 
d="M74 0v720h464v-58h-396v-260h360v-58h-360v-344h-68z" />
    <glyph glyph-name="G" unicode="G" horiz-adv-x="778" 
d="M387 314v58h308v-372h-58v123q-19 -32 -43.5 -58.5t-56.5 -45t-74 -28.5t-95 -10q-68 0 -126 24t-100 71.5t-65.5 119.5t-23.5 168q0 79 20 147.5t61.5 119t104 79.5t147.5 29q57 0 106.5 -14t89 -42.5t66.5 -71t39 -100.5h-70q-9 40 -30.5 72t-51.5 53.5t-67 33
t-77 11.5q-71 0 -122 -25t-84 -70.5t-48.5 -109t-15.5 -139.5q0 -60 17.5 -114t51 -95t82 -65t110.5 -24q29 0 60 6.5t60 21.5t54 39t43 59q17 34 23.5 71t7.5 78h-243z" />
    <glyph glyph-name="H" unicode="H" horiz-adv-x="722" 
d="M80 0v720h68v-309h426v309h68v-720h-68v353h-426v-353h-68z" />
    <glyph glyph-name="I" unicode="I" horiz-adv-x="278" 
d="M105 0v720h68v-720h-68z" />
    <glyph glyph-name="J" unicode="J" horiz-adv-x="500" 
d="M90 228q0 -34 2.5 -67t15 -59.5t39 -42.5t73.5 -16q70 0 98.5 40t28.5 116v521h68v-523q0 -105 -49 -160.5t-154 -55.5q-61 0 -98 20.5t-57.5 55t-27.5 79t-7 92.5h68z" />
    <glyph glyph-name="K" unicode="K" horiz-adv-x="667" 
d="M85 0v720h68v-373l369 373h77l-284 -287l334 -433h-83l-300 391l-113 -113v-278h-68z" />
    <glyph glyph-name="L" unicode="L" 
d="M81 0v720h68v-662h386v-58h-454z" />
    <glyph glyph-name="M" unicode="M" horiz-adv-x="833" 
d="M78 0v720h104l236 -635h2l232 635h103v-720h-68v642h-2l-236 -642h-64l-237 642h-2v-642h-68z" />
    <glyph glyph-name="N" unicode="N" horiz-adv-x="722" 
d="M149 628h-2v-628h-68v720h77l416 -629h2v629h68v-720h-79z" />
    <glyph glyph-name="O" unicode="O" horiz-adv-x="778" 
d="M389 39q70 0 120.5 26.5t83 70.5t48 102t15.5 121q0 75 -18.5 134.5t-53.5 101.5t-85 64t-112 22q-69 0 -119.5 -27t-83 -71.5t-48 -102.5t-15.5 -121q0 -64 15.5 -122t48 -102t83 -70t121.5 -26zM53 359q0 79 21.5 148t63.5 120.5t104 81.5t143 30q84 0 147.5 -29.5
t106 -81t64 -121t21.5 -148.5q0 -78 -21.5 -146.5t-63.5 -120t-105 -81.5t-146 -30t-146 30t-105 81.5t-63 120t-21 146.5z" />
    <glyph glyph-name="P" unicode="P" horiz-adv-x="611" 
d="M302 376q48 0 86 6t64.5 22.5t41 45t14.5 74.5q0 68 -44.5 103t-141.5 35h-176v-286h156zM78 0v720h263q70 0 115.5 -16t72 -44t37 -64.5t10.5 -76.5q0 -60 -24.5 -99t-63.5 -61.5t-88.5 -31.5t-99.5 -9h-154v-318h-68z" />
    <glyph glyph-name="Q" unicode="Q" horiz-adv-x="778" 
d="M561 107q46 44 68 110.5t22 141.5q0 81 -20.5 141t-56.5 100.5t-85 60.5t-107 20q-69 0 -119.5 -27t-83 -72t-48 -103t-15.5 -120q0 -64 15.5 -122t48 -102t83 -70t121.5 -26q38 0 69 8.5t57 23.5l-82 63l36 47zM707 -6l-38 -46l-106 82q-37 -23 -81.5 -36t-98.5 -13
q-83 0 -146 30t-105 81.5t-63 120t-21 146.5q0 75 20.5 143.5t61.5 121t103.5 84t146.5 31.5q76 0 138.5 -25t107 -73t69 -119t24.5 -163q0 -88 -27 -163t-81 -128z" />
    <glyph glyph-name="R" unicode="R" horiz-adv-x="667" 
d="M360 385q38 0 70.5 8t56.5 25.5t38 44.5t14 65q0 40 -14.5 66t-39 41t-56 21t-65.5 6h-216v-277h212zM148 327v-327h-68v720h282q119 0 182 -44.5t63 -144.5q0 -68 -27.5 -108t-89.5 -68q32 -11 50 -32t27 -48t11.5 -57t3.5 -58q1 -41 3.5 -68t6 -44t8.5 -26.5t12 -14.5
v-7h-75q-11 18 -15.5 50t-7 67t-4 68t-5.5 54q-6 29 -19.5 46.5t-32.5 26.5t-42.5 12t-48.5 3h-214z" />
    <glyph glyph-name="S" unicode="S" horiz-adv-x="611" 
d="M109 215q4 -48 21.5 -81.5t45 -54.5t63.5 -30.5t77 -9.5q48 0 83 12t57 32.5t32.5 47.5t10.5 57q0 42 -19 68t-49.5 42.5t-70 26.5t-81 19.5t-81 22.5t-70 35t-49.5 56.5t-19 87.5q0 37 15.5 72t46 62t76.5 43t106 16q61 0 106.5 -17t75.5 -46.5t45 -68.5t15 -83h-65
q0 41 -14.5 71t-39.5 49t-57 28t-66 9q-52 0 -87.5 -14.5t-56.5 -37.5t-29 -51t-3 -56q6 -35 28 -56t54 -34.5t70.5 -22t78.5 -18t77.5 -22.5t66.5 -35t46.5 -56.5t17.5 -86.5q0 -100 -69 -155t-194 -55q-56 0 -104 14.5t-83 44t-54.5 73t-19.5 102.5h66z" />
    <glyph glyph-name="T" unicode="T" 
d="M16 720h524v-58h-228v-662h-68v662h-228v58z" />
    <glyph glyph-name="U" unicode="U" horiz-adv-x="722" 
d="M82 720h68v-429q0 -134 50 -193t161 -59q58 0 98.5 15.5t65.5 47t36 78.5t11 111v429h68v-449q0 -141 -69.5 -215.5t-209.5 -74.5q-141 0 -210 76t-69 214v449z" />
    <glyph glyph-name="V" unicode="V" horiz-adv-x="611" 
d="M18 720h71l217 -640l216 640h71l-250 -720h-75z" />
    <glyph glyph-name="W" unicode="W" horiz-adv-x="889" 
d="M646 96h2l157 624h70l-189 -720h-75l-167 636h-2l-167 -636h-75l-186 720h68l155 -624h2l167 624h76z" />
    <glyph glyph-name="X" unicode="X" horiz-adv-x="611" 
d="M304 318l-209 -318h-77l248 370l-238 350h79l197 -303l198 303h79l-236 -350l247 -370h-78z" />
    <glyph glyph-name="Y" unicode="Y" horiz-adv-x="611" 
d="M302 373l217 347h79l-261 -406v-314h-68v309l-257 411h78z" />
    <glyph glyph-name="Z" unicode="Z" horiz-adv-x="611" 
d="M31 0v57l461 605h-422v58h506v-57l-461 -605h464v-58h-548z" />
    <glyph glyph-name="bracketleft" unicode="[" horiz-adv-x="333" 
d="M91 -191v930h191v-50h-127v-830h125v-50h-189z" />
    <glyph glyph-name="backslash" unicode="\" horiz-adv-x="278" 
d="M-10 739h56l235 -829h-56z" />
    <glyph glyph-name="bracketright" unicode="]" horiz-adv-x="333" 
d="M242 -191h-191v50h127v830h-125v50h189v-930z" />
    <glyph glyph-name="asciicircum" unicode="^" horiz-adv-x="660" 
d="M73 245l230 453h52l231 -453h-57l-201 392l-197 -392h-58z" />
    <glyph glyph-name="underscore" unicode="_" horiz-adv-x="500" 
d="M500 -75v-50h-500v50h500z" />
    <glyph glyph-name="grave" unicode="`" horiz-adv-x="333" 
d="M45 713h78l111 -139h-51z" />
    <glyph glyph-name="a" unicode="a" 
d="M411 272q-38 -16 -77 -21t-78 -8q-69 -5 -107.5 -31t-38.5 -79q0 -24 9.5 -41.5t25 -29t36 -17t41.5 -5.5q36 0 70 9t60.5 27.5t42.5 47t16 67.5v81zM310 302q17 2 40.5 6t38.5 11t18.5 23.5t3.5 30.5q0 46 -29.5 75.5t-99.5 29.5q-31 0 -57 -5.5t-45.5 -19t-32 -36
t-16.5 -56.5h-61q3 46 21 78.5t46.5 53t66 30t79.5 9.5q39 0 73.5 -8.5t60 -27t40 -49.5t14.5 -76v-282q0 -35 12.5 -44.5t50.5 4.5v-47q-7 -2 -20.5 -6t-26.5 -4q-14 0 -27 3q-15 2 -24 9.5t-14.5 18t-7.5 23t-2 26.5q-38 -42 -87 -64t-106 -22q-34 0 -65.5 9t-55.5 28
t-38 46.5t-14 65.5q0 132 181 156z" />
    <glyph glyph-name="b" unicode="b" horiz-adv-x="611" 
d="M139 261q0 -47 11.5 -87.5t33.5 -70t55 -46.5t75 -17q38 0 70 13.5t56 39.5t37.5 63.5t13.5 86.5q2 49 -8 91.5t-32 74.5t-56.5 50.5t-80.5 18.5q-41 0 -73.5 -17.5t-55 -47t-34.5 -69t-12 -83.5zM139 0h-60v720h60v-285q29 48 79.5 72.5t105.5 24.5q59 0 102.5 -22.5
t72 -60t42.5 -87.5t14 -104q0 -57 -13 -107t-41.5 -86.5t-72.5 -57.5t-107 -21q-25 0 -51 7t-50.5 20t-45 32.5t-33.5 45.5h-2v-91z" />
    <glyph glyph-name="c" unicode="c" 
d="M439 355q-16 58 -55 90.5t-99 32.5q-46 0 -79 -19t-54 -50.5t-31 -71t-10 -79.5q0 -41 9.5 -80t30.5 -70t54 -49.5t80 -18.5q67 0 107.5 37t51.5 102h64q-8 -43 -25.5 -78.5t-45 -61t-65.5 -39.5t-87 -14q-62 0 -107 21t-74 57.5t-43 86.5t-14 107q0 54 15.5 103.5
t45.5 87.5t74.5 60.5t102.5 22.5q90 0 145.5 -43t69.5 -134h-61z" />
    <glyph glyph-name="d" unicode="d" horiz-adv-x="611" 
d="M472 261q0 44 -12 83.5t-34.5 69t-55 47t-73.5 17.5q-47 0 -81 -18.5t-56 -50.5t-32 -74.5t-8 -91.5q0 -49 13.5 -86.5t37.5 -63.5t56 -39.5t70 -13.5q42 0 75 17t55 46.5t33.5 70t11.5 87.5zM472 720h60v-720h-60v91h-2q-13 -26 -33.5 -45.5t-45 -32.5t-50.5 -20t-51 -7
q-63 0 -107 21t-72.5 57.5t-41.5 86.5t-13 107q0 54 14 104t42.5 87.5t72 60t102.5 22.5q55 0 105.5 -24.5t79.5 -72.5v285z" />
    <glyph glyph-name="e" unicode="e" 
d="M447 295q0 38 -10.5 71.5t-31 58t-51.5 39t-71 14.5t-70.5 -15t-52 -40t-34.5 -58t-17 -70h338zM109 245q0 -42 11 -79.5t32.5 -65t54.5 -44t76 -16.5q59 0 101 31t56 88h67q-11 -37 -29 -68.5t-45 -55t-64 -36.5t-86 -13q-62 0 -107 21t-74 57.5t-43 86t-14 106.5
t16.5 107t47 87.5t74.5 59t100 21.5q107 0 168 -73.5t60 -213.5h-402z" />
    <glyph glyph-name="f" unicode="f" horiz-adv-x="278" 
d="M20 468v50h77v82q0 62 25 98t85 36q14 0 26 -1t24 -3v-55q-20 5 -36 5q-23 0 -36 -8.5t-19 -22.5t-7.5 -31.5t-1.5 -35.5v-64h100v-50h-100v-468h-60v468h-77z" />
    <glyph glyph-name="g" unicode="g" horiz-adv-x="611" 
d="M472 257q0 47 -11.5 87.5t-33.5 70t-55 46.5t-75 17q-38 0 -70 -13.5t-56 -39.5t-37.5 -63.5t-13.5 -86.5q-2 -49 8 -91.5t32 -74.5t56 -50.5t81 -18.5q41 0 73.5 17.5t55 47t34.5 69t12 83.5zM472 518h60v-468q0 -52 -10.5 -99.5t-37.5 -83.5t-74 -57.5t-121 -21.5
q-57 0 -98 14.5t-67 36.5t-39.5 48.5t-14.5 49.5h64q7 -29 22 -47.5t35.5 -29t45.5 -14.5t52 -4q61 0 98 21t56 55t24.5 77t4.5 88q-29 -48 -79.5 -72.5t-105.5 -24.5q-59 0 -102.5 22.5t-72 60t-42.5 87.5t-14 104q0 57 13 107t41.5 86.5t72.5 57.5t107 21q25 0 51 -7
t50.5 -20t45 -33t33.5 -45h2v91z" />
    <glyph glyph-name="h" unicode="h" 
d="M72 0v720h60v-274q36 38 74.5 62t92.5 24q48 0 89 -16.5t69 -57.5q19 -28 22.5 -57.5t3.5 -61.5v-339h-60v338q0 70 -31 105t-103 35q-28 0 -51 -8.5t-41.5 -22.5t-31.5 -32t-20 -38q-9 -25 -11 -48t-2 -50v-279h-60z" />
    <glyph glyph-name="i" unicode="i" horiz-adv-x="222" 
d="M78 631v89h66v-89h-66zM81 0v518h60v-518h-60z" />
    <glyph glyph-name="j" unicode="j" horiz-adv-x="222" 
d="M151 631h-66v89h66v-89zM148 518v-587q0 -33 -3 -58t-13.5 -42.5t-31 -26t-56.5 -8.5q-22 0 -39 4v53q26 -3 42 -0.5t25 11.5t12.5 24t3.5 35v595h60z" />
    <glyph glyph-name="k" unicode="k" horiz-adv-x="500" 
d="M68 0v720h60v-448l254 246h82l-194 -187l217 -331h-67l-194 289l-98 -93v-196h-60z" />
    <glyph glyph-name="l" unicode="l" horiz-adv-x="222" 
d="M81 0v720h60v-720h-60z" />
    <glyph glyph-name="m" unicode="m" horiz-adv-x="833" 
d="M124 0h-60v518h60v-78h2q23 45 66 68.5t94 23.5q36 0 61 -8t42.5 -21.5t29 -31.5t19.5 -39q26 51 69.5 75.5t99.5 24.5q53 0 84.5 -17.5t48.5 -46t22.5 -65.5t5.5 -76v-327h-60v358q0 56 -23.5 88t-87.5 32q-33 0 -63.5 -14.5t-53.5 -44.5q-10 -13 -16.5 -30.5
t-10.5 -36.5t-5.5 -38t-1.5 -35v-279h-60v358q0 56 -23.5 88t-87.5 32q-33 0 -63.5 -14.5t-53.5 -44.5q-10 -13 -16.5 -30.5t-10.5 -36.5t-5.5 -38t-1.5 -35v-279z" />
    <glyph glyph-name="n" unicode="n" 
d="M132 0h-60v518h60v-72q36 38 74.5 62t92.5 24q48 0 89 -16.5t69 -57.5q19 -28 22.5 -57.5t3.5 -61.5v-339h-60v338q0 70 -31 105t-103 35q-28 0 -51 -8.5t-41.5 -22.5t-31.5 -32t-20 -38q-9 -25 -11 -48t-2 -50v-279z" />
    <glyph glyph-name="o" unicode="o" 
d="M454 259q0 46 -10 86t-31 69.5t-54 46.5t-81 17q-47 0 -80.5 -18.5t-54.5 -49t-31 -70t-10 -81.5q0 -48 11.5 -88.5t33.5 -69.5t55 -45t76 -16q47 0 80.5 18.5t54.5 49.5t31 70t10 81zM278 -14q-50 1 -93.5 18t-76 51t-51.5 85t-19 119q0 57 15 106.5t45 86.5t75 58.5
t105 21.5q61 0 106 -21.5t75 -58t44.5 -86.5t14.5 -107q0 -62 -17 -112t-48.5 -86t-76 -55.5t-98.5 -19.5z" />
    <glyph glyph-name="p" unicode="p" horiz-adv-x="611" 
d="M139 257q0 -44 12 -83.5t34.5 -69t55 -47t73.5 -17.5q46 0 80.5 18.5t56.5 50.5t32 74.5t8 91.5q0 49 -13.5 86.5t-37.5 63.5t-56 39.5t-70 13.5q-42 0 -75 -17t-55 -46.5t-33.5 -70t-11.5 -87.5zM139 -204h-60v722h60v-91h2q13 25 33.5 45t45 33t50.5 20t51 7
q63 0 107 -21t72.5 -57.5t41.5 -86.5t13 -107q0 -54 -14 -104t-42.5 -87.5t-72 -60t-102.5 -22.5q-55 0 -105.5 24.5t-79.5 72.5v-287z" />
    <glyph glyph-name="q" unicode="q" horiz-adv-x="611" 
d="M472 261q0 44 -12 83.5t-34.5 69t-55 47t-73.5 17.5q-47 0 -81 -18.5t-56 -50.5t-32 -74.5t-8 -91.5q0 -49 13.5 -86.5t37.5 -63.5t56 -39.5t70 -13.5q42 0 75 17t55 46.5t33.5 70t11.5 87.5zM472 518h60v-722h-60v287q-29 -48 -79.5 -72.5t-105.5 -24.5
q-59 0 -102.5 22.5t-72 60t-42.5 87.5t-14 104q0 57 13 107t41.5 86.5t72.5 57.5t107 21q25 0 51 -7t50.5 -20t45 -33t33.5 -45h2v91z" />
    <glyph glyph-name="r" unicode="r" horiz-adv-x="333" 
d="M135 0h-60v518h60v-97h2q25 62 64.5 86.5t104.5 24.5v-65q-51 1 -84 -16t-52.5 -46t-27 -68.5t-7.5 -82.5v-254z" />
    <glyph glyph-name="s" unicode="s" horiz-adv-x="500" 
d="M107 162q14 -67 50.5 -94.5t104.5 -27.5q33 0 57 8t39.5 21.5t23.5 30.5t8 36q0 38 -24.5 56.5t-61.5 29t-80 18t-80 22.5t-61.5 43t-24.5 79q0 65 47.5 106.5t134.5 41.5q84 0 136.5 -37.5t63.5 -125.5h-61q-8 60 -45.5 84.5t-94.5 24.5t-87 -24.5t-30 -64.5
q0 -35 24.5 -53.5t61.5 -30t80 -20.5t80 -25.5t61.5 -44.5t24.5 -78q0 -37 -16 -65.5t-44 -47.5t-66.5 -28.5t-84.5 -9.5t-81.5 13.5t-60.5 37.5t-39 56t-16 69h61z" />
    <glyph glyph-name="t" unicode="t" horiz-adv-x="278" 
d="M254 -2q-11 -2 -29 -7t-40 -5q-45 0 -68.5 22.5t-23.5 80.5v379h-73v50h73v144h60v-144h97v-50h-97v-355q0 -19 1 -33t6 -23t15.5 -13t29.5 -4q12 0 24.5 2t24.5 5v-49z" />
    <glyph glyph-name="u" unicode="u" 
d="M423 518h60v-518h-60v72q-12 -14 -27 -29t-34.5 -27.5t-45.5 -21t-60 -8.5q-52 0 -87 14.5t-56.5 40.5t-31 60.5t-9.5 75.5v341h60v-340q0 -67 31 -102.5t102 -35.5q37 0 66.5 14.5t49.5 40.5t31 62t11 79v282z" />
    <glyph glyph-name="v" unicode="v" horiz-adv-x="500" 
d="M17 518h65l168 -444l168 444h65l-201 -518h-67z" />
    <glyph glyph-name="w" unicode="w" horiz-adv-x="722" 
d="M510 80l136 438h61l-168 -518h-64l-113 435h-2l-115 -435h-72l-158 518h60l134 -442l120 442h67z" />
    <glyph glyph-name="x" unicode="x" horiz-adv-x="500" 
d="M252 224l-161 -224h-73l199 268l-183 250h74l143 -206l147 206h76l-187 -250l194 -268h-72z" />
    <glyph glyph-name="y" unicode="y" horiz-adv-x="500" 
d="M68 -141q12 -2 24.5 -4t25.5 -2q25 0 41 16t26.5 38.5t17.5 47t16 41.5l-201 522h67l166 -445l166 445h65l-193 -511q-18 -49 -34.5 -88t-35 -66.5t-41 -42t-53.5 -14.5q-16 0 -30.5 2t-26.5 5v56z" />
    <glyph glyph-name="z" unicode="z" horiz-adv-x="500" 
d="M33 0v53l344 415h-321v50h398v-53l-344 -415h357v-50h-434z" />
    <glyph glyph-name="braceleft" unicode="{" horiz-adv-x="333" 
d="M127 577q0 44 6.5 75t23 50.5t44.5 27.5t71 7q-81 -28 -81 -121v-192q0 -29 -3 -53t-12 -43t-25 -32.5t-42 -20.5v-2q49 -11 65.5 -45t16.5 -90v-206q0 -51 20 -79t68 -42v-2q-44 -1 -73.5 7t-47 26t-24.5 45.5t-7 65.5v204q0 46 -15.5 76t-66.5 40v2q28 8 44 18.5
t24.5 24.5t11 33t2.5 44v182z" />
    <glyph glyph-name="bar" unicode="|" horiz-adv-x="222" 
d="M141 750v-1000h-60v1000h60z" />
    <glyph glyph-name="braceright" unicode="}" horiz-adv-x="333" 
d="M203 395q0 -46 15.5 -76t66.5 -40v-2q-28 -8 -44 -18.5t-24.5 -24.5t-11 -33t-2.5 -44v-182q0 -44 -6.5 -75t-23 -50.5t-44.5 -28t-71 -6.5q81 28 81 121v192q0 29 3 53t12 43t25 32.5t42 20.5v2q-25 6 -41 17t-25 28t-12.5 39.5t-3.5 50.5v206q0 51 -20 79t-68 42v2
q44 1 73.5 -7t47 -26t24.5 -45.5t7 -65.5v-204z" />
    <glyph glyph-name="asciitilde" unicode="~" horiz-adv-x="660" 
d="M221 324q27 0 57.5 -11t59.5 -25q30 -14 56.5 -25t46.5 -11q17 0 32 8.5t27.5 21.5t22.5 28t17 29l40 -34q-11 -20 -24.5 -39.5t-31 -35t-38.5 -25t-46 -9.5q-14 0 -32 4.5t-36.5 11t-36 14t-30.5 12.5q-20 8 -41 19t-43 11q-20 0 -36 -9t-29 -23t-23.5 -30.5
t-19.5 -31.5l-33 47q11 16 24.5 34t30.5 33.5t38 25.5t48 10z" />
    <glyph glyph-name="Euro" 
d="M39 290h61q-1 14 -1.5 27.5t-0.5 27.5v21q0 11 1 22h-78l19 54h64q9 75 32 125t55 81t70.5 44t79.5 13q47 0 80 -11.5t56 -28.5t36.5 -37.5t21.5 -38.5l-28 -76q-9 37 -25.5 63.5t-38.5 43t-48 24t-54 7.5q-39 0 -69 -15.5t-51 -43.5t-34 -66t-19 -84h311l-20 -54h-296
q0 -11 -0.5 -21t-0.5 -21q0 -14 0.5 -28t1.5 -28h259l-20 -54h-233q7 -43 20 -79t34 -62t50 -40.5t67 -14.5q51 0 93.5 29t73.5 80v-84q-28 -35 -71.5 -57t-95.5 -22q-40 0 -78 12.5t-69.5 41.5t-55 77t-33.5 119h-86z" />
    <glyph glyph-name="Euro" unicode="&#x20ac;" 
d="M39 290h61q-1 14 -1.5 27.5t-0.5 27.5v21q0 11 1 22h-78l19 54h64q9 75 32 125t55 81t70.5 44t79.5 13q47 0 80 -11.5t56 -28.5t36.5 -37.5t21.5 -38.5l-28 -76q-9 37 -25.5 63.5t-38.5 43t-48 24t-54 7.5q-39 0 -69 -15.5t-51 -43.5t-34 -66t-19 -84h311l-20 -54h-296
q0 -11 -0.5 -21t-0.5 -21q0 -14 0.5 -28t1.5 -28h259l-20 -54h-233q7 -43 20 -79t34 -62t50 -40.5t67 -14.5q51 0 93.5 29t73.5 80v-84q-28 -35 -71.5 -57t-95.5 -22q-40 0 -78 12.5t-69.5 41.5t-55 77t-33.5 119h-86z" />
    <glyph glyph-name="exclamdown" unicode="&#xa1;" horiz-adv-x="333" 
d="M130 445v87h73v-87h-73zM189 352l14 -315v-224h-73v224l14 315h45z" />
    <glyph glyph-name="cent" unicode="&#xa2;" 
d="M324 473q-10 3 -20 4t-21 1q-46 0 -79 -19t-54 -50.5t-31 -71t-10 -79.5q0 -57 19.5 -109.5t62.5 -80.5zM232 47q12 -3 24.5 -5t26.5 -2q67 0 107.5 37t51.5 102h64q-6 -39 -23 -74t-45 -61.5t-67 -42t-88 -15.5q-19 0 -35.5 2t-32.5 6l-45 -135h-47l49 150
q-66 32 -96.5 98t-30.5 151q0 66 18 117t50 86t75.5 53t94.5 18q16 0 30.5 -1.5t28.5 -3.5l40 120h48l-44 -134q94 -40 112 -158h-61q-18 69 -70 101z" />
    <glyph glyph-name="sterling" unicode="&#xa3;" 
d="M350 365v-42h-151q5 -16 8 -33.5t3 -34.5q0 -28 -8 -54t-21.5 -49.5t-31 -44.5t-35.5 -40l2 -2q19 10 42 18.5t47 8.5q34 0 57 -6.5t43 -14.5t39 -14.5t44 -6.5q35 0 60 17t48 40l34 -51q-22 -20 -41 -33.5t-38.5 -21.5t-42 -11.5t-52.5 -3.5q-18 0 -37.5 7t-41.5 15
t-46 15t-52 7q-29 0 -54.5 -11t-50.5 -22l-35 58q44 32 75 78t31 102q0 46 -21 88h-99v42h81q-6 14 -15.5 29t-17.5 33.5t-14 41.5t-6 53q0 39 14 72.5t42 58t69.5 38.5t97.5 14q49 0 91 -15t72.5 -43t47.5 -68.5t16 -90.5h-66q-3 79 -45.5 121t-114.5 42q-30 0 -59 -8
t-51.5 -24.5t-36 -41.5t-13.5 -58q0 -23 6.5 -42.5t16.5 -38t22 -36.5t22 -37h166z" />
    <glyph glyph-name="currency" unicode="&#xa4;" 
d="M282 481q-39 1 -73 -12.5t-58.5 -38t-38.5 -58t-13 -72.5q-1 -36 13 -68.5t38.5 -57t57 -39t68.5 -14.5q37 0 70.5 14t58 38.5t39 58t14.5 71.5q0 36 -14 68.5t-38 57t-56 39t-68 13.5zM75 152q-24 35 -36 70t-12 78q0 45 11 80t37 71l-43 43l52 53l44 -43q34 26 73 37.5
t81 11.5t77 -13t69 -36l44 43l52 -53l-43 -43q26 -37 37 -73.5t11 -82.5q0 -42 -12.5 -75t-35.5 -68l43 -42l-52 -53l-44 43q-68 -50 -155 -50q-42 0 -77 13.5t-68 36.5l-44 -43l-52 53z" />
    <glyph glyph-name="yen" unicode="&#xa5;" 
d="M277 373l202 347h73l-171 -286h111v-54h-144l-38 -66v-42h182v-54h-182v-218h-64v218h-182v54h182v42l-38 66h-144v54h111l-171 286h76z" />
    <glyph glyph-name="brokenbar" unicode="&#xa6;" horiz-adv-x="222" 
d="M141 175v-350h-60v350h60zM141 675v-350h-60v350h60z" />
    <glyph glyph-name="section" unicode="&#xa7;" 
d="M190 447q-40 -17 -64 -42t-24 -62q0 -19 8 -35t20 -29.5t27 -25t30 -21.5l178 -115q16 9 32 20t29 25t20.5 30.5t7.5 37.5q0 20 -8.5 36.5t-22 30t-29.5 24.5t-31 20zM150 184q-48 30 -75 65t-27 86t31 88t76 56q-23 26 -38 52t-15 63q0 29 11.5 55.5t34.5 46.5t57 31.5
t78 11.5q84 0 129 -48t44 -131h-54q-2 63 -31 94t-93 31q-48 0 -80 -23.5t-32 -73.5q0 -34 25.5 -61t63.5 -51.5t82 -48t82 -50.5t63.5 -60.5t25.5 -76.5q0 -29 -9 -51.5t-24 -41t-35 -33.5t-42 -30q5 -5 15 -14.5t19.5 -23t16.5 -32t7 -40.5q0 -38 -14 -67t-38 -48.5
t-56 -29.5t-68 -10q-85 0 -133.5 49t-52.5 133h61q0 -62 31.5 -95t94.5 -33q21 0 41 6t35.5 18t25 29.5t9.5 40.5q0 24 -10.5 43.5t-27 36t-36 30t-37.5 25.5z" />
    <glyph glyph-name="dieresis" unicode="&#xa8;" horiz-adv-x="333" 
d="M219 686h65v-102h-65v102zM60 686h65v-102h-65v102z" />
    <glyph glyph-name="copyright" unicode="&#xa9;" horiz-adv-x="800" 
d="M593 292q-3 -34 -18.5 -61.5t-39.5 -46.5t-54 -29t-63 -10q-48 0 -86.5 17t-66 46t-42.5 69t-15 87t14 86.5t41 68.5t65.5 45.5t86.5 16.5q69 0 118 -37t60 -106h-54q-8 45 -43 72t-80 27q-38 0 -66 -13.5t-46.5 -37t-28 -55t-9.5 -66.5q0 -34 10 -66t29.5 -56.5
t47.5 -39t65 -14.5q22 0 42.5 7t37 20.5t27.5 32.5t14 43h54zM401 31q69 0 127.5 25.5t100.5 70t66 104.5t24 130q0 69 -24 129t-66 104t-100.5 69.5t-127.5 25.5t-128 -25.5t-101.5 -69.5t-66.5 -104t-24 -129q0 -70 24 -130t66.5 -104.5t101.5 -70t128 -25.5zM401 -19
q-79 0 -148 30t-120.5 81.5t-81.5 120.5t-30 148q0 78 30 147t81.5 120t120.5 81t148 30q78 0 147 -30t120.5 -81t81 -120t29.5 -147q0 -79 -29.5 -148t-81 -120.5t-120.5 -81.5t-147 -30z" />
    <glyph glyph-name="ordfeminine" unicode="&#xaa;" horiz-adv-x="334" 
d="M245 583q-25 -10 -50 -13t-51 -5q-45 -3 -71 -18.5t-26 -47.5q0 -29 23.5 -43.5t51.5 -14.5q23 0 45 5.5t39.5 17t28 29t10.5 41.5v49zM179 601q11 1 26.5 3t25.5 7q10 4 12 14t2 18q0 28 -19.5 47t-64.5 19q-41 0 -67 -16t-31 -57h-40q5 55 44 79t95 24q25 0 47.5 -5
t39 -16.5t26 -30t9.5 -45.5v-169q0 -21 8 -26.5t33 2.5v-28q-9 -3 -18.5 -5t-29.5 0q-20 3 -25.5 16.5t-6.5 30.5q-49 -52 -125 -52q-22 0 -42.5 5.5t-36 16.5t-24.5 27.5t-9 39.5q0 79 117 94z" />
    <glyph glyph-name="guillemotleft" unicode="&#xab;" 
d="M113 291l146 113v-63l-104 -82l104 -80v-62l-146 111v63zM297 291l146 113v-63l-104 -82l104 -80v-62l-146 111v63z" />
    <glyph glyph-name="logicalnot" unicode="&#xac;" horiz-adv-x="660" 
d="M516 318h-436v60h500v-266h-64v206z" />
    <glyph glyph-name="registered" unicode="&#xae;" horiz-adv-x="800" 
d="M391 385h48t48.5 6t37 22t14.5 48q0 25 -9.5 39.5t-24.5 22t-34 10t-38 2.5h-121v-150h79zM590 149h-62l-121 195h-95v-195h-52v423h185q84 0 117 -30t33 -82q0 -31 -10 -53t-28 -35.5t-42.5 -20t-52.5 -7.5zM401 31q69 0 127.5 25.5t100.5 70t66 104.5t24 130
q0 69 -24 129t-66 104t-100.5 69.5t-127.5 25.5t-128 -25.5t-101.5 -69.5t-66.5 -104t-24 -129q0 -70 24 -130t66.5 -104.5t101.5 -70t128 -25.5zM401 -19q-79 0 -148 30t-120.5 81.5t-81.5 120.5t-30 148q0 78 30 147t81.5 120t120.5 81t148 30q78 0 147 -30t120.5 -81
t81 -120t29.5 -147q0 -79 -29.5 -148t-81 -120.5t-120.5 -81.5t-147 -30z" />
    <glyph glyph-name="macron" unicode="&#xaf;" horiz-adv-x="333" 
d="M23 657h296v-45h-296v45z" />
    <glyph glyph-name="macron" unicode="&#x2c9;" horiz-adv-x="333" 
d="M23 657h296v-45h-296v45z" />
    <glyph glyph-name="degree" unicode="&#xb0;" horiz-adv-x="400" 
d="M310 555q0 22 -9 42t-24 35t-35 24t-43 9t-42.5 -9t-34.5 -24t-23.5 -35t-8.5 -42q0 -23 8.5 -43t23.5 -35t35 -23.5t43 -8.5q22 0 42 8.5t35 23.5t24 35t9 43zM350 555q0 -31 -12 -58.5t-32.5 -47.5t-47.5 -32t-58 -12t-58.5 12t-47.5 32t-32 47.5t-12 58.5t11.5 58
t32 47.5t48 32.5t58.5 12t58 -12t47.5 -32.5t32.5 -47.5t12 -58z" />
    <glyph glyph-name="plusminus" unicode="&#xb1;" horiz-adv-x="660" 
d="M80 60h500v-60h-500v60zM300 500h60v-170h220v-60h-220v-170h-60v170h-220v60h220v170z" />
    <glyph glyph-name="twosuperior" unicode="&#xb2;" horiz-adv-x="333" 
d="M28 600q0 63 40.5 101t108.5 38q69 0 105 -34t36 -83q0 -42 -21.5 -70t-52.5 -48t-65.5 -36t-59.5 -34q-23 -16 -40.5 -35.5t-19.5 -50.5h255v-32h-299q0 30 6.5 55t28.5 48q24 25 50 43t50.5 32t47 26t39 26t26.5 31.5t10 42.5q0 42 -29.5 64.5t-71.5 22.5
q-23 0 -41.5 -8.5t-32 -23.5t-20.5 -34.5t-6 -40.5h-44z" />
    <glyph glyph-name="threesuperior" unicode="&#xb3;" horiz-adv-x="333" 
d="M133 551q29 0 53 3.5t41.5 12.5t27 25t9.5 40q0 39 -29 57t-68 18q-45 0 -72 -25.5t-27 -65.5h-41q0 29 10.5 52t33.5 43q22 18 48.5 23t55.5 5q27 0 51 -6.5t41.5 -19.5t28 -32.5t10.5 -45.5q0 -68 -65 -95q25 -7 40.5 -18.5t24.5 -26t12.5 -29.5t3.5 -30
q0 -53 -38 -89.5t-110 -38.5q-40 0 -69 6.5t-48.5 21.5t-30.5 40t-15 62h42q0 -48 31.5 -73t82.5 -25q25 0 46 8t36.5 21t23.5 30.5t7 35.5q-1 26 -12.5 43t-31.5 27t-46.5 13.5t-56.5 1.5v31z" />
    <glyph glyph-name="acute" unicode="&#xb4;" horiz-adv-x="333" 
d="M109 574l111 139h77l-137 -139h-51z" />
    <glyph glyph-name="mu" unicode="&#xb5;" 
d="M423 518h60v-518h-60v72q-12 -14 -27 -29t-34.5 -27.5t-45.5 -21t-60 -8.5q-42 0 -73 10t-51 22v-222h-60v722h60v-340q0 -67 31 -102.5t102 -35.5q37 0 66.5 14.5t49.5 40.5t31 62t11 79v282z" />
    <glyph glyph-name="mu" unicode="&#x3bc;" 
d="M423 518h60v-518h-60v72q-12 -14 -27 -29t-34.5 -27.5t-45.5 -21t-60 -8.5q-42 0 -73 10t-51 22v-222h-60v722h60v-340q0 -67 31 -102.5t102 -35.5q37 0 66.5 14.5t49.5 40.5t31 62t11 79v282z" />
    <glyph glyph-name="paragraph" unicode="&#xb6;" horiz-adv-x="650" 
d="M258 336q-38 0 -73 15t-61.5 41t-42 60.5t-15.5 73.5q0 94 58.5 144t164.5 50h217v-866h-60v799h-128v-799h-60v482z" />
    <glyph glyph-name="periodcentered" unicode="&#xb7;" horiz-adv-x="278" 
d="M139 398q20 0 34 -14t14 -34t-14 -34.5t-34 -14.5t-34.5 14.5t-14.5 34.5t15 34t34 14z" />
    <glyph glyph-name="periodcentered" unicode="&#x2219;" horiz-adv-x="278" 
d="M139 398q20 0 34 -14t14 -34t-14 -34.5t-34 -14.5t-34.5 14.5t-14.5 34.5t15 34t34 14z" />
    <glyph glyph-name="cedilla" unicode="&#xb8;" horiz-adv-x="333" 
d="M69 -158q16 -5 31.5 -10t32.5 -5q11 0 22.5 2.5t21.5 8t16 14.5t6 22q0 20 -15.5 29.5t-34.5 9.5q-11 0 -22 -2.5t-22 -5.5l-15 13l60 82h39l-47 -59l18 4t18 2q33 0 53.5 -16.5t23.5 -35.5q5 -27 -2.5 -46.5t-23.5 -31.5t-38 -18t-46 -6q-23 0 -46 5.5t-45 13.5z" />
    <glyph glyph-name="onesuperior" unicode="&#xb9;" horiz-adv-x="333" 
d="M205 630h-118v26q26 1 47.5 4t37 11.5t26.5 24.5t16 43h33v-423h-42v314z" />
    <glyph glyph-name="ordmasculine" unicode="&#xba;" horiz-adv-x="334" 
d="M50 575q0 -58 30 -96t87 -38q31 0 53 11.5t36 30.5t21 43t7 49q0 27 -6.5 51.5t-21 43t-36.5 29t-53 10.5t-53 -11.5t-36.5 -30.5t-21 -43t-6.5 -49zM167 411q-32 1 -60.5 11.5t-49.5 31t-33.5 50.5t-12.5 71q0 34 9.5 64t29 52t49 35t68.5 13t68.5 -13t49 -35t29 -52
t9.5 -64q0 -74 -42.5 -119t-113.5 -45z" />
    <glyph glyph-name="guillemotright" unicode="&#xbb;" 
d="M259 230l-146 -113v63l104 82l-104 80v62l146 -111v-63zM443 230l-146 -113v63l104 82l-104 80v62l146 -111v-63z" />
    <glyph glyph-name="onequarter" unicode="&#xbc;" horiz-adv-x="834" 
d="M521 137h168v224zM158 630h-118v26q26 1 47.5 4t37 11.5t26.5 24.5t16 43h33v-423h-42v314zM168 -14l444 719h51l-444 -719h-51zM689 104h-209v33l213 282h38v-282h63v-33h-63v-104h-42v104z" />
    <glyph glyph-name="onehalf" unicode="&#xbd;" horiz-adv-x="834" 
d="M158 630h-118v26q26 1 47.5 4t37 11.5t26.5 24.5t16 43h33v-423h-42v314zM128 -14l444 719h51l-444 -719h-51zM504 284q0 63 40.5 101t108.5 38q69 0 105 -34t36 -83q0 -42 -21.5 -70t-52.5 -48t-65.5 -36t-59.5 -34q-23 -16 -40.5 -35.5t-19.5 -50.5h255v-32h-299
q0 30 6.5 55t28.5 48q24 25 50 43t50.5 32t47 26t39 26t26.5 31.5t10 42.5q0 42 -29.5 64.5t-71.5 22.5q-23 0 -41.5 -8.5t-32 -23.5t-20.5 -34.5t-6 -40.5h-44z" />
    <glyph glyph-name="threequarters" unicode="&#xbe;" horiz-adv-x="834" 
d="M521 137h168v224zM208 -14l444 719h51l-444 -719h-51zM162 551q29 0 53 3.5t41.5 12.5t27 25t9.5 40q0 39 -29 57t-68 18q-45 0 -72 -25.5t-27 -65.5h-41q0 29 10.5 52t33.5 43q22 18 48.5 23t55.5 5q27 0 51 -6.5t41.5 -19.5t28 -32.5t10.5 -45.5q0 -68 -65 -95
q25 -7 40.5 -18.5t24.5 -26t12.5 -29.5t3.5 -30q0 -53 -38 -89.5t-110 -38.5q-40 0 -69 6.5t-48.5 21.5t-30.5 40t-15 62h42q0 -48 31.5 -73t82.5 -25q25 0 46 8t36.5 21t23.5 30.5t7 35.5q-1 26 -12.5 43t-31.5 27t-46.5 13.5t-56.5 1.5v31zM689 104h-209v33l213 282h38
v-282h63v-33h-63v-104h-42v104z" />
    <glyph glyph-name="questiondown" unicode="&#xbf;" horiz-adv-x="500" 
d="M290 532v-88h-73v88h73zM462 16q4 -50 -11 -91t-44.5 -70.5t-70.5 -45.5t-90 -16q-51 0 -91.5 13.5t-68.5 38t-43 59.5t-15 77q0 43 19.5 75t47 59t58 54t52.5 62q17 26 19 57.5t2 61.5h58q1 -55 -7.5 -100t-47.5 -86q-22 -23 -46 -45t-44.5 -44.5t-33.5 -46.5t-13 -52
q0 -27 10.5 -50.5t30.5 -41t49 -27.5t66 -10t66 13t48.5 36t29.5 53.5t9 66.5h61z" />
    <glyph glyph-name="Agrave" unicode="&#xc0;" horiz-adv-x="667" 
d="M212 915h78l111 -139h-51zM193 284h282l-141 378zM15 0l283 720h77l276 -720h-70l-83 226h-328l-85 -226h-70z" />
    <glyph glyph-name="Aacute" unicode="&#xc1;" horiz-adv-x="667" 
d="M276 776l111 139h77l-137 -139h-51zM193 284h282l-141 378zM15 0l283 720h77l276 -720h-70l-83 226h-328l-85 -226h-70z" />
    <glyph glyph-name="Acircumflex" unicode="&#xc2;" horiz-adv-x="667" 
d="M256 776h-65l114 139h67l113 -139h-65l-82 102zM193 284h282l-141 378zM15 0l283 720h77l276 -720h-70l-83 226h-328l-85 -226h-70z" />
    <glyph glyph-name="Atilde" unicode="&#xc3;" horiz-adv-x="667" 
d="M183 788q2 18 7 32.5t13 26.5q15 21 38.5 31.5t49.5 4.5q14 -3 30 -10t32.5 -14.5t32 -13t28.5 -5.5q22 0 31 16t13 34h38q-1 -10 -3.5 -19.5t-4.5 -18.5q-11 -24 -28 -42t-46 -18q-21 0 -39.5 7t-36.5 15.5t-35.5 15.5t-34.5 7q-23 0 -33 -15t-16 -34h-36zM193 284h282
l-141 378zM15 0l283 720h77l276 -720h-70l-83 226h-328l-85 -226h-70z" />
    <glyph glyph-name="Adieresis" unicode="&#xc4;" horiz-adv-x="667" 
d="M386 888h65v-102h-65v102zM227 888h65v-102h-65v102zM193 284h282l-141 378zM15 0l283 720h77l276 -720h-70l-83 226h-328l-85 -226h-70z" />
    <glyph glyph-name="Aring" unicode="&#xc5;" horiz-adv-x="667" 
d="M354 813q26 0 46 20t20 46t-19.5 46.5t-46.5 20.5t-47 -20t-20 -47t20.5 -46.5t46.5 -19.5zM354 780q-20 0 -38.5 8t-32 21.5t-21.5 31.5t-8 38t8 38t22 32t32 22t38 8t38 -8t31.5 -22t21.5 -32t8 -38t-8 -38t-21.5 -31.5t-31.5 -21.5t-38 -8zM193 284h282l-141 378z
M15 0l283 720h77l276 -720h-70l-83 226h-328l-85 -226h-70z" />
    <glyph glyph-name="AE" unicode="&#xc6;" horiz-adv-x="1000" 
d="M197 284h275v378h-114zM5 0l313 720h630v-58h-408v-260h371v-58h-371v-286h420v-58h-488v226h-303l-96 -226h-68z" />
    <glyph glyph-name="Ccedilla" unicode="&#xc7;" horiz-adv-x="722" 
d="M592 511q-21 92 -78 131t-149 39q-65 0 -112 -26t-77.5 -70t-45 -101.5t-14.5 -121.5q0 -60 12.5 -118t41.5 -103.5t78 -73.5t123 -28q46 0 84 15t66.5 41.5t48 62.5t29.5 79h71q-12 -51 -34 -96.5t-58 -80.5t-87.5 -56t-120.5 -22l-33 -41l18 4t18 2q33 0 53.5 -16.5
t23.5 -35.5q5 -27 -2.5 -46.5t-23.5 -31.5t-38 -18t-46 -6q-23 0 -46 5.5t-45 13.5l15 30q16 -5 31.5 -10t32.5 -5q11 0 22.5 2.5t21.5 8t16 14.5t6 22q0 20 -15.5 29.5t-34.5 9.5q-11 0 -22 -2.5t-22 -5.5l-15 13l47 64q-76 5 -130 37t-88 83.5t-50 117.5t-16 140
q0 103 25.5 175t70.5 117.5t106 66t133 20.5q55 0 102.5 -14.5t84 -43.5t60 -71.5t32.5 -98.5h-70z" />
    <glyph glyph-name="Egrave" unicode="&#xc8;" horiz-adv-x="611" 
d="M184 915h78l111 -139h-51zM81 0v720h479v-58h-411v-260h371v-58h-371v-286h421v-58h-489z" />
    <glyph glyph-name="Eacute" unicode="&#xc9;" horiz-adv-x="611" 
d="M248 776l111 139h77l-137 -139h-51zM81 0v720h479v-58h-411v-260h371v-58h-371v-286h421v-58h-489z" />
    <glyph glyph-name="Ecircumflex" unicode="&#xca;" horiz-adv-x="611" 
d="M228 776h-65l114 139h67l113 -139h-65l-82 102zM81 0v720h479v-58h-411v-260h371v-58h-371v-286h421v-58h-489z" />
    <glyph glyph-name="Edieresis" unicode="&#xcb;" horiz-adv-x="611" 
d="M199 888h65v-102h-65v102zM358 888h65v-102h-65v102zM81 0v720h479v-58h-411v-260h371v-58h-371v-286h421v-58h-489z" />
    <glyph glyph-name="Igrave" unicode="&#xcc;" horiz-adv-x="278" 
d="M18 915h78l111 -139h-51zM105 0v720h68v-720h-68z" />
    <glyph glyph-name="Iacute" unicode="&#xcd;" horiz-adv-x="278" 
d="M61 776l111 139h77l-137 -139h-51zM105 0v720h68v-720h-68z" />
    <glyph glyph-name="Icircumflex" unicode="&#xce;" horiz-adv-x="278" 
d="M41 776h-65l114 139h67l113 -139h-65l-82 102zM105 0v720h68v-720h-68z" />
    <glyph glyph-name="Idieresis" unicode="&#xcf;" horiz-adv-x="278" 
d="M12 888h65v-102h-65v102zM171 888h65v-102h-65v102zM105 0v720h68v-720h-68z" />
    <glyph glyph-name="Eth" unicode="&#xd0;" horiz-adv-x="722" 
d="M149 411h161v-58h-161v-295h163q46 0 86.5 5.5t82.5 27.5q36 18 59 49t36.5 67.5t19 76.5t5.5 77q0 39 -5 79.5t-19 77t-38 67t-62 50.5q-32 17 -76 22t-89 5h-163v-251zM81 720h246q30 0 59 -1.5t57 -7t54.5 -16.5t51.5 -29q36 -26 59 -63.5t36.5 -79t19 -84t5.5 -78.5
t-4.5 -73t-14.5 -72.5t-26.5 -68t-41.5 -59.5q-25 -28 -54.5 -45t-62 -26.5t-67.5 -13t-71 -3.5h-246v353h-71v58h71v309z" />
    <glyph glyph-name="Ntilde" unicode="&#xd1;" horiz-adv-x="722" 
d="M211 788q2 18 7 32.5t13 26.5q15 21 38.5 31.5t49.5 4.5q14 -3 30 -10t32.5 -14.5t32 -13t28.5 -5.5q22 0 31 16t13 34h38q-1 -10 -3.5 -19.5t-4.5 -18.5q-11 -24 -28 -42t-46 -18q-21 0 -39.5 7t-36.5 15.5t-35.5 15.5t-34.5 7q-23 0 -33 -15t-16 -34h-36zM149 628h-2
v-628h-68v720h77l416 -629h2v629h68v-720h-79z" />
    <glyph glyph-name="Ograve" unicode="&#xd2;" horiz-adv-x="778" 
d="M268 915h78l111 -139h-51zM389 39q70 0 120.5 26.5t83 70.5t48 102t15.5 121q0 75 -18.5 134.5t-53.5 101.5t-85 64t-112 22q-69 0 -119.5 -27t-83 -71.5t-48 -102.5t-15.5 -121q0 -64 15.5 -122t48 -102t83 -70t121.5 -26zM53 359q0 79 21.5 148t63.5 120.5t104 81.5
t143 30q84 0 147.5 -29.5t106 -81t64 -121t21.5 -148.5q0 -78 -21.5 -146.5t-63.5 -120t-105 -81.5t-146 -30t-146 30t-105 81.5t-63 120t-21 146.5z" />
    <glyph glyph-name="Oacute" unicode="&#xd3;" horiz-adv-x="778" 
d="M332 776l111 139h77l-137 -139h-51zM389 39q70 0 120.5 26.5t83 70.5t48 102t15.5 121q0 75 -18.5 134.5t-53.5 101.5t-85 64t-112 22q-69 0 -119.5 -27t-83 -71.5t-48 -102.5t-15.5 -121q0 -64 15.5 -122t48 -102t83 -70t121.5 -26zM53 359q0 79 21.5 148t63.5 120.5
t104 81.5t143 30q84 0 147.5 -29.5t106 -81t64 -121t21.5 -148.5q0 -78 -21.5 -146.5t-63.5 -120t-105 -81.5t-146 -30t-146 30t-105 81.5t-63 120t-21 146.5z" />
    <glyph glyph-name="Ocircumflex" unicode="&#xd4;" horiz-adv-x="778" 
d="M312 776h-65l114 139h67l113 -139h-65l-82 102zM389 39q70 0 120.5 26.5t83 70.5t48 102t15.5 121q0 75 -18.5 134.5t-53.5 101.5t-85 64t-112 22q-69 0 -119.5 -27t-83 -71.5t-48 -102.5t-15.5 -121q0 -64 15.5 -122t48 -102t83 -70t121.5 -26zM53 359q0 79 21.5 148
t63.5 120.5t104 81.5t143 30q84 0 147.5 -29.5t106 -81t64 -121t21.5 -148.5q0 -78 -21.5 -146.5t-63.5 -120t-105 -81.5t-146 -30t-146 30t-105 81.5t-63 120t-21 146.5z" />
    <glyph glyph-name="Otilde" unicode="&#xd5;" horiz-adv-x="778" 
d="M239 788q2 18 7 32.5t13 26.5q15 21 38.5 31.5t49.5 4.5q14 -3 30 -10t32.5 -14.5t32 -13t28.5 -5.5q22 0 31 16t13 34h38q-1 -10 -3.5 -19.5t-4.5 -18.5q-11 -24 -28 -42t-46 -18q-21 0 -39.5 7t-36.5 15.5t-35.5 15.5t-34.5 7q-23 0 -33 -15t-16 -34h-36zM389 39
q70 0 120.5 26.5t83 70.5t48 102t15.5 121q0 75 -18.5 134.5t-53.5 101.5t-85 64t-112 22q-69 0 -119.5 -27t-83 -71.5t-48 -102.5t-15.5 -121q0 -64 15.5 -122t48 -102t83 -70t121.5 -26zM53 359q0 79 21.5 148t63.5 120.5t104 81.5t143 30q84 0 147.5 -29.5t106 -81
t64 -121t21.5 -148.5q0 -78 -21.5 -146.5t-63.5 -120t-105 -81.5t-146 -30t-146 30t-105 81.5t-63 120t-21 146.5z" />
    <glyph glyph-name="Odieresis" unicode="&#xd6;" horiz-adv-x="778" 
d="M442 888h65v-102h-65v102zM283 888h65v-102h-65v102zM389 39q70 0 120.5 26.5t83 70.5t48 102t15.5 121q0 75 -18.5 134.5t-53.5 101.5t-85 64t-112 22q-69 0 -119.5 -27t-83 -71.5t-48 -102.5t-15.5 -121q0 -64 15.5 -122t48 -102t83 -70t121.5 -26zM53 359
q0 79 21.5 148t63.5 120.5t104 81.5t143 30q84 0 147.5 -29.5t106 -81t64 -121t21.5 -148.5q0 -78 -21.5 -146.5t-63.5 -120t-105 -81.5t-146 -30t-146 30t-105 81.5t-63 120t-21 146.5z" />
    <glyph glyph-name="multiply" unicode="&#xd7;" horiz-adv-x="660" 
d="M120 6l-37 36l211 211l-211 211l37 36l211 -210l210 210l37 -36l-210 -211l210 -211l-37 -36l-210 210z" />
    <glyph glyph-name="Oslash" unicode="&#xd8;" horiz-adv-x="778" 
d="M207 107q32 -32 76.5 -50t102.5 -18q70 0 120.5 26t83 70.5t48 102.5t15.5 121q0 53 -11.5 105t-37.5 96zM572 604q-29 32 -74 54.5t-114 22.5t-119.5 -27t-83 -72t-48 -103t-15.5 -120q0 -60 13.5 -114t42.5 -98zM697 747l39 -35l-87 -100q29 -32 50.5 -97.5
t21.5 -155.5q0 -78 -21.5 -146.5t-63.5 -120t-105 -81.5t-146 -30q-69 0 -123 20.5t-96 58.5l-85 -97l-39 34l89 101q-41 51 -61 117.5t-20 143.5q0 80 22.5 149.5t65 120.5t104 80.5t140.5 29.5q68 0 126.5 -20.5t105.5 -66.5z" />
    <glyph glyph-name="Ugrave" unicode="&#xd9;" horiz-adv-x="722" 
d="M240 915h78l111 -139h-51zM82 720h68v-429q0 -134 50 -193t161 -59q58 0 98.5 15.5t65.5 47t36 78.5t11 111v429h68v-449q0 -141 -69.5 -215.5t-209.5 -74.5q-141 0 -210 76t-69 214v449z" />
    <glyph glyph-name="Uacute" unicode="&#xda;" horiz-adv-x="722" 
d="M304 776l111 139h77l-137 -139h-51zM82 720h68v-429q0 -134 50 -193t161 -59q58 0 98.5 15.5t65.5 47t36 78.5t11 111v429h68v-449q0 -141 -69.5 -215.5t-209.5 -74.5q-141 0 -210 76t-69 214v449z" />
    <glyph glyph-name="Ucircumflex" unicode="&#xdb;" horiz-adv-x="722" 
d="M284 776h-65l114 139h67l113 -139h-65l-82 102zM82 720h68v-429q0 -134 50 -193t161 -59q58 0 98.5 15.5t65.5 47t36 78.5t11 111v429h68v-449q0 -141 -69.5 -215.5t-209.5 -74.5q-141 0 -210 76t-69 214v449z" />
    <glyph glyph-name="Udieresis" unicode="&#xdc;" horiz-adv-x="722" 
d="M255 888h65v-102h-65v102zM414 888h65v-102h-65v102zM82 720h68v-429q0 -134 50 -193t161 -59q58 0 98.5 15.5t65.5 47t36 78.5t11 111v429h68v-449q0 -141 -69.5 -215.5t-209.5 -74.5q-141 0 -210 76t-69 214v449z" />
    <glyph glyph-name="Yacute" unicode="&#xdd;" horiz-adv-x="611" 
d="M248 776l111 139h77l-137 -139h-51zM302 373l217 347h79l-261 -406v-314h-68v309l-257 411h78z" />
    <glyph glyph-name="Thorn" unicode="&#xde;" horiz-adv-x="611" 
d="M302 226q48 0 86 6t64.5 22.5t41 45t14.5 74.5q0 68 -44.5 103t-141.5 35h-176v-286h156zM78 0v720h68v-150h195q70 0 115.5 -16t72 -44t37 -64.5t10.5 -76.5q0 -60 -24.5 -99t-63.5 -61.5t-88.5 -31.5t-99.5 -9h-154v-168h-68z" />
    <glyph glyph-name="germandbls" unicode="&#xdf;" horiz-adv-x="500" 
d="M211 425q33 1 62 7.5t50 21t33 37.5t12 58q0 56 -29.5 93.5t-96.5 37.5q-44 0 -69.5 -10.5t-39 -30t-17.5 -46.5t-4 -60v-533h-60v544q0 93 46 141.5t141 48.5q43 0 78.5 -13t61 -37t39.5 -58.5t14 -77.5q0 -48 -23 -82.5t-61 -62.5q28 -10 49 -28.5t34.5 -42.5t20.5 -52
t7 -56q0 -117 -55.5 -177.5t-155.5 -60.5q-22 0 -37 5v53q37 -7 70 0t58.5 26.5t40.5 51.5t15 77q0 95 -44 135.5t-140 40.5v50z" />
    <glyph glyph-name="agrave" unicode="&#xe0;" 
d="M157 713h78l111 -139h-51zM411 272q-38 -16 -77 -21t-78 -8q-69 -5 -107.5 -31t-38.5 -79q0 -24 9.5 -41.5t25 -29t36 -17t41.5 -5.5q36 0 70 9t60.5 27.5t42.5 47t16 67.5v81zM310 302q17 2 40.5 6t38.5 11t18.5 23.5t3.5 30.5q0 46 -29.5 75.5t-99.5 29.5
q-31 0 -57 -5.5t-45.5 -19t-32 -36t-16.5 -56.5h-61q3 46 21 78.5t46.5 53t66 30t79.5 9.5q39 0 73.5 -8.5t60 -27t40 -49.5t14.5 -76v-282q0 -35 12.5 -44.5t50.5 4.5v-47q-7 -2 -20.5 -6t-26.5 -4q-14 0 -27 3q-15 2 -24 9.5t-14.5 18t-7.5 23t-2 26.5q-38 -42 -87 -64
t-106 -22q-34 0 -65.5 9t-55.5 28t-38 46.5t-14 65.5q0 132 181 156z" />
    <glyph glyph-name="aacute" unicode="&#xe1;" 
d="M221 574l111 139h77l-137 -139h-51zM411 272q-38 -16 -77 -21t-78 -8q-69 -5 -107.5 -31t-38.5 -79q0 -24 9.5 -41.5t25 -29t36 -17t41.5 -5.5q36 0 70 9t60.5 27.5t42.5 47t16 67.5v81zM310 302q17 2 40.5 6t38.5 11t18.5 23.5t3.5 30.5q0 46 -29.5 75.5t-99.5 29.5
q-31 0 -57 -5.5t-45.5 -19t-32 -36t-16.5 -56.5h-61q3 46 21 78.5t46.5 53t66 30t79.5 9.5q39 0 73.5 -8.5t60 -27t40 -49.5t14.5 -76v-282q0 -35 12.5 -44.5t50.5 4.5v-47q-7 -2 -20.5 -6t-26.5 -4q-14 0 -27 3q-15 2 -24 9.5t-14.5 18t-7.5 23t-2 26.5q-38 -42 -87 -64
t-106 -22q-34 0 -65.5 9t-55.5 28t-38 46.5t-14 65.5q0 132 181 156z" />
    <glyph glyph-name="acircumflex" unicode="&#xe2;" 
d="M201 574h-65l114 139h67l113 -139h-65l-82 102zM411 272q-38 -16 -77 -21t-78 -8q-69 -5 -107.5 -31t-38.5 -79q0 -24 9.5 -41.5t25 -29t36 -17t41.5 -5.5q36 0 70 9t60.5 27.5t42.5 47t16 67.5v81zM310 302q17 2 40.5 6t38.5 11t18.5 23.5t3.5 30.5q0 46 -29.5 75.5
t-99.5 29.5q-31 0 -57 -5.5t-45.5 -19t-32 -36t-16.5 -56.5h-61q3 46 21 78.5t46.5 53t66 30t79.5 9.5q39 0 73.5 -8.5t60 -27t40 -49.5t14.5 -76v-282q0 -35 12.5 -44.5t50.5 4.5v-47q-7 -2 -20.5 -6t-26.5 -4q-14 0 -27 3q-15 2 -24 9.5t-14.5 18t-7.5 23t-2 26.5
q-38 -42 -87 -64t-106 -22q-34 0 -65.5 9t-55.5 28t-38 46.5t-14 65.5q0 132 181 156z" />
    <glyph glyph-name="atilde" unicode="&#xe3;" 
d="M128 586q2 18 7 32.5t13 26.5q15 21 38.5 31.5t49.5 4.5q14 -3 30 -10t32.5 -14.5t32 -13t28.5 -5.5q22 0 31 16t13 34h38q-1 -10 -3.5 -19.5t-4.5 -18.5q-11 -24 -28 -42t-46 -18q-21 0 -39.5 7t-36.5 15.5t-35.5 15.5t-34.5 7q-23 0 -33 -15t-16 -34h-36zM411 272
q-38 -16 -77 -21t-78 -8q-69 -5 -107.5 -31t-38.5 -79q0 -24 9.5 -41.5t25 -29t36 -17t41.5 -5.5q36 0 70 9t60.5 27.5t42.5 47t16 67.5v81zM310 302q17 2 40.5 6t38.5 11t18.5 23.5t3.5 30.5q0 46 -29.5 75.5t-99.5 29.5q-31 0 -57 -5.5t-45.5 -19t-32 -36t-16.5 -56.5h-61
q3 46 21 78.5t46.5 53t66 30t79.5 9.5q39 0 73.5 -8.5t60 -27t40 -49.5t14.5 -76v-282q0 -35 12.5 -44.5t50.5 4.5v-47q-7 -2 -20.5 -6t-26.5 -4q-14 0 -27 3q-15 2 -24 9.5t-14.5 18t-7.5 23t-2 26.5q-38 -42 -87 -64t-106 -22q-34 0 -65.5 9t-55.5 28t-38 46.5t-14 65.5
q0 132 181 156z" />
    <glyph glyph-name="adieresis" unicode="&#xe4;" 
d="M331 686h65v-102h-65v102zM172 686h65v-102h-65v102zM411 272q-38 -16 -77 -21t-78 -8q-69 -5 -107.5 -31t-38.5 -79q0 -24 9.5 -41.5t25 -29t36 -17t41.5 -5.5q36 0 70 9t60.5 27.5t42.5 47t16 67.5v81zM310 302q17 2 40.5 6t38.5 11t18.5 23.5t3.5 30.5
q0 46 -29.5 75.5t-99.5 29.5q-31 0 -57 -5.5t-45.5 -19t-32 -36t-16.5 -56.5h-61q3 46 21 78.5t46.5 53t66 30t79.5 9.5q39 0 73.5 -8.5t60 -27t40 -49.5t14.5 -76v-282q0 -35 12.5 -44.5t50.5 4.5v-47q-7 -2 -20.5 -6t-26.5 -4q-14 0 -27 3q-15 2 -24 9.5t-14.5 18t-7.5 23
t-2 26.5q-38 -42 -87 -64t-106 -22q-34 0 -65.5 9t-55.5 28t-38 46.5t-14 65.5q0 132 181 156z" />
    <glyph glyph-name="aring" unicode="&#xe5;" 
d="M279 611q26 0 46 20t20 46t-19.5 46.5t-46.5 20.5t-47 -20t-20 -47t20.5 -46.5t46.5 -19.5zM279 578q-20 0 -38.5 8t-32 21.5t-21.5 31.5t-8 38t8 38t22 32t32 22t38 8t38 -8t31.5 -22t21.5 -32t8 -38t-8 -38t-21.5 -31.5t-31.5 -21.5t-38 -8zM411 272q-38 -16 -77 -21
t-78 -8q-69 -5 -107.5 -31t-38.5 -79q0 -24 9.5 -41.5t25 -29t36 -17t41.5 -5.5q36 0 70 9t60.5 27.5t42.5 47t16 67.5v81zM310 302q17 2 40.5 6t38.5 11t18.5 23.5t3.5 30.5q0 46 -29.5 75.5t-99.5 29.5q-31 0 -57 -5.5t-45.5 -19t-32 -36t-16.5 -56.5h-61q3 46 21 78.5
t46.5 53t66 30t79.5 9.5q39 0 73.5 -8.5t60 -27t40 -49.5t14.5 -76v-282q0 -35 12.5 -44.5t50.5 4.5v-47q-7 -2 -20.5 -6t-26.5 -4q-14 0 -27 3q-15 2 -24 9.5t-14.5 18t-7.5 23t-2 26.5q-38 -42 -87 -64t-106 -22q-34 0 -65.5 9t-55.5 28t-38 46.5t-14 65.5q0 132 181 156z
" />
    <glyph glyph-name="ae" unicode="&#xe6;" horiz-adv-x="889" 
d="M783 295q0 37 -10 70.5t-29.5 58.5t-49.5 39.5t-69 14.5q-47 0 -79.5 -18.5t-52 -46t-28 -59.5t-8.5 -59h326zM393 274q-24 -13 -54.5 -18.5t-62.5 -9.5t-63 -8.5t-55.5 -15t-39.5 -30t-15 -51.5q0 -51 29 -76t79 -25q91 0 136.5 45.5t45.5 118.5v70zM276 301q39 4 62 9
t35 12t16 17.5t4 25.5q0 66 -28.5 89.5t-97.5 23.5q-60 0 -98 -25.5t-46 -88.5h-62q3 44 19.5 75.5t44 52t63.5 30.5t77 10q25 0 52.5 -3.5t52.5 -13t45 -26t31 -42.5q34 50 78 67.5t103 17.5q65 0 107.5 -22.5t67.5 -61.5t35 -91t10 -112h-390q0 -42 9.5 -79.5t30.5 -65
t53.5 -44t78.5 -16.5q60 0 98 32t53 88h63q-20 -84 -75.5 -129t-143.5 -45q-68 0 -116.5 27.5t-83.5 86.5q-14 -20 -32 -40t-43 -36.5t-60 -27t-83 -10.5q-35 0 -65.5 8.5t-53 26.5t-35.5 45.5t-13 65.5q0 68 44.5 110.5t135.5 52.5z" />
    <glyph glyph-name="ccedilla" unicode="&#xe7;" 
d="M439 355q-16 58 -55 90.5t-99 32.5q-46 0 -79 -19t-54 -50.5t-31 -71t-10 -79.5q0 -41 9.5 -80t30.5 -70t54 -49.5t80 -18.5q67 0 107.5 37t51.5 102h64q-8 -42 -25 -77t-44 -60.5t-64 -40t-85 -15.5l-36 -45l18 4t18 2q33 0 53.5 -16.5t23.5 -35.5q5 -27 -2.5 -46.5
t-23.5 -31.5t-38 -18t-46 -6q-23 0 -46 5.5t-45 13.5l15 30q16 -5 31.5 -10t32.5 -5q11 0 22.5 2.5t21.5 8t16 14.5t6 22q0 20 -15.5 29.5t-34.5 9.5q-11 0 -22 -2.5t-22 -5.5l-15 13l52 71q-54 5 -93 27.5t-64.5 58.5t-37.5 82.5t-12 100.5t15.5 103.5t45.5 87.5t74.5 60.5
t102.5 22.5q90 0 145.5 -43t69.5 -134h-61z" />
    <glyph glyph-name="egrave" unicode="&#xe8;" 
d="M157 713h78l111 -139h-51zM447 295q0 38 -10.5 71.5t-31 58t-51.5 39t-71 14.5t-70.5 -15t-52 -40t-34.5 -58t-17 -70h338zM109 245q0 -42 11 -79.5t32.5 -65t54.5 -44t76 -16.5q59 0 101 31t56 88h67q-11 -37 -29 -68.5t-45 -55t-64 -36.5t-86 -13q-62 0 -107 21
t-74 57.5t-43 86t-14 106.5t16.5 107t47 87.5t74.5 59t100 21.5q107 0 168 -73.5t60 -213.5h-402z" />
    <glyph glyph-name="eacute" unicode="&#xe9;" 
d="M221 574l111 139h77l-137 -139h-51zM447 295q0 38 -10.5 71.5t-31 58t-51.5 39t-71 14.5t-70.5 -15t-52 -40t-34.5 -58t-17 -70h338zM109 245q0 -42 11 -79.5t32.5 -65t54.5 -44t76 -16.5q59 0 101 31t56 88h67q-11 -37 -29 -68.5t-45 -55t-64 -36.5t-86 -13
q-62 0 -107 21t-74 57.5t-43 86t-14 106.5t16.5 107t47 87.5t74.5 59t100 21.5q107 0 168 -73.5t60 -213.5h-402z" />
    <glyph glyph-name="ecircumflex" unicode="&#xea;" 
d="M201 574h-65l114 139h67l113 -139h-65l-82 102zM447 295q0 38 -10.5 71.5t-31 58t-51.5 39t-71 14.5t-70.5 -15t-52 -40t-34.5 -58t-17 -70h338zM109 245q0 -42 11 -79.5t32.5 -65t54.5 -44t76 -16.5q59 0 101 31t56 88h67q-11 -37 -29 -68.5t-45 -55t-64 -36.5t-86 -13
q-62 0 -107 21t-74 57.5t-43 86t-14 106.5t16.5 107t47 87.5t74.5 59t100 21.5q107 0 168 -73.5t60 -213.5h-402z" />
    <glyph glyph-name="edieresis" unicode="&#xeb;" 
d="M331 686h65v-102h-65v102zM172 686h65v-102h-65v102zM447 295q0 38 -10.5 71.5t-31 58t-51.5 39t-71 14.5t-70.5 -15t-52 -40t-34.5 -58t-17 -70h338zM109 245q0 -42 11 -79.5t32.5 -65t54.5 -44t76 -16.5q59 0 101 31t56 88h67q-11 -37 -29 -68.5t-45 -55t-64 -36.5
t-86 -13q-62 0 -107 21t-74 57.5t-43 86t-14 106.5t16.5 107t47 87.5t74.5 59t100 21.5q107 0 168 -73.5t60 -213.5h-402z" />
    <glyph glyph-name="igrave" unicode="&#xec;" horiz-adv-x="222" 
d="M-10 713h78l111 -139h-51zM78 0v518h60v-518h-60z" />
    <glyph glyph-name="iacute" unicode="&#xed;" horiz-adv-x="222" 
d="M33 574l111 139h77l-137 -139h-51zM78 0v518h60v-518h-60z" />
    <glyph glyph-name="icircumflex" unicode="&#xee;" horiz-adv-x="222" 
d="M13 574h-65l114 139h67l113 -139h-65l-82 102zM78 0v518h60v-518h-60z" />
    <glyph glyph-name="idieresis" unicode="&#xef;" horiz-adv-x="222" 
d="M-16 686h65v-102h-65v102zM143 686h65v-102h-65v102zM78 0v518h60v-518h-60z" />
    <glyph glyph-name="eth" unicode="&#xf0;" 
d="M454 259q0 46 -10 86t-31 69.5t-54 46.5t-81 17q-47 0 -80.5 -18.5t-54.5 -49t-31 -70t-10 -81.5q0 -48 11.5 -88.5t33.5 -69.5t55 -45t76 -16q47 0 80.5 18.5t54.5 49.5t31 70t10 81zM268 586l-38 24l65 52q-17 12 -37 22.5t-43 21.5l41 33q21 -9 40.5 -20t38.5 -25
l55 45l37 -25l-59 -48q70 -66 110 -169.5t40 -237.5q0 -62 -17 -112t-48.5 -86t-76 -55.5t-98.5 -19.5q-50 1 -93.5 18t-76 51t-51.5 85t-19 119q0 51 13.5 100t42 87.5t73.5 62t107 23.5q25 0 44 -2t35.5 -7t32.5 -14t34 -23q-18 51 -40 87t-51 62z" />
    <glyph glyph-name="ntilde" unicode="&#xf1;" 
d="M128 586q2 18 7 32.5t13 26.5q15 21 38.5 31.5t49.5 4.5q14 -3 30 -10t32.5 -14.5t32 -13t28.5 -5.5q22 0 31 16t13 34h38q-1 -10 -3.5 -19.5t-4.5 -18.5q-11 -24 -28 -42t-46 -18q-21 0 -39.5 7t-36.5 15.5t-35.5 15.5t-34.5 7q-23 0 -33 -15t-16 -34h-36zM132 0h-60
v518h60v-72q36 38 74.5 62t92.5 24q48 0 89 -16.5t69 -57.5q19 -28 22.5 -57.5t3.5 -61.5v-339h-60v338q0 70 -31 105t-103 35q-28 0 -51 -8.5t-41.5 -22.5t-31.5 -32t-20 -38q-9 -25 -11 -48t-2 -50v-279z" />
    <glyph glyph-name="ograve" unicode="&#xf2;" 
d="M157 713h78l111 -139h-51zM454 259q0 46 -10 86t-31 69.5t-54 46.5t-81 17q-47 0 -80.5 -18.5t-54.5 -49t-31 -70t-10 -81.5q0 -48 11.5 -88.5t33.5 -69.5t55 -45t76 -16q47 0 80.5 18.5t54.5 49.5t31 70t10 81zM278 -14q-50 1 -93.5 18t-76 51t-51.5 85t-19 119
q0 57 15 106.5t45 86.5t75 58.5t105 21.5q61 0 106 -21.5t75 -58t44.5 -86.5t14.5 -107q0 -62 -17 -112t-48.5 -86t-76 -55.5t-98.5 -19.5z" />
    <glyph glyph-name="oacute" unicode="&#xf3;" 
d="M221 574l111 139h77l-137 -139h-51zM454 259q0 46 -10 86t-31 69.5t-54 46.5t-81 17q-47 0 -80.5 -18.5t-54.5 -49t-31 -70t-10 -81.5q0 -48 11.5 -88.5t33.5 -69.5t55 -45t76 -16q47 0 80.5 18.5t54.5 49.5t31 70t10 81zM278 -14q-50 1 -93.5 18t-76 51t-51.5 85
t-19 119q0 57 15 106.5t45 86.5t75 58.5t105 21.5q61 0 106 -21.5t75 -58t44.5 -86.5t14.5 -107q0 -62 -17 -112t-48.5 -86t-76 -55.5t-98.5 -19.5z" />
    <glyph glyph-name="ocircumflex" unicode="&#xf4;" 
d="M201 574h-65l114 139h67l113 -139h-65l-82 102zM454 259q0 46 -10 86t-31 69.5t-54 46.5t-81 17q-47 0 -80.5 -18.5t-54.5 -49t-31 -70t-10 -81.5q0 -48 11.5 -88.5t33.5 -69.5t55 -45t76 -16q47 0 80.5 18.5t54.5 49.5t31 70t10 81zM278 -14q-50 1 -93.5 18t-76 51
t-51.5 85t-19 119q0 57 15 106.5t45 86.5t75 58.5t105 21.5q61 0 106 -21.5t75 -58t44.5 -86.5t14.5 -107q0 -62 -17 -112t-48.5 -86t-76 -55.5t-98.5 -19.5z" />
    <glyph glyph-name="otilde" unicode="&#xf5;" 
d="M128 586q2 18 7 32.5t13 26.5q15 21 38.5 31.5t49.5 4.5q14 -3 30 -10t32.5 -14.5t32 -13t28.5 -5.5q22 0 31 16t13 34h38q-1 -10 -3.5 -19.5t-4.5 -18.5q-11 -24 -28 -42t-46 -18q-21 0 -39.5 7t-36.5 15.5t-35.5 15.5t-34.5 7q-23 0 -33 -15t-16 -34h-36zM454 259
q0 46 -10 86t-31 69.5t-54 46.5t-81 17q-47 0 -80.5 -18.5t-54.5 -49t-31 -70t-10 -81.5q0 -48 11.5 -88.5t33.5 -69.5t55 -45t76 -16q47 0 80.5 18.5t54.5 49.5t31 70t10 81zM278 -14q-50 1 -93.5 18t-76 51t-51.5 85t-19 119q0 57 15 106.5t45 86.5t75 58.5t105 21.5
q61 0 106 -21.5t75 -58t44.5 -86.5t14.5 -107q0 -62 -17 -112t-48.5 -86t-76 -55.5t-98.5 -19.5z" />
    <glyph glyph-name="odieresis" unicode="&#xf6;" 
d="M331 686h65v-102h-65v102zM172 686h65v-102h-65v102zM454 259q0 46 -10 86t-31 69.5t-54 46.5t-81 17q-47 0 -80.5 -18.5t-54.5 -49t-31 -70t-10 -81.5q0 -48 11.5 -88.5t33.5 -69.5t55 -45t76 -16q47 0 80.5 18.5t54.5 49.5t31 70t10 81zM278 -14q-50 1 -93.5 18t-76 51
t-51.5 85t-19 119q0 57 15 106.5t45 86.5t75 58.5t105 21.5q61 0 106 -21.5t75 -58t44.5 -86.5t14.5 -107q0 -62 -17 -112t-48.5 -86t-76 -55.5t-98.5 -19.5z" />
    <glyph glyph-name="divide" unicode="&#xf7;" horiz-adv-x="660" 
d="M294 0v88h73v-88h-73zM294 412v88h73v-88h-73zM80 280h500v-60h-500v60z" />
    <glyph glyph-name="oslash" unicode="&#xf8;" 
d="M395 433q-14 16 -42 30.5t-73 14.5q-47 0 -80.5 -18.5t-54.5 -49.5t-31 -70.5t-10 -81.5q0 -47 9 -80.5t22 -53.5zM162 85q23 -23 54.5 -34t63.5 -11q47 0 80.5 18.5t54.5 49t31 69.5t10 81q0 38 -6.5 74t-24.5 65zM71 -23l-36 29l58 68q-28 37 -40.5 84t-12.5 100
q0 57 15 106.5t45 87t75 59t105 21.5q48 0 86.5 -13.5t67.5 -39.5l52 62l35 -31l-55 -65q27 -36 40.5 -84t13.5 -103q0 -60 -16 -110t-46.5 -86t-75.5 -56t-102 -20q-56 0 -94.5 17.5t-60.5 37.5z" />
    <glyph glyph-name="ugrave" unicode="&#xf9;" 
d="M157 713h78l111 -139h-51zM423 518h60v-518h-60v72q-12 -14 -27 -29t-34.5 -27.5t-45.5 -21t-60 -8.5q-52 0 -87 14.5t-56.5 40.5t-31 60.5t-9.5 75.5v341h60v-340q0 -67 31 -102.5t102 -35.5q37 0 66.5 14.5t49.5 40.5t31 62t11 79v282z" />
    <glyph glyph-name="uacute" unicode="&#xfa;" 
d="M221 574l111 139h77l-137 -139h-51zM423 518h60v-518h-60v72q-12 -14 -27 -29t-34.5 -27.5t-45.5 -21t-60 -8.5q-52 0 -87 14.5t-56.5 40.5t-31 60.5t-9.5 75.5v341h60v-340q0 -67 31 -102.5t102 -35.5q37 0 66.5 14.5t49.5 40.5t31 62t11 79v282z" />
    <glyph glyph-name="ucircumflex" unicode="&#xfb;" 
d="M201 574h-65l114 139h67l113 -139h-65l-82 102zM423 518h60v-518h-60v72q-12 -14 -27 -29t-34.5 -27.5t-45.5 -21t-60 -8.5q-52 0 -87 14.5t-56.5 40.5t-31 60.5t-9.5 75.5v341h60v-340q0 -67 31 -102.5t102 -35.5q37 0 66.5 14.5t49.5 40.5t31 62t11 79v282z" />
    <glyph glyph-name="udieresis" unicode="&#xfc;" 
d="M172 686h65v-102h-65v102zM331 686h65v-102h-65v102zM423 518h60v-518h-60v72q-12 -14 -27 -29t-34.5 -27.5t-45.5 -21t-60 -8.5q-52 0 -87 14.5t-56.5 40.5t-31 60.5t-9.5 75.5v341h60v-340q0 -67 31 -102.5t102 -35.5q37 0 66.5 14.5t49.5 40.5t31 62t11 79v282z" />
    <glyph glyph-name="yacute" unicode="&#xfd;" horiz-adv-x="500" 
d="M193 574l111 139h77l-137 -139h-51zM68 -141q12 -2 24.5 -4t25.5 -2q25 0 41 16t26.5 38.5t17.5 47t16 41.5l-201 522h67l166 -445l166 445h65l-193 -511q-18 -49 -34.5 -88t-35 -66.5t-41 -42t-53.5 -14.5q-16 0 -30.5 2t-26.5 5v56z" />
    <glyph glyph-name="thorn" unicode="&#xfe;" horiz-adv-x="611" 
d="M139 257q0 -44 12 -83.5t34.5 -69t55 -47t73.5 -17.5q46 0 80.5 18.5t56.5 50.5t32 74.5t8 91.5q0 49 -13.5 86.5t-37.5 63.5t-56 39.5t-70 13.5q-42 0 -75 -17t-55 -46.5t-33.5 -70t-11.5 -87.5zM139 -204h-60v924h60v-293h2q13 25 33.5 45t45 33t50.5 20t51 7
q63 0 107 -21t72.5 -57.5t41.5 -86.5t13 -107q0 -54 -14 -104t-42.5 -87.5t-72 -60t-102.5 -22.5q-55 0 -105.5 24.5t-79.5 72.5v-287z" />
    <glyph glyph-name="ydieresis" unicode="&#xff;" horiz-adv-x="500" 
d="M144 686h65v-102h-65v102zM303 686h65v-102h-65v102zM68 -141q12 -2 24.5 -4t25.5 -2q25 0 41 16t26.5 38.5t17.5 47t16 41.5l-201 522h67l166 -445l166 445h65l-193 -511q-18 -49 -34.5 -88t-35 -66.5t-41 -42t-53.5 -14.5q-16 0 -30.5 2t-26.5 5v56z" />
    <glyph glyph-name="dotlessi" unicode="&#x131;" horiz-adv-x="222" 
d="M78 0v518h60v-518h-60z" />
    <glyph glyph-name="Lslash" unicode="&#x141;" 
d="M81 0v360l-81 -40v60l81 40v300h68v-250l81 40v-60l-81 -40v-352h386v-58h-454z" />
    <glyph glyph-name="lslash" unicode="&#x142;" horiz-adv-x="222" 
d="M81 0v340l-71 -40v60l71 40v320h60v-270l71 40v-60l-71 -40v-390h-60z" />
    <glyph glyph-name="OE" unicode="&#x152;" horiz-adv-x="1000" 
d="M547 498q0 90 -53.5 136.5t-147.5 46.5q-114 0 -175.5 -80.5t-61.5 -239.5q0 -71 14 -130t44 -101.5t76 -66.5t111 -24q38 0 76.5 15t67.5 39q31 26 40 57.5t9 70.5v277zM550 72q-18 -18 -38 -34.5t-44 -29t-53.5 -20t-65.5 -7.5q-83 0 -141 31.5t-95.5 84t-54.5 120.5
t-17 142q0 78 17.5 147.5t54.5 121t95 81.5t138 30q64 0 116.5 -19t87.5 -76v76h407v-58h-342v-260h320v-58h-320v-286h352v-58h-417v72z" />
    <glyph glyph-name="oe" unicode="&#x153;" horiz-adv-x="944" 
d="M840 295q0 39 -9 72.5t-28.5 58t-49.5 38.5t-72 14q-38 0 -69 -14.5t-52.5 -39.5t-34 -58.5t-14.5 -70.5h329zM100 249q0 -42 10.5 -80t32 -66.5t53.5 -45.5t76 -17q43 0 75.5 17t54.5 47t33.5 72t11.5 93q0 45 -11.5 83.5t-34 66.5t-56.5 43.5t-79 15.5
q-81 0 -125 -61.5t-41 -167.5zM511 245q-3 -28 4.5 -63.5t28.5 -67t56 -53t86 -21.5q57 0 97.5 33t52.5 87h61q-18 -85 -74.5 -129.5t-138.5 -44.5q-74 0 -126 36t-79 90q-31 -63 -87 -94.5t-125 -31.5q-52 0 -94.5 19t-73 54.5t-47 86t-16.5 112.5q0 57 13.5 106.5t42.5 87
t73 59t106 21.5q73 0 124.5 -29.5t83.5 -95.5q33 63 83 94t122 31q68 0 111 -24t67 -63.5t33 -91.5t9 -108h-393z" />
    <glyph glyph-name="Scaron" unicode="&#x160;" horiz-adv-x="611" 
d="M392 915h65l-113 -139h-67l-114 139h65l82 -102zM109 215q4 -48 21.5 -81.5t45 -54.5t63.5 -30.5t77 -9.5q48 0 83 12t57 32.5t32.5 47.5t10.5 57q0 42 -19 68t-49.5 42.5t-70 26.5t-81 19.5t-81 22.5t-70 35t-49.5 56.5t-19 87.5q0 37 15.5 72t46 62t76.5 43t106 16
q61 0 106.5 -17t75.5 -46.5t45 -68.5t15 -83h-65q0 41 -14.5 71t-39.5 49t-57 28t-66 9q-52 0 -87.5 -14.5t-56.5 -37.5t-29 -51t-3 -56q6 -35 28 -56t54 -34.5t70.5 -22t78.5 -18t77.5 -22.5t66.5 -35t46.5 -56.5t17.5 -86.5q0 -100 -69 -155t-194 -55q-56 0 -104 14.5
t-83 44t-54.5 73t-19.5 102.5h66z" />
    <glyph glyph-name="scaron" unicode="&#x161;" horiz-adv-x="500" 
d="M337 713h65l-113 -139h-67l-114 139h65l82 -102zM107 162q14 -67 50.5 -94.5t104.5 -27.5q33 0 57 8t39.5 21.5t23.5 30.5t8 36q0 38 -24.5 56.5t-61.5 29t-80 18t-80 22.5t-61.5 43t-24.5 79q0 65 47.5 106.5t134.5 41.5q84 0 136.5 -37.5t63.5 -125.5h-61
q-8 60 -45.5 84.5t-94.5 24.5t-87 -24.5t-30 -64.5q0 -35 24.5 -53.5t61.5 -30t80 -20.5t80 -25.5t61.5 -44.5t24.5 -78q0 -37 -16 -65.5t-44 -47.5t-66.5 -28.5t-84.5 -9.5t-81.5 13.5t-60.5 37.5t-39 56t-16 69h61z" />
    <glyph glyph-name="Ydieresis" unicode="&#x178;" horiz-adv-x="611" 
d="M199 888h65v-102h-65v102zM358 888h65v-102h-65v102zM302 373l217 347h79l-261 -406v-314h-68v309l-257 411h78z" />
    <glyph glyph-name="Zcaron" unicode="&#x17d;" horiz-adv-x="611" 
d="M392 915h65l-113 -139h-67l-114 139h65l82 -102zM31 0v57l461 605h-422v58h506v-57l-461 -605h464v-58h-548z" />
    <glyph glyph-name="zcaron" unicode="&#x17e;" horiz-adv-x="500" 
d="M337 713h65l-113 -139h-67l-114 139h65l82 -102zM33 0v53l344 415h-321v50h398v-53l-344 -415h357v-50h-434z" />
    <glyph glyph-name="florin" unicode="&#x192;" 
d="M519 665q-16 9 -33 13q-8 2 -19 2t-25 -3q-29 -5 -45.5 -29t-26.5 -57t-16.5 -71.5t-15.5 -71.5h115v-48h-123l-64 -336q-11 -53 -25 -100t-36.5 -82.5t-55.5 -56.5t-81 -21q-14 0 -28 3t-27 8l19 57q15 -9 25 -11t27 -2q30 0 51 25.5t38.5 74.5t32 119t30.5 160l29 162
h-113v48h121q10 42 21 91.5t31 93t54 72.5t90 29q20 0 36.5 -5t33.5 -15z" />
    <glyph glyph-name="circumflex" unicode="&#x2c6;" horiz-adv-x="333" 
d="M89 574h-65l114 139h67l113 -139h-65l-82 102z" />
    <glyph glyph-name="caron" unicode="&#x2c7;" horiz-adv-x="333" 
d="M253 713h65l-113 -139h-67l-114 139h65l82 -102z" />
    <glyph glyph-name="breve" unicode="&#x2d8;" horiz-adv-x="333" 
d="M67 706q8 -42 35.5 -61.5t69.5 -19.5t69 19.5t38 61.5h37q-7 -63 -47 -94.5t-102 -31.5q-60 0 -97 33t-42 93h39z" />
    <glyph glyph-name="dotaccent" unicode="&#x2d9;" horiz-adv-x="333" 
d="M134 686h65v-102h-65v102z" />
    <glyph glyph-name="ring" unicode="&#x2da;" horiz-adv-x="333" 
d="M167 611q26 0 46 20t20 46t-19.5 46.5t-46.5 20.5t-47 -20t-20 -47t20.5 -46.5t46.5 -19.5zM167 578q-20 0 -38.5 8t-32 21.5t-21.5 31.5t-8 38t8 38t22 32t32 22t38 8t38 -8t31.5 -22t21.5 -32t8 -38t-8 -38t-21.5 -31.5t-31.5 -21.5t-38 -8z" />
    <glyph glyph-name="ogonek" unicode="&#x2db;" horiz-adv-x="333" 
d="M199 0v-2q-12 -6 -26 -14.5t-26 -20t-20 -24.5t-8 -28q0 -29 20.5 -43t46.5 -14q21 0 42 9v-44q-26 -9 -52 -9q-20 0 -38 5.5t-32.5 16.5t-23 27.5t-8.5 37.5q0 35 23 61.5t52 41.5h50z" />
    <glyph glyph-name="tilde" unicode="&#x2dc;" horiz-adv-x="333" 
d="M16 586q2 18 7 32.5t13 26.5q15 21 38.5 31.5t49.5 4.5q14 -3 30 -10t32.5 -14.5t32 -13t28.5 -5.5q22 0 31 16t13 34h38q-1 -10 -3.5 -19.5t-4.5 -18.5q-11 -24 -28 -42t-46 -18q-21 0 -39.5 7t-36.5 15.5t-35.5 15.5t-34.5 7q-23 0 -33 -15t-16 -34h-36z" />
    <glyph glyph-name="hungarumlaut" unicode="&#x2dd;" horiz-adv-x="333" 
d="M271 574l111 139h77l-137 -139h-51zM109 574l111 139h77l-137 -139h-51z" />
    <glyph glyph-name="endash" unicode="&#x2013;" horiz-adv-x="500" 
d="M500 238h-500v44h500v-44z" />
    <glyph glyph-name="emdash" unicode="&#x2014;" horiz-adv-x="1000" 
d="M0 238v44h1000v-44h-1000z" />
    <glyph glyph-name="quoteleft" unicode="&#x2018;" horiz-adv-x="222" 
d="M69 613q0 44 20.5 70.5t52.5 36.5v-37q-12 -8 -23 -22t-11 -44v-34h34v-88h-73v118z" />
    <glyph glyph-name="quoteright" unicode="&#x2019;" horiz-adv-x="222" 
d="M153 602q0 -44 -20.5 -70.5t-52.5 -36.5v37q12 8 23 22t11 44v34h-34v88h73v-118z" />
    <glyph glyph-name="quotesinglbase" unicode="&#x201a;" horiz-adv-x="222" 
d="M153 -30q0 -44 -20.5 -70.5t-52.5 -36.5v37q12 8 23 22t11 44v34h-34v88h73v-118z" />
    <glyph glyph-name="quotedblleft" unicode="&#x201c;" horiz-adv-x="389" 
d="M86 613q0 44 20.5 70.5t52.5 36.5v-37q-12 -8 -23 -22t-11 -44v-34h34v-88h-73v118zM237 613q0 44 20.5 70.5t52.5 36.5v-37q-12 -8 -23 -22t-11 -44v-34h34v-88h-73v118z" />
    <glyph glyph-name="quotedblright" unicode="&#x201d;" horiz-adv-x="389" 
d="M152 602q0 -44 -20.5 -70.5t-52.5 -36.5v37q12 8 23 22t11 44v34h-34v88h73v-118zM303 602q0 -44 -20.5 -70.5t-52.5 -36.5v37q12 8 23 22t11 44v34h-34v88h73v-118z" />
    <glyph glyph-name="quotedblbase" unicode="&#x201e;" horiz-adv-x="389" 
d="M152 -30q0 -44 -20.5 -70.5t-52.5 -36.5v37q12 8 23 22t11 44v34h-34v88h73v-118zM303 -30q0 -44 -20.5 -70.5t-52.5 -36.5v37q12 8 23 22t11 44v34h-34v88h73v-118z" />
    <glyph glyph-name="dagger" unicode="&#x2020;" 
d="M248 436h-211v54h211v230h60v-230h211v-54h-211v-602h-60v602z" />
    <glyph glyph-name="daggerdbl" unicode="&#x2021;" 
d="M248 443h-211v54h211v223h60v-223h211v-54h-211v-334h211v-54h-211v-221h-60v221h-211v54h211v334z" />
    <glyph glyph-name="bullet" unicode="&#x2022;" horiz-adv-x="500" 
d="M430 359q0 -37 -14 -69.5t-39 -57t-58 -38.5t-70 -14t-69.5 14t-57 38.5t-38.5 57t-14 69.5t14 70t38.5 58t57 39t69.5 14t70 -14t58 -39t39 -58t14 -70z" />
    <glyph glyph-name="ellipsis" unicode="&#x2026;" horiz-adv-x="1000" 
d="M464 0v88h73v-88h-73zM797 0v88h73v-88h-73zM131 0v88h73v-88h-73z" />
    <glyph glyph-name="perthousand" unicode="&#x2030;" horiz-adv-x="1000" 
d="M836 57q18 0 34.5 7.5t29.5 20.5t20.5 29.5t7.5 34.5t-7.5 35t-20 30t-29.5 20.5t-35 7.5q-19 0 -36 -7.5t-29.5 -20.5t-20 -29.5t-7.5 -35.5q0 -18 7.5 -35t20.5 -29.5t30 -20t35 -7.5zM473 57q18 0 35 7.5t29.5 20t20.5 29.5t8 35t-7.5 35t-20.5 30t-29.5 20.5
t-35.5 7.5t-35.5 -7.5t-29 -20.5t-20 -30t-7.5 -35t7.5 -35t20.5 -29.5t29.5 -20t34.5 -7.5zM163 641q-19 0 -35.5 -7.5t-29 -20t-20 -29.5t-7.5 -35t7.5 -35t20 -30t29.5 -20.5t35 -7.5t35 7.5t30 20.5t20.5 30t7.5 35t-7.5 35t-20.5 29.5t-30 20t-35 7.5zM86 -14l407 719
h53l-407 -719h-53zM836 299q31 0 58 -12t47 -32.5t32 -48t12 -57.5q0 -31 -12 -58t-32 -47.5t-47 -32t-58 -11.5t-58 11.5t-47.5 32t-32.5 47.5t-12 58q0 30 12 57.5t32.5 48t48 32.5t57.5 12zM163 698q30 0 57.5 -12t48 -32t32.5 -47t12 -58t-12 -58.5t-32.5 -47.5
t-47.5 -32t-58 -12t-58 12t-47.5 32.5t-32 48t-11.5 57.5t12 57.5t32 47.5t47.5 32t57.5 12zM473 299q30 0 57.5 -12t48 -32.5t32.5 -47.5t12 -58t-12 -58t-32.5 -47.5t-47.5 -32t-58 -11.5t-58 12t-47.5 32t-32 47.5t-11.5 57.5t12 57.5t32 48t47.5 32.5t57.5 12z" />
    <glyph glyph-name="guilsinglleft" unicode="&#x2039;" horiz-adv-x="389" 
d="M121 291l146 113v-63l-104 -82l104 -80v-62l-146 111v63z" />
    <glyph glyph-name="guilsinglright" unicode="&#x203a;" horiz-adv-x="389" 
d="M268 230l-146 -113v63l104 82l-104 80v62l146 -111v-63z" />
    <glyph glyph-name="fraction" unicode="&#x2044;" horiz-adv-x="167" 
d="M-164 -14l444 719h51l-444 -719h-51z" />
    <glyph glyph-name="fraction" unicode="&#x2215;" horiz-adv-x="167" 
d="M-164 -14l444 719h51l-444 -719h-51z" />
    <glyph glyph-name="trademark" unicode="&#x2122;" horiz-adv-x="940" 
d="M349 680h-134v-381h-52v381h-134v40h320v-40zM859 299h-52v377h-2l-145 -377h-34l-145 377h-2v-377h-52v421h96l120 -311h2l118 311h96v-421z" />
    <glyph glyph-name="minus" unicode="&#x2212;" horiz-adv-x="660" 
d="M80 280h500v-60h-500v60z" />
    <glyph glyph-name="fi" unicode="&#xfb01;" horiz-adv-x="500" 
d="M435 631h-66v89h66v-89zM372 0v518h60v-518h-60zM13 468v50h79v82q0 62 25 98t85 36q14 0 26 -1t24 -3v-55q-20 5 -36 5q-23 0 -36 -8.5t-19 -22.5t-7.5 -31.5t-1.5 -35.5v-64h98v-50h-98v-468h-60v468h-79z" />
    <glyph glyph-name="fl" unicode="&#xfb02;" horiz-adv-x="500" 
d="M372 0v720h60v-720h-60zM13 468v50h79v82q0 62 25 98t85 36q14 0 26 -1t24 -3v-55q-20 5 -36 5q-23 0 -36 -8.5t-19 -22.5t-7.5 -31.5t-1.5 -35.5v-64h98v-50h-98v-468h-60v468h-79z" />
    <glyph glyph-name="nonbreakingspace" horiz-adv-x="278" 
 />
    <hkern u1="A" u2="&#x2019;" k="74" />
    <hkern u1="A" u2="y" k="18" />
    <hkern u1="A" u2="w" k="18" />
    <hkern u1="A" u2="v" k="18" />
    <hkern u1="A" u2="Y" k="74" />
    <hkern u1="A" u2="W" k="37" />
    <hkern u1="A" u2="V" k="74" />
    <hkern u1="A" u2="T" k="92" />
    <hkern u1="F" u2="A" k="55" />
    <hkern u1="F" u2="&#x2e;" k="129" />
    <hkern u1="F" u2="&#x2c;" k="129" />
    <hkern u1="L" u2="&#x2019;" k="74" />
    <hkern u1="L" u2="y" k="37" />
    <hkern u1="L" u2="Y" k="111" />
    <hkern u1="L" u2="W" k="55" />
    <hkern u1="L" u2="V" k="92" />
    <hkern u1="L" u2="T" k="92" />
    <hkern u1="P" u2="A" k="74" />
    <hkern u1="P" u2="&#x2e;" k="129" />
    <hkern u1="P" u2="&#x2c;" k="129" />
    <hkern u1="R" u2="Y" k="37" />
    <hkern u1="R" u2="W" k="18" />
    <hkern u1="R" u2="V" k="18" />
    <hkern u1="R" u2="T" k="18" />
    <hkern u1="T" u2="y" k="84" />
    <hkern u1="T" u2="w" k="84" />
    <hkern u1="T" u2="u" k="92" />
    <hkern u1="T" u2="s" k="111" />
    <hkern u1="T" u2="r" k="92" />
    <hkern u1="T" u2="o" k="111" />
    <hkern u1="T" u2="e" k="111" />
    <hkern u1="T" u2="c" k="111" />
    <hkern u1="T" u2="a" k="111" />
    <hkern u1="T" u2="A" k="92" />
    <hkern u1="T" u2="&#x3b;" k="111" />
    <hkern u1="T" u2="&#x3a;" k="111" />
    <hkern u1="T" u2="&#x2e;" k="111" />
    <hkern u1="T" u2="&#x2d;" k="129" />
    <hkern u1="T" u2="&#x2c;" k="111" />
    <hkern u1="V" u2="y" k="18" />
    <hkern u1="V" u2="u" k="37" />
    <hkern u1="V" u2="r" k="37" />
    <hkern u1="V" u2="o" k="55" />
    <hkern u1="V" u2="i" k="18" />
    <hkern u1="V" u2="e" k="55" />
    <hkern u1="V" u2="a" k="55" />
    <hkern u1="V" u2="A" k="74" />
    <hkern u1="V" u2="&#x3b;" k="74" />
    <hkern u1="V" u2="&#x3a;" k="74" />
    <hkern u1="V" u2="&#x2e;" k="129" />
    <hkern u1="V" u2="&#x2d;" k="55" />
    <hkern u1="V" u2="&#x2c;" k="129" />
    <hkern u1="W" u2="u" k="18" />
    <hkern u1="W" u2="r" k="18" />
    <hkern u1="W" u2="o" k="18" />
    <hkern u1="W" u2="e" k="18" />
    <hkern u1="W" u2="a" k="37" />
    <hkern u1="W" u2="A" k="37" />
    <hkern u1="W" u2="&#x3b;" k="18" />
    <hkern u1="W" u2="&#x3a;" k="18" />
    <hkern u1="W" u2="&#x2e;" k="74" />
    <hkern u1="W" u2="&#x2c;" k="74" />
    <hkern u1="Y" u2="v" k="40" />
    <hkern u1="Y" u2="u" k="37" />
    <hkern u1="Y" u2="q" k="92" />
    <hkern u1="Y" u2="p" k="37" />
    <hkern u1="Y" u2="o" k="92" />
    <hkern u1="Y" u2="i" k="20" />
    <hkern u1="Y" u2="e" k="92" />
    <hkern u1="Y" u2="a" k="92" />
    <hkern u1="Y" u2="A" k="74" />
    <hkern u1="Y" u2="&#x3b;" k="92" />
    <hkern u1="Y" u2="&#x3a;" k="92" />
    <hkern u1="Y" u2="&#x2e;" k="111" />
    <hkern u1="Y" u2="&#x2d;" k="111" />
    <hkern u1="Y" u2="&#x2c;" k="111" />
    <hkern u1="f" u2="&#x2019;" k="-18" />
    <hkern u1="f" u2="f" k="18" />
    <hkern u1="r" u2="y" k="-18" />
    <hkern u1="r" u2="t" k="-18" />
    <hkern u1="r" u2="q" k="18" />
    <hkern u1="r" u2="o" k="18" />
    <hkern u1="r" u2="n" k="-18" />
    <hkern u1="r" u2="m" k="-18" />
    <hkern u1="r" u2="f" k="-18" />
    <hkern u1="r" u2="e" k="18" />
    <hkern u1="r" u2="d" k="18" />
    <hkern u1="r" u2="c" k="18" />
    <hkern u1="r" u2="&#x2e;" k="92" />
    <hkern u1="r" u2="&#x2d;" k="55" />
    <hkern u1="r" u2="&#x2c;" k="92" />
    <hkern u1="v" u2="&#x2e;" k="74" />
    <hkern u1="v" u2="&#x2c;" k="74" />
    <hkern u1="w" u2="&#x2e;" k="55" />
    <hkern u1="w" u2="&#x2c;" k="55" />
    <hkern u1="y" u2="&#x2e;" k="92" />
    <hkern u1="y" u2="&#x2c;" k="92" />
    <hkern u1="&#x2018;" u2="&#x2018;" k="18" />
    <hkern u1="&#x2019;" u2="&#x2019;" k="18" />
    <hkern u1="&#x2019;" u2="t" k="18" />
    <hkern u1="&#x2019;" u2="s" k="74" />
  </font>
</defs></svg>
